{
  "done": true,
  "metadata": {
    "@type": "type.googleapis.com/google.cloud.speech.v1.LongRunningRecognizeMetadata",
    "lastUpdateTime": "2021-03-11T20:27:34.231594Z",
    "progressPercent": 100,
    "startTime": "2021-03-11T20:27:05.259284Z",
    "uri": "gs://adresso/ADReSSo21-progression-test/progression/test-dist/audio/train/no_decline/adrsp137.wav"
  },
  "name": "2042690236721822222",
  "response": {
    "@type": "type.googleapis.com/google.cloud.speech.v1.LongRunningRecognizeResponse",
    "results": [
      {
        "alternatives": [
          {
            "confidence": 0.7508782,
            "transcript": "farm animals",
            "words": [
              {
                "endTime": "3s",
                "startTime": "0s",
                "word": "farm"
              },
              {
                "endTime": "3.500s",
                "startTime": "3s",
                "word": "animals"
              }
            ]
          }
        ]
      },
      {
        "alternatives": [
          {
            "confidence": 0.78962576,
            "transcript": " do animals are they animals but it can't be Birds",
            "words": [
              {
                "endTime": "4.300s",
                "startTime": "4.100s",
                "word": "do"
              },
              {
                "endTime": "4.900s",
                "startTime": "4.300s",
                "word": "animals"
              },
              {
                "endTime": "5.100s",
                "startTime": "4.900s",
                "word": "are"
              },
              {
                "endTime": "5.200s",
                "startTime": "5.100s",
                "word": "they"
              },
              {
                "endTime": "6.400s",
                "startTime": "5.200s",
                "word": "animals"
              },
              {
                "endTime": "6.700s",
                "startTime": "6.400s",
                "word": "but"
              },
              {
                "endTime": "6.800s",
                "startTime": "6.700s",
                "word": "it"
              },
              {
                "endTime": "7.200s",
                "startTime": "6.800s",
                "word": "can't"
              },
              {
                "endTime": "7.300s",
                "startTime": "7.200s",
                "word": "be"
              },
              {
                "endTime": "7.700s",
                "startTime": "7.300s",
                "word": "Birds"
              }
            ]
          }
        ]
      },
      {
        "alternatives": [
          {
            "confidence": 0.73051786,
            "transcript": " stop in one minute",
            "words": [
              {
                "endTime": "11.800s",
                "startTime": "11.300s",
                "word": "stop"
              },
              {
                "endTime": "12s",
                "startTime": "11.800s",
                "word": "in"
              },
              {
                "endTime": "12.300s",
                "startTime": "12s",
                "word": "one"
              },
              {
                "endTime": "12.400s",
                "startTime": "12.300s",
                "word": "minute"
              }
            ]
          }
        ]
      },
      {
        "alternatives": [
          {
            "confidence": 0.86840904,
            "transcript": " Kyle news",
            "words": [
              {
                "endTime": "19.100s",
                "startTime": "18.400s",
                "word": "Kyle"
              },
              {
                "endTime": "20.800s",
                "startTime": "19.100s",
                "word": "news"
              }
            ]
          }
        ]
      },
      {
        "alternatives": [
          {
            "confidence": 0.9357631,
            "transcript": " chicken",
            "words": [
              {
                "endTime": "28.300s",
                "startTime": "27.700s",
                "word": "chicken"
              }
            ]
          }
        ]
      },
      {
        "alternatives": [
          {
            "confidence": 0.32133508,
            "transcript": " goats sheeps",
            "words": [
              {
                "endTime": "30.800s",
                "startTime": "30s",
                "word": "goats"
              },
              {
                "endTime": "31.800s",
                "startTime": "30.800s",
                "word": "sheeps"
              }
            ]
          }
        ]
      },
      {
        "alternatives": [
          {
            "confidence": 0.6020993,
            "transcript": " raccoons",
            "words": [
              {
                "endTime": "35.300s",
                "startTime": "34.300s",
                "word": "raccoons"
              }
            ]
          }
        ]
      },
      {
        "alternatives": [
          {
            "confidence": 0.85749966,
            "transcript": " Carlson Fox",
            "words": [
              {
                "endTime": "37s",
                "startTime": "36.300s",
                "word": "Carlson"
              },
              {
                "endTime": "38.100s",
                "startTime": "37s",
                "word": "Fox"
              }
            ]
          }
        ]
      },
      {
        "alternatives": [
          {
            "confidence": 0.5771569,
            "transcript": " opossum",
            "words": [
              {
                "endTime": "45.600s",
                "startTime": "44.600s",
                "word": "opossum"
              }
            ]
          }
        ]
      },
      {
        "alternatives": [
          {
            "confidence": 0.7078818,
            "transcript": " rabbit squirrel",
            "words": [
              {
                "endTime": "47.700s",
                "startTime": "47s",
                "word": "rabbit"
              },
              {
                "endTime": "48s",
                "startTime": "47.700s",
                "word": "squirrel"
              }
            ]
          }
        ]
      },
      {
        "alternatives": [
          {
            "confidence": 0.9274074,
            "transcript": " okay now let me change the directions to Little here now it is like you to do is to think of as many words beginning with the letter S as you can think of all the words that you can think up I'm sorry with the letter F proper name of place for example using the letter R something like Robert is a proper name and you couldn't use that okay also you can't use derivatives using that are against something like run runner and running that would all be counted as one word okay as many words begin with the letter Frank fun too",
            "words": [
              {
                "endTime": "76.600s",
                "startTime": "74.700s",
                "word": "okay"
              },
              {
                "endTime": "78.400s",
                "startTime": "76.600s",
                "word": "now"
              },
              {
                "endTime": "78.500s",
                "startTime": "78.400s",
                "word": "let"
              },
              {
                "endTime": "78.600s",
                "startTime": "78.500s",
                "word": "me"
              },
              {
                "endTime": "78.900s",
                "startTime": "78.600s",
                "word": "change"
              },
              {
                "endTime": "79s",
                "startTime": "78.900s",
                "word": "the"
              },
              {
                "endTime": "79.400s",
                "startTime": "79s",
                "word": "directions"
              },
              {
                "endTime": "79.500s",
                "startTime": "79.400s",
                "word": "to"
              },
              {
                "endTime": "79.600s",
                "startTime": "79.500s",
                "word": "Little"
              },
              {
                "endTime": "80s",
                "startTime": "79.600s",
                "word": "here"
              },
              {
                "endTime": "80.800s",
                "startTime": "80s",
                "word": "now"
              },
              {
                "endTime": "81s",
                "startTime": "80.800s",
                "word": "it"
              },
              {
                "endTime": "81.100s",
                "startTime": "81s",
                "word": "is"
              },
              {
                "endTime": "81.300s",
                "startTime": "81.100s",
                "word": "like"
              },
              {
                "endTime": "81.400s",
                "startTime": "81.300s",
                "word": "you"
              },
              {
                "endTime": "81.500s",
                "startTime": "81.400s",
                "word": "to"
              },
              {
                "endTime": "81.600s",
                "startTime": "81.500s",
                "word": "do"
              },
              {
                "endTime": "81.700s",
                "startTime": "81.600s",
                "word": "is"
              },
              {
                "endTime": "81.800s",
                "startTime": "81.700s",
                "word": "to"
              },
              {
                "endTime": "82s",
                "startTime": "81.800s",
                "word": "think"
              },
              {
                "endTime": "82.200s",
                "startTime": "82s",
                "word": "of"
              },
              {
                "endTime": "82.300s",
                "startTime": "82.200s",
                "word": "as"
              },
              {
                "endTime": "82.600s",
                "startTime": "82.300s",
                "word": "many"
              },
              {
                "endTime": "83.900s",
                "startTime": "82.600s",
                "word": "words"
              },
              {
                "endTime": "84.300s",
                "startTime": "83.900s",
                "word": "beginning"
              },
              {
                "endTime": "84.400s",
                "startTime": "84.300s",
                "word": "with"
              },
              {
                "endTime": "84.500s",
                "startTime": "84.400s",
                "word": "the"
              },
              {
                "endTime": "84.800s",
                "startTime": "84.500s",
                "word": "letter"
              },
              {
                "endTime": "85.100s",
                "startTime": "84.800s",
                "word": "S"
              },
              {
                "endTime": "85.300s",
                "startTime": "85.100s",
                "word": "as"
              },
              {
                "endTime": "85.400s",
                "startTime": "85.300s",
                "word": "you"
              },
              {
                "endTime": "85.600s",
                "startTime": "85.400s",
                "word": "can"
              },
              {
                "endTime": "85.800s",
                "startTime": "85.600s",
                "word": "think"
              },
              {
                "endTime": "86s",
                "startTime": "85.800s",
                "word": "of"
              },
              {
                "endTime": "86.800s",
                "startTime": "86s",
                "word": "all"
              },
              {
                "endTime": "86.900s",
                "startTime": "86.800s",
                "word": "the"
              },
              {
                "endTime": "87.200s",
                "startTime": "86.900s",
                "word": "words"
              },
              {
                "endTime": "87.300s",
                "startTime": "87.200s",
                "word": "that"
              },
              {
                "endTime": "87.400s",
                "startTime": "87.300s",
                "word": "you"
              },
              {
                "endTime": "87.600s",
                "startTime": "87.400s",
                "word": "can"
              },
              {
                "endTime": "87.800s",
                "startTime": "87.600s",
                "word": "think"
              },
              {
                "endTime": "88.100s",
                "startTime": "87.800s",
                "word": "up"
              },
              {
                "endTime": "88.400s",
                "startTime": "88.100s",
                "word": "I'm"
              },
              {
                "endTime": "88.600s",
                "startTime": "88.400s",
                "word": "sorry"
              },
              {
                "endTime": "89.400s",
                "startTime": "88.600s",
                "word": "with"
              },
              {
                "endTime": "89.500s",
                "startTime": "89.400s",
                "word": "the"
              },
              {
                "endTime": "89.800s",
                "startTime": "89.500s",
                "word": "letter"
              },
              {
                "endTime": "90.100s",
                "startTime": "89.800s",
                "word": "F"
              },
              {
                "endTime": "99.100s",
                "startTime": "90.100s",
                "word": "proper"
              },
              {
                "endTime": "99.400s",
                "startTime": "99.100s",
                "word": "name"
              },
              {
                "endTime": "99.600s",
                "startTime": "99.400s",
                "word": "of"
              },
              {
                "endTime": "100.100s",
                "startTime": "99.600s",
                "word": "place"
              },
              {
                "endTime": "100.700s",
                "startTime": "100.100s",
                "word": "for"
              },
              {
                "endTime": "101.200s",
                "startTime": "100.700s",
                "word": "example"
              },
              {
                "endTime": "101.500s",
                "startTime": "101.200s",
                "word": "using"
              },
              {
                "endTime": "101.600s",
                "startTime": "101.500s",
                "word": "the"
              },
              {
                "endTime": "101.900s",
                "startTime": "101.600s",
                "word": "letter"
              },
              {
                "endTime": "102.100s",
                "startTime": "101.900s",
                "word": "R"
              },
              {
                "endTime": "102.700s",
                "startTime": "102.100s",
                "word": "something"
              },
              {
                "endTime": "103s",
                "startTime": "102.700s",
                "word": "like"
              },
              {
                "endTime": "103.700s",
                "startTime": "103s",
                "word": "Robert"
              },
              {
                "endTime": "103.800s",
                "startTime": "103.700s",
                "word": "is"
              },
              {
                "endTime": "103.900s",
                "startTime": "103.800s",
                "word": "a"
              },
              {
                "endTime": "104.200s",
                "startTime": "103.900s",
                "word": "proper"
              },
              {
                "endTime": "104.400s",
                "startTime": "104.200s",
                "word": "name"
              },
              {
                "endTime": "104.700s",
                "startTime": "104.400s",
                "word": "and"
              },
              {
                "endTime": "104.800s",
                "startTime": "104.700s",
                "word": "you"
              },
              {
                "endTime": "105.100s",
                "startTime": "104.800s",
                "word": "couldn't"
              },
              {
                "endTime": "105.400s",
                "startTime": "105.100s",
                "word": "use"
              },
              {
                "endTime": "105.500s",
                "startTime": "105.400s",
                "word": "that"
              },
              {
                "endTime": "106.200s",
                "startTime": "105.500s",
                "word": "okay"
              },
              {
                "endTime": "107.400s",
                "startTime": "106.200s",
                "word": "also"
              },
              {
                "endTime": "108.700s",
                "startTime": "107.400s",
                "word": "you"
              },
              {
                "endTime": "109s",
                "startTime": "108.700s",
                "word": "can't"
              },
              {
                "endTime": "109.200s",
                "startTime": "109s",
                "word": "use"
              },
              {
                "endTime": "110.100s",
                "startTime": "109.200s",
                "word": "derivatives"
              },
              {
                "endTime": "110.600s",
                "startTime": "110.100s",
                "word": "using"
              },
              {
                "endTime": "110.800s",
                "startTime": "110.600s",
                "word": "that"
              },
              {
                "endTime": "110.900s",
                "startTime": "110.800s",
                "word": "are"
              },
              {
                "endTime": "111.500s",
                "startTime": "110.900s",
                "word": "against"
              },
              {
                "endTime": "111.700s",
                "startTime": "111.500s",
                "word": "something"
              },
              {
                "endTime": "111.900s",
                "startTime": "111.700s",
                "word": "like"
              },
              {
                "endTime": "112.500s",
                "startTime": "111.900s",
                "word": "run"
              },
              {
                "endTime": "113s",
                "startTime": "112.500s",
                "word": "runner"
              },
              {
                "endTime": "113.200s",
                "startTime": "113s",
                "word": "and"
              },
              {
                "endTime": "113.800s",
                "startTime": "113.200s",
                "word": "running"
              },
              {
                "endTime": "114.100s",
                "startTime": "113.800s",
                "word": "that"
              },
              {
                "endTime": "114.200s",
                "startTime": "114.100s",
                "word": "would"
              },
              {
                "endTime": "114.400s",
                "startTime": "114.200s",
                "word": "all"
              },
              {
                "endTime": "114.500s",
                "startTime": "114.400s",
                "word": "be"
              },
              {
                "endTime": "114.800s",
                "startTime": "114.500s",
                "word": "counted"
              },
              {
                "endTime": "114.900s",
                "startTime": "114.800s",
                "word": "as"
              },
              {
                "endTime": "115.200s",
                "startTime": "114.900s",
                "word": "one"
              },
              {
                "endTime": "115.500s",
                "startTime": "115.200s",
                "word": "word"
              },
              {
                "endTime": "116.100s",
                "startTime": "115.500s",
                "word": "okay"
              },
              {
                "endTime": "117.200s",
                "startTime": "116.100s",
                "word": "as"
              },
              {
                "endTime": "117.500s",
                "startTime": "117.200s",
                "word": "many"
              },
              {
                "endTime": "118s",
                "startTime": "117.500s",
                "word": "words"
              },
              {
                "endTime": "118.100s",
                "startTime": "118s",
                "word": "begin"
              },
              {
                "endTime": "118.500s",
                "startTime": "118.100s",
                "word": "with"
              },
              {
                "endTime": "118.500s",
                "startTime": "118.500s",
                "word": "the"
              },
              {
                "endTime": "118.900s",
                "startTime": "118.500s",
                "word": "letter"
              },
              {
                "endTime": "123.400s",
                "startTime": "118.900s",
                "word": "Frank"
              },
              {
                "endTime": "124.500s",
                "startTime": "123.400s",
                "word": "fun"
              },
              {
                "endTime": "125.400s",
                "startTime": "124.500s",
                "word": "too"
              }
            ]
          }
        ]
      },
      {
        "alternatives": [
          {
            "confidence": 0.24373023,
            "transcript": " bet",
            "words": [
              {
                "endTime": "127.200s",
                "startTime": "126.500s",
                "word": "bet"
              }
            ]
          }
        ]
      },
      {
        "alternatives": [
          {
            "confidence": 0.5373699,
            "transcript": " prank",
            "words": [
              {
                "endTime": "139.700s",
                "startTime": "139s",
                "word": "prank"
              }
            ]
          }
        ]
      },
      {
        "alternatives": [
          {
            "confidence": 0.84255075,
            "transcript": " phone",
            "words": [
              {
                "endTime": "145.400s",
                "startTime": "144.600s",
                "word": "phone"
              }
            ]
          }
        ]
      },
      {
        "alternatives": [
          {
            "confidence": 0.93309164,
            "transcript": " thanks",
            "words": [
              {
                "endTime": "147.500s",
                "startTime": "146.700s",
                "word": "thanks"
              }
            ]
          }
        ]
      },
      {
        "alternatives": [
          {
            "confidence": 0.61254716,
            "transcript": " from",
            "words": [
              {
                "endTime": "154.800s",
                "startTime": "154.100s",
                "word": "from"
              }
            ]
          }
        ]
      },
      {
        "alternatives": [
          {
            "confidence": 0.8379617,
            "transcript": " Desi Banks",
            "words": [
              {
                "endTime": "173.100s",
                "startTime": "172.600s",
                "word": "Desi"
              },
              {
                "endTime": "173.300s",
                "startTime": "173.100s",
                "word": "Banks"
              }
            ]
          }
        ]
      },
      {
        "alternatives": [
          {
            "confidence": 0.705147,
            "transcript": " fix okay",
            "words": [
              {
                "endTime": "181.200s",
                "startTime": "180.600s",
                "word": "fix"
              },
              {
                "endTime": "182.500s",
                "startTime": "181.200s",
                "word": "okay"
              }
            ]
          }
        ]
      }
    ]
  }
}
