{
  "done": true,
  "metadata": {
    "@type": "type.googleapis.com/google.cloud.speech.v1.LongRunningRecognizeMetadata",
    "lastUpdateTime": "2021-03-11T20:27:34.231763Z",
    "progressPercent": 100,
    "startTime": "2021-03-11T20:27:08.074676Z",
    "uri": "gs://adresso/ADReSSo21-progression-test/progression/test-dist/audio/train/no_decline/adrsp157.wav"
  },
  "name": "2127782055199253735",
  "response": {
    "@type": "type.googleapis.com/google.cloud.speech.v1.LongRunningRecognizeResponse",
    "results": [
      {
        "alternatives": [
          {
            "confidence": 0.87037385,
            "transcript": "I need to begin cat dog rabbit",
            "words": [
              {
                "endTime": "0.400s",
                "startTime": "0.400s",
                "word": "I"
              },
              {
                "endTime": "1.200s",
                "startTime": "0.400s",
                "word": "need"
              },
              {
                "endTime": "1.300s",
                "startTime": "1.200s",
                "word": "to"
              },
              {
                "endTime": "1.500s",
                "startTime": "1.300s",
                "word": "begin"
              },
              {
                "endTime": "3.200s",
                "startTime": "1.500s",
                "word": "cat"
              },
              {
                "endTime": "3.800s",
                "startTime": "3.200s",
                "word": "dog"
              },
              {
                "endTime": "5.700s",
                "startTime": "3.800s",
                "word": "rabbit"
              }
            ]
          }
        ]
      },
      {
        "alternatives": [
          {
            "confidence": 0.8067076,
            "transcript": " snakes",
            "words": [
              {
                "endTime": "11.900s",
                "startTime": "10.700s",
                "word": "snakes"
              }
            ]
          }
        ]
      },
      {
        "alternatives": [
          {
            "confidence": 0.7549034,
            "transcript": " fish Rams purposes",
            "words": [
              {
                "endTime": "19.200s",
                "startTime": "18.700s",
                "word": "fish"
              },
              {
                "endTime": "20.100s",
                "startTime": "19.200s",
                "word": "Rams"
              },
              {
                "endTime": "21.200s",
                "startTime": "20.100s",
                "word": "purposes"
              }
            ]
          }
        ]
      },
      {
        "alternatives": [
          {
            "confidence": 0.9540305,
            "transcript": " Red Robin",
            "words": [
              {
                "endTime": "27.300s",
                "startTime": "26.600s",
                "word": "Red"
              },
              {
                "endTime": "28.200s",
                "startTime": "27.300s",
                "word": "Robin"
              }
            ]
          }
        ]
      },
      {
        "alternatives": [
          {
            "confidence": 0.65172905,
            "transcript": " warning.",
            "words": [
              {
                "endTime": "31.700s",
                "startTime": "30.900s",
                "word": "warning."
              }
            ]
          }
        ]
      },
      {
        "alternatives": [
          {
            "confidence": 0.8735486,
            "transcript": " crocodiles",
            "words": [
              {
                "endTime": "40.900s",
                "startTime": "39.100s",
                "word": "crocodiles"
              }
            ]
          }
        ]
      },
      {
        "alternatives": [
          {
            "confidence": 0.9902529,
            "transcript": " kangaroos",
            "words": [
              {
                "endTime": "43.600s",
                "startTime": "42.500s",
                "word": "kangaroos"
              }
            ]
          }
        ]
      },
      {
        "alternatives": [
          {
            "confidence": 0.793642,
            "transcript": " possums",
            "words": [
              {
                "endTime": "47.300s",
                "startTime": "46.400s",
                "word": "possums"
              }
            ]
          }
        ]
      },
      {
        "alternatives": [
          {
            "confidence": 0.9353316,
            "transcript": " rabbits",
            "words": [
              {
                "endTime": "49.200s",
                "startTime": "48.500s",
                "word": "rabbits"
              }
            ]
          }
        ]
      },
      {
        "alternatives": [
          {
            "confidence": 0.8876737,
            "transcript": " squirrels rice",
            "words": [
              {
                "endTime": "52.300s",
                "startTime": "51.300s",
                "word": "squirrels"
              },
              {
                "endTime": "53.400s",
                "startTime": "52.300s",
                "word": "rice"
              }
            ]
          }
        ]
      },
      {
        "alternatives": [
          {
            "confidence": 0.6924469,
            "transcript": " did I say",
            "words": [
              {
                "endTime": "60.800s",
                "startTime": "59.300s",
                "word": "did"
              },
              {
                "endTime": "60.900s",
                "startTime": "60.800s",
                "word": "I"
              },
              {
                "endTime": "61s",
                "startTime": "60.900s",
                "word": "say"
              }
            ]
          }
        ]
      },
      {
        "alternatives": [
          {
            "confidence": 0.9440763,
            "transcript": " instructions for example using the letter at something like Spain and salad beginning with the letter f",
            "words": [
              {
                "endTime": "68.600s",
                "startTime": "65.700s",
                "word": "instructions"
              },
              {
                "endTime": "78.900s",
                "startTime": "68.600s",
                "word": "for"
              },
              {
                "endTime": "79.200s",
                "startTime": "78.900s",
                "word": "example"
              },
              {
                "endTime": "79.500s",
                "startTime": "79.200s",
                "word": "using"
              },
              {
                "endTime": "79.600s",
                "startTime": "79.500s",
                "word": "the"
              },
              {
                "endTime": "79.900s",
                "startTime": "79.600s",
                "word": "letter"
              },
              {
                "endTime": "80s",
                "startTime": "79.900s",
                "word": "at"
              },
              {
                "endTime": "80.400s",
                "startTime": "80s",
                "word": "something"
              },
              {
                "endTime": "80.500s",
                "startTime": "80.400s",
                "word": "like"
              },
              {
                "endTime": "81.200s",
                "startTime": "80.500s",
                "word": "Spain"
              },
              {
                "endTime": "81.400s",
                "startTime": "81.200s",
                "word": "and"
              },
              {
                "endTime": "82.100s",
                "startTime": "81.400s",
                "word": "salad"
              },
              {
                "endTime": "93.300s",
                "startTime": "82.100s",
                "word": "beginning"
              },
              {
                "endTime": "93.400s",
                "startTime": "93.300s",
                "word": "with"
              },
              {
                "endTime": "93.500s",
                "startTime": "93.400s",
                "word": "the"
              },
              {
                "endTime": "93.900s",
                "startTime": "93.500s",
                "word": "letter"
              },
              {
                "endTime": "94.400s",
                "startTime": "93.900s",
                "word": "f"
              }
            ]
          }
        ]
      },
      {
        "alternatives": [
          {
            "confidence": 0.36594898,
            "transcript": " fish friend",
            "words": [
              {
                "endTime": "98.100s",
                "startTime": "97.500s",
                "word": "fish"
              },
              {
                "endTime": "101.400s",
                "startTime": "98.100s",
                "word": "friend"
              }
            ]
          }
        ]
      },
      {
        "alternatives": [
          {
            "confidence": 0.9445105,
            "transcript": " spell either way",
            "words": [
              {
                "endTime": "104s",
                "startTime": "103.600s",
                "word": "spell"
              },
              {
                "endTime": "104.200s",
                "startTime": "104s",
                "word": "either"
              },
              {
                "endTime": "104.600s",
                "startTime": "104.200s",
                "word": "way"
              }
            ]
          }
        ]
      },
      {
        "alternatives": [
          {
            "confidence": 0.2880264,
            "transcript": " ceiling",
            "words": [
              {
                "endTime": "114.600s",
                "startTime": "113.100s",
                "word": "ceiling"
              }
            ]
          }
        ]
      },
      {
        "alternatives": [
          {
            "confidence": 0.32560262,
            "transcript": " pool",
            "words": [
              {
                "endTime": "118.800s",
                "startTime": "118.200s",
                "word": "pool"
              }
            ]
          }
        ]
      },
      {
        "alternatives": [
          {
            "confidence": 0.78711003,
            "transcript": " friendship",
            "words": [
              {
                "endTime": "121.800s",
                "startTime": "121s",
                "word": "friendship"
              }
            ]
          }
        ]
      },
      {
        "alternatives": [
          {
            "confidence": 0.83369285,
            "transcript": " fast",
            "words": [
              {
                "endTime": "124.300s",
                "startTime": "123.500s",
                "word": "fast"
              }
            ]
          }
        ]
      },
      {
        "alternatives": [
          {
            "confidence": 0.78700316,
            "transcript": " dictionary",
            "words": [
              {
                "endTime": "140.100s",
                "startTime": "138.100s",
                "word": "dictionary"
              }
            ]
          }
        ]
      },
      {
        "alternatives": [
          {
            "confidence": 0.97278243,
            "transcript": " find",
            "words": [
              {
                "endTime": "145.100s",
                "startTime": "144.100s",
                "word": "find"
              }
            ]
          }
        ]
      },
      {
        "alternatives": [
          {
            "confidence": 0.9301332,
            "transcript": " did I say feel",
            "words": [
              {
                "endTime": "146.500s",
                "startTime": "146.100s",
                "word": "did"
              },
              {
                "endTime": "146.600s",
                "startTime": "146.500s",
                "word": "I"
              },
              {
                "endTime": "146.700s",
                "startTime": "146.600s",
                "word": "say"
              },
              {
                "endTime": "147.200s",
                "startTime": "146.700s",
                "word": "feel"
              }
            ]
          }
        ]
      },
      {
        "alternatives": [
          {
            "confidence": 0.8470156,
            "transcript": " okay",
            "words": [
              {
                "endTime": "155.900s",
                "startTime": "155.100s",
                "word": "okay"
              }
            ]
          }
        ]
      }
    ]
  }
}
