{
  "done": true,
  "metadata": {
    "@type": "type.googleapis.com/google.cloud.speech.v1.LongRunningRecognizeMetadata",
    "lastUpdateTime": "2021-03-11T20:27:47.966118Z",
    "progressPercent": 100,
    "startTime": "2021-03-11T20:27:27.970164Z",
    "uri": "gs://adresso/ADReSSo21-progression-test/progression/test-dist/audio/train/no_decline/adrsp255.wav"
  },
  "name": "6720574348594572201",
  "response": {
    "@type": "type.googleapis.com/google.cloud.speech.v1.LongRunningRecognizeResponse",
    "results": [
      {
        "alternatives": [
          {
            "confidence": 0.7687172,
            "transcript": "yolk",
            "words": [
              {
                "endTime": "1.200s",
                "startTime": "0.500s",
                "word": "yolk"
              }
            ]
          }
        ]
      },
      {
        "alternatives": [
          {
            "confidence": 0.79933345,
            "transcript": " dog",
            "words": [
              {
                "endTime": "11.200s",
                "startTime": "10.500s",
                "word": "dog"
              }
            ]
          }
        ]
      },
      {
        "alternatives": [
          {
            "confidence": 0.45170408,
            "transcript": " bear",
            "words": [
              {
                "endTime": "12.900s",
                "startTime": "12.400s",
                "word": "bear"
              }
            ]
          }
        ]
      },
      {
        "alternatives": [
          {
            "confidence": 0.2867451,
            "transcript": " GERD",
            "words": [
              {
                "endTime": "15.200s",
                "startTime": "14.400s",
                "word": "GERD"
              }
            ]
          }
        ]
      },
      {
        "alternatives": [
          {
            "confidence": 0.31039304,
            "transcript": " y'all",
            "words": [
              {
                "endTime": "17s",
                "startTime": "16.400s",
                "word": "y'all"
              }
            ]
          }
        ]
      },
      {
        "alternatives": [
          {
            "confidence": 0.56025684,
            "transcript": " Pig",
            "words": [
              {
                "endTime": "22.200s",
                "startTime": "21.700s",
                "word": "Pig"
              }
            ]
          }
        ]
      },
      {
        "alternatives": [
          {
            "confidence": 0.27008322,
            "transcript": " otter",
            "words": [
              {
                "endTime": "26.500s",
                "startTime": "25.800s",
                "word": "otter"
              }
            ]
          }
        ]
      },
      {
        "alternatives": [
          {
            "confidence": 0.49230024,
            "transcript": " bigger",
            "words": [
              {
                "endTime": "29.600s",
                "startTime": "28.900s",
                "word": "bigger"
              }
            ]
          }
        ]
      },
      {
        "alternatives": [
          {
            "confidence": 0.9437758,
            "transcript": " muskrat",
            "words": [
              {
                "endTime": "33.200s",
                "startTime": "32.400s",
                "word": "muskrat"
              }
            ]
          }
        ]
      },
      {
        "alternatives": [
          {
            "confidence": 0.34318554,
            "transcript": " dismiss",
            "words": [
              {
                "endTime": "43.500s",
                "startTime": "42.300s",
                "word": "dismiss"
              }
            ]
          }
        ]
      },
      {
        "alternatives": [
          {
            "confidence": 0.96067065,
            "transcript": " hippopotamus",
            "words": [
              {
                "endTime": "47.800s",
                "startTime": "46.600s",
                "word": "hippopotamus"
              }
            ]
          }
        ]
      },
      {
        "alternatives": [
          {
            "confidence": 0.7334032,
            "transcript": " giraffe",
            "words": [
              {
                "endTime": "51.400s",
                "startTime": "50.600s",
                "word": "giraffe"
              }
            ]
          }
        ]
      },
      {
        "alternatives": [
          {
            "confidence": 0.8043237,
            "transcript": " why can't",
            "words": [
              {
                "endTime": "57.600s",
                "startTime": "57.100s",
                "word": "why"
              },
              {
                "endTime": "58.100s",
                "startTime": "57.600s",
                "word": "can't"
              }
            ]
          }
        ]
      },
      {
        "alternatives": [
          {
            "confidence": 0.4996338,
            "transcript": " dogs",
            "words": [
              {
                "endTime": "70.700s",
                "startTime": "69.800s",
                "word": "dogs"
              }
            ]
          }
        ]
      },
      {
        "alternatives": [
          {
            "confidence": 0.5784694,
            "transcript": " Earth",
            "words": [
              {
                "endTime": "72.700s",
                "startTime": "72s",
                "word": "Earth"
              }
            ]
          }
        ]
      },
      {
        "alternatives": [
          {
            "confidence": 0.24604471,
            "transcript": " help",
            "words": [
              {
                "endTime": "104.900s",
                "startTime": "104.200s",
                "word": "help"
              }
            ]
          }
        ]
      }
    ]
  }
}
