{
  "done": true,
  "metadata": {
    "@type": "type.googleapis.com/google.cloud.speech.v1.LongRunningRecognizeMetadata",
    "lastUpdateTime": "2021-03-11T20:27:59.886014Z",
    "progressPercent": 100,
    "startTime": "2021-03-11T20:27:40.623756Z",
    "uri": "gs://adresso/ADReSSo21-progression-test/progression/test-dist/audio/train/no_decline/adrsp350.wav"
  },
  "name": "1349647122385983972",
  "response": {
    "@type": "type.googleapis.com/google.cloud.speech.v1.LongRunningRecognizeResponse",
    "results": [
      {
        "alternatives": [
          {
            "confidence": 0.9244044,
            "transcript": "start",
            "words": [
              {
                "endTime": "6.300s",
                "startTime": "5.700s",
                "word": "start"
              }
            ]
          }
        ]
      },
      {
        "alternatives": [
          {
            "confidence": 0.2525816,
            "transcript": " Dawn",
            "words": [
              {
                "endTime": "10.200s",
                "startTime": "7.800s",
                "word": "Dawn"
              }
            ]
          }
        ]
      },
      {
        "alternatives": [
          {
            "confidence": 0.81292,
            "transcript": " I know alarm a tiger",
            "words": [
              {
                "endTime": "16.100s",
                "startTime": "15.800s",
                "word": "I"
              },
              {
                "endTime": "16.300s",
                "startTime": "16.100s",
                "word": "know"
              },
              {
                "endTime": "18s",
                "startTime": "16.300s",
                "word": "alarm"
              },
              {
                "endTime": "18.900s",
                "startTime": "18s",
                "word": "a"
              },
              {
                "endTime": "19.400s",
                "startTime": "18.900s",
                "word": "tiger"
              }
            ]
          }
        ]
      },
      {
        "alternatives": [
          {
            "confidence": 0.80379915,
            "transcript": " a animal that you can pick up",
            "words": [
              {
                "endTime": "31.200s",
                "startTime": "30.900s",
                "word": "a"
              },
              {
                "endTime": "32.100s",
                "startTime": "31.200s",
                "word": "animal"
              },
              {
                "endTime": "32.100s",
                "startTime": "32.100s",
                "word": "that"
              },
              {
                "endTime": "32.500s",
                "startTime": "32.100s",
                "word": "you"
              },
              {
                "endTime": "32.500s",
                "startTime": "32.500s",
                "word": "can"
              },
              {
                "endTime": "32.800s",
                "startTime": "32.500s",
                "word": "pick"
              },
              {
                "endTime": "33s",
                "startTime": "32.800s",
                "word": "up"
              }
            ]
          }
        ]
      },
      {
        "alternatives": [
          {
            "confidence": 0.35038435,
            "transcript": " live deer",
            "words": [
              {
                "endTime": "41.300s",
                "startTime": "40.600s",
                "word": "live"
              },
              {
                "endTime": "41.500s",
                "startTime": "41.300s",
                "word": "deer"
              }
            ]
          }
        ]
      },
      {
        "alternatives": [
          {
            "confidence": 0.91378427,
            "transcript": " I had a dog",
            "words": [
              {
                "endTime": "51s",
                "startTime": "50.700s",
                "word": "I"
              },
              {
                "endTime": "51.300s",
                "startTime": "51s",
                "word": "had"
              },
              {
                "endTime": "51.300s",
                "startTime": "51.300s",
                "word": "a"
              },
              {
                "endTime": "51.600s",
                "startTime": "51.300s",
                "word": "dog"
              }
            ]
          }
        ]
      },
      {
        "alternatives": [
          {
            "confidence": 0.6560629,
            "transcript": " cheap",
            "words": [
              {
                "endTime": "56.200s",
                "startTime": "55.700s",
                "word": "cheap"
              }
            ]
          }
        ]
      },
      {
        "alternatives": [
          {
            "confidence": 0.77287257,
            "transcript": " rap okay",
            "words": [
              {
                "endTime": "66.900s",
                "startTime": "66.200s",
                "word": "rap"
              },
              {
                "endTime": "67.600s",
                "startTime": "66.900s",
                "word": "okay"
              }
            ]
          }
        ]
      },
      {
        "alternatives": [
          {
            "confidence": 0.92384464,
            "transcript": " any Barbie doll that begins with the letter f",
            "words": [
              {
                "endTime": "76.200s",
                "startTime": "74.500s",
                "word": "any"
              },
              {
                "endTime": "76.600s",
                "startTime": "76.200s",
                "word": "Barbie"
              },
              {
                "endTime": "76.800s",
                "startTime": "76.600s",
                "word": "doll"
              },
              {
                "endTime": "76.900s",
                "startTime": "76.800s",
                "word": "that"
              },
              {
                "endTime": "77.300s",
                "startTime": "76.900s",
                "word": "begins"
              },
              {
                "endTime": "77.400s",
                "startTime": "77.300s",
                "word": "with"
              },
              {
                "endTime": "77.500s",
                "startTime": "77.400s",
                "word": "the"
              },
              {
                "endTime": "77.600s",
                "startTime": "77.500s",
                "word": "letter"
              },
              {
                "endTime": "78.300s",
                "startTime": "77.600s",
                "word": "f"
              }
            ]
          }
        ]
      },
      {
        "alternatives": [
          {
            "confidence": 0.85160404,
            "transcript": " any word that begins with the letter f",
            "words": [
              {
                "endTime": "87.500s",
                "startTime": "84.800s",
                "word": "any"
              },
              {
                "endTime": "87.800s",
                "startTime": "87.500s",
                "word": "word"
              },
              {
                "endTime": "87.900s",
                "startTime": "87.800s",
                "word": "that"
              },
              {
                "endTime": "88.700s",
                "startTime": "87.900s",
                "word": "begins"
              },
              {
                "endTime": "88.700s",
                "startTime": "88.700s",
                "word": "with"
              },
              {
                "endTime": "88.800s",
                "startTime": "88.700s",
                "word": "the"
              },
              {
                "endTime": "89s",
                "startTime": "88.800s",
                "word": "letter"
              },
              {
                "endTime": "89.600s",
                "startTime": "89s",
                "word": "f"
              }
            ]
          }
        ]
      },
      {
        "alternatives": [
          {
            "confidence": 0.83857226,
            "transcript": " Runner fun anything else",
            "words": [
              {
                "endTime": "95.700s",
                "startTime": "95.100s",
                "word": "Runner"
              },
              {
                "endTime": "96.100s",
                "startTime": "95.700s",
                "word": "fun"
              },
              {
                "endTime": "108.100s",
                "startTime": "96.100s",
                "word": "anything"
              },
              {
                "endTime": "108.600s",
                "startTime": "108.100s",
                "word": "else"
              }
            ]
          }
        ]
      },
      {
        "alternatives": [
          {
            "confidence": 0.9769537,
            "transcript": " any word at all that begins with the letter f",
            "words": [
              {
                "endTime": "116.900s",
                "startTime": "116.300s",
                "word": "any"
              },
              {
                "endTime": "117.200s",
                "startTime": "116.900s",
                "word": "word"
              },
              {
                "endTime": "117.300s",
                "startTime": "117.200s",
                "word": "at"
              },
              {
                "endTime": "117.400s",
                "startTime": "117.300s",
                "word": "all"
              },
              {
                "endTime": "117.700s",
                "startTime": "117.400s",
                "word": "that"
              },
              {
                "endTime": "117.800s",
                "startTime": "117.700s",
                "word": "begins"
              },
              {
                "endTime": "118.100s",
                "startTime": "117.800s",
                "word": "with"
              },
              {
                "endTime": "118.300s",
                "startTime": "118.100s",
                "word": "the"
              },
              {
                "endTime": "118.300s",
                "startTime": "118.300s",
                "word": "letter"
              },
              {
                "endTime": "119s",
                "startTime": "118.300s",
                "word": "f"
              }
            ]
          }
        ]
      }
    ]
  }
}
