{
  "done": true,
  "metadata": {
    "@type": "type.googleapis.com/google.cloud.speech.v1.LongRunningRecognizeMetadata",
    "lastUpdateTime": "2021-03-11T20:27:29.712390Z",
    "progressPercent": 100,
    "startTime": "2021-03-11T20:27:03.909541Z",
    "uri": "gs://adresso/ADReSSo21-progression-test/progression/test-dist/audio/train/no_decline/adrsp136.wav"
  },
  "name": "2042690236721823563",
  "response": {
    "@type": "type.googleapis.com/google.cloud.speech.v1.LongRunningRecognizeResponse",
    "results": [
      {
        "alternatives": [
          {
            "confidence": 0.85829586,
            "transcript": "now you wouldn't you don't want anything like the animals like cows",
            "words": [
              {
                "endTime": "4.300s",
                "startTime": "3.900s",
                "word": "now"
              },
              {
                "endTime": "4.500s",
                "startTime": "4.300s",
                "word": "you"
              },
              {
                "endTime": "4.800s",
                "startTime": "4.500s",
                "word": "wouldn't"
              },
              {
                "endTime": "4.900s",
                "startTime": "4.800s",
                "word": "you"
              },
              {
                "endTime": "5.200s",
                "startTime": "4.900s",
                "word": "don't"
              },
              {
                "endTime": "5.400s",
                "startTime": "5.200s",
                "word": "want"
              },
              {
                "endTime": "5.600s",
                "startTime": "5.400s",
                "word": "anything"
              },
              {
                "endTime": "6.100s",
                "startTime": "5.600s",
                "word": "like"
              },
              {
                "endTime": "6.500s",
                "startTime": "6.100s",
                "word": "the"
              },
              {
                "endTime": "7.200s",
                "startTime": "6.500s",
                "word": "animals"
              },
              {
                "endTime": "7.500s",
                "startTime": "7.200s",
                "word": "like"
              },
              {
                "endTime": "7.800s",
                "startTime": "7.500s",
                "word": "cows"
              }
            ]
          }
        ]
      },
      {
        "alternatives": [
          {
            "confidence": 0.61521405,
            "transcript": " big hog horse dog cat",
            "words": [
              {
                "endTime": "15.300s",
                "startTime": "14.700s",
                "word": "big"
              },
              {
                "endTime": "16s",
                "startTime": "15.300s",
                "word": "hog"
              },
              {
                "endTime": "16.500s",
                "startTime": "16s",
                "word": "horse"
              },
              {
                "endTime": "17.700s",
                "startTime": "16.500s",
                "word": "dog"
              },
              {
                "endTime": "18.600s",
                "startTime": "17.700s",
                "word": "cat"
              }
            ]
          }
        ]
      },
      {
        "alternatives": [
          {
            "confidence": 0.90889794,
            "transcript": " guinea pig Republican",
            "words": [
              {
                "endTime": "25.600s",
                "startTime": "23.600s",
                "word": "guinea"
              },
              {
                "endTime": "26.100s",
                "startTime": "25.600s",
                "word": "pig"
              },
              {
                "endTime": "28.200s",
                "startTime": "26.100s",
                "word": "Republican"
              }
            ]
          }
        ]
      },
      {
        "alternatives": [
          {
            "confidence": 0.74423593,
            "transcript": " Straight Outta how much I said horse",
            "words": [
              {
                "endTime": "36.200s",
                "startTime": "34.800s",
                "word": "Straight"
              },
              {
                "endTime": "36.500s",
                "startTime": "36.200s",
                "word": "Outta"
              },
              {
                "endTime": "37.800s",
                "startTime": "36.500s",
                "word": "how"
              },
              {
                "endTime": "38s",
                "startTime": "37.800s",
                "word": "much"
              },
              {
                "endTime": "38.200s",
                "startTime": "38s",
                "word": "I"
              },
              {
                "endTime": "38.500s",
                "startTime": "38.200s",
                "word": "said"
              },
              {
                "endTime": "38.900s",
                "startTime": "38.500s",
                "word": "horse"
              }
            ]
          }
        ]
      },
      {
        "alternatives": [
          {
            "confidence": 0.8218322,
            "transcript": " hog",
            "words": [
              {
                "endTime": "45.300s",
                "startTime": "44.500s",
                "word": "hog"
              }
            ]
          }
        ]
      },
      {
        "alternatives": [
          {
            "confidence": 0.65475714,
            "transcript": " go to channel elephants rhinoceros",
            "words": [
              {
                "endTime": "48.600s",
                "startTime": "47.500s",
                "word": "go"
              },
              {
                "endTime": "48.900s",
                "startTime": "48.600s",
                "word": "to"
              },
              {
                "endTime": "49.800s",
                "startTime": "48.900s",
                "word": "channel"
              },
              {
                "endTime": "51.300s",
                "startTime": "49.800s",
                "word": "elephants"
              },
              {
                "endTime": "52.900s",
                "startTime": "51.300s",
                "word": "rhinoceros"
              }
            ]
          }
        ]
      },
      {
        "alternatives": [
          {
            "confidence": 0.47674993,
            "transcript": " Frank",
            "words": [
              {
                "endTime": "68s",
                "startTime": "67.100s",
                "word": "Frank"
              }
            ]
          }
        ]
      },
      {
        "alternatives": [
          {
            "confidence": 0.9239498,
            "transcript": " find",
            "words": [
              {
                "endTime": "72.100s",
                "startTime": "71.100s",
                "word": "find"
              }
            ]
          }
        ]
      },
      {
        "alternatives": [
          {
            "confidence": 0.47308153,
            "transcript": " foreclosure",
            "words": [
              {
                "endTime": "74.700s",
                "startTime": "73.700s",
                "word": "foreclosure"
              }
            ]
          }
        ]
      },
      {
        "alternatives": [
          {
            "confidence": 0.564035,
            "transcript": " play Elvis best time yet",
            "words": [
              {
                "endTime": "111.900s",
                "startTime": "111.500s",
                "word": "play"
              },
              {
                "endTime": "112.400s",
                "startTime": "111.900s",
                "word": "Elvis"
              },
              {
                "endTime": "112.600s",
                "startTime": "112.400s",
                "word": "best"
              },
              {
                "endTime": "112.900s",
                "startTime": "112.600s",
                "word": "time"
              },
              {
                "endTime": "113.100s",
                "startTime": "112.900s",
                "word": "yet"
              }
            ]
          }
        ]
      },
      {
        "alternatives": [
          {
            "confidence": 0.8933501,
            "transcript": " any words beginning with F",
            "words": [
              {
                "endTime": "114.800s",
                "startTime": "114.300s",
                "word": "any"
              },
              {
                "endTime": "115.100s",
                "startTime": "114.800s",
                "word": "words"
              },
              {
                "endTime": "115.400s",
                "startTime": "115.100s",
                "word": "beginning"
              },
              {
                "endTime": "115.600s",
                "startTime": "115.400s",
                "word": "with"
              },
              {
                "endTime": "115.900s",
                "startTime": "115.600s",
                "word": "F"
              }
            ]
          }
        ]
      },
      {
        "alternatives": [
          {
            "confidence": 0.882172,
            "transcript": " any word beginning with don't have to be an owl",
            "words": [
              {
                "endTime": "118s",
                "startTime": "117.100s",
                "word": "any"
              },
              {
                "endTime": "118.300s",
                "startTime": "118s",
                "word": "word"
              },
              {
                "endTime": "118.700s",
                "startTime": "118.300s",
                "word": "beginning"
              },
              {
                "endTime": "118.800s",
                "startTime": "118.700s",
                "word": "with"
              },
              {
                "endTime": "120s",
                "startTime": "118.800s",
                "word": "don't"
              },
              {
                "endTime": "120.100s",
                "startTime": "120s",
                "word": "have"
              },
              {
                "endTime": "120.300s",
                "startTime": "120.100s",
                "word": "to"
              },
              {
                "endTime": "120.400s",
                "startTime": "120.300s",
                "word": "be"
              },
              {
                "endTime": "120.500s",
                "startTime": "120.400s",
                "word": "an"
              },
              {
                "endTime": "120.900s",
                "startTime": "120.500s",
                "word": "owl"
              }
            ]
          }
        ]
      }
    ]
  }
}
