{
  "done": true,
  "metadata": {
    "@type": "type.googleapis.com/google.cloud.speech.v1.LongRunningRecognizeMetadata",
    "lastUpdateTime": "2021-03-11T20:28:19.024792Z",
    "progressPercent": 100,
    "startTime": "2021-03-11T20:27:47.565054Z",
    "uri": "gs://adresso/ADReSSo21-progression-test/progression/test-dist/audio/train/no_decline/adrsp378.wav"
  },
  "name": "441884292450884309",
  "response": {
    "@type": "type.googleapis.com/google.cloud.speech.v1.LongRunningRecognizeResponse",
    "results": [
      {
        "alternatives": [
          {
            "confidence": 0.97035074,
            "transcript": "give me a minute now",
            "words": [
              {
                "endTime": "0.600s",
                "startTime": "0.200s",
                "word": "give"
              },
              {
                "endTime": "0.700s",
                "startTime": "0.600s",
                "word": "me"
              },
              {
                "endTime": "0.700s",
                "startTime": "0.700s",
                "word": "a"
              },
              {
                "endTime": "1s",
                "startTime": "0.700s",
                "word": "minute"
              },
              {
                "endTime": "1.300s",
                "startTime": "1s",
                "word": "now"
              }
            ]
          }
        ]
      },
      {
        "alternatives": [
          {
            "confidence": 0.53448415,
            "transcript": " dog",
            "words": [
              {
                "endTime": "6.400s",
                "startTime": "5.600s",
                "word": "dog"
              }
            ]
          }
        ]
      },
      {
        "alternatives": [
          {
            "confidence": 0.71550465,
            "transcript": " is a rhinoceros",
            "words": [
              {
                "endTime": "46.400s",
                "startTime": "45.800s",
                "word": "is"
              },
              {
                "endTime": "46.600s",
                "startTime": "46.400s",
                "word": "a"
              },
              {
                "endTime": "46.900s",
                "startTime": "46.600s",
                "word": "rhinoceros"
              }
            ]
          }
        ]
      },
      {
        "alternatives": [
          {
            "confidence": 0.58415866,
            "transcript": " camels",
            "words": [
              {
                "endTime": "51.900s",
                "startTime": "49.200s",
                "word": "camels"
              }
            ]
          }
        ]
      },
      {
        "alternatives": [
          {
            "confidence": 0.41722617,
            "transcript": " what's the time",
            "words": [
              {
                "endTime": "54.500s",
                "startTime": "53.900s",
                "word": "what's"
              },
              {
                "endTime": "54.600s",
                "startTime": "54.500s",
                "word": "the"
              },
              {
                "endTime": "55s",
                "startTime": "54.600s",
                "word": "time"
              }
            ]
          }
        ]
      },
      {
        "alternatives": [
          {
            "confidence": 0.9367973,
            "transcript": " know this time I'm going to give you another minute and I want for you to name as many words as you can think of that start with the letter f",
            "words": [
              {
                "endTime": "68.100s",
                "startTime": "67.700s",
                "word": "know"
              },
              {
                "endTime": "68.300s",
                "startTime": "68.100s",
                "word": "this"
              },
              {
                "endTime": "68.800s",
                "startTime": "68.300s",
                "word": "time"
              },
              {
                "endTime": "69s",
                "startTime": "68.800s",
                "word": "I'm"
              },
              {
                "endTime": "69.200s",
                "startTime": "69s",
                "word": "going"
              },
              {
                "endTime": "69.400s",
                "startTime": "69.200s",
                "word": "to"
              },
              {
                "endTime": "69.600s",
                "startTime": "69.400s",
                "word": "give"
              },
              {
                "endTime": "69.700s",
                "startTime": "69.600s",
                "word": "you"
              },
              {
                "endTime": "69.900s",
                "startTime": "69.700s",
                "word": "another"
              },
              {
                "endTime": "70.400s",
                "startTime": "69.900s",
                "word": "minute"
              },
              {
                "endTime": "71.100s",
                "startTime": "70.400s",
                "word": "and"
              },
              {
                "endTime": "71.300s",
                "startTime": "71.100s",
                "word": "I"
              },
              {
                "endTime": "71.600s",
                "startTime": "71.300s",
                "word": "want"
              },
              {
                "endTime": "71.700s",
                "startTime": "71.600s",
                "word": "for"
              },
              {
                "endTime": "71.900s",
                "startTime": "71.700s",
                "word": "you"
              },
              {
                "endTime": "72s",
                "startTime": "71.900s",
                "word": "to"
              },
              {
                "endTime": "72.300s",
                "startTime": "72s",
                "word": "name"
              },
              {
                "endTime": "72.600s",
                "startTime": "72.300s",
                "word": "as"
              },
              {
                "endTime": "72.700s",
                "startTime": "72.600s",
                "word": "many"
              },
              {
                "endTime": "73.400s",
                "startTime": "72.700s",
                "word": "words"
              },
              {
                "endTime": "73.500s",
                "startTime": "73.400s",
                "word": "as"
              },
              {
                "endTime": "73.600s",
                "startTime": "73.500s",
                "word": "you"
              },
              {
                "endTime": "73.700s",
                "startTime": "73.600s",
                "word": "can"
              },
              {
                "endTime": "74s",
                "startTime": "73.700s",
                "word": "think"
              },
              {
                "endTime": "74.200s",
                "startTime": "74s",
                "word": "of"
              },
              {
                "endTime": "74.400s",
                "startTime": "74.200s",
                "word": "that"
              },
              {
                "endTime": "74.700s",
                "startTime": "74.400s",
                "word": "start"
              },
              {
                "endTime": "74.900s",
                "startTime": "74.700s",
                "word": "with"
              },
              {
                "endTime": "75s",
                "startTime": "74.900s",
                "word": "the"
              },
              {
                "endTime": "75.400s",
                "startTime": "75s",
                "word": "letter"
              },
              {
                "endTime": "75.800s",
                "startTime": "75.400s",
                "word": "f"
              }
            ]
          }
        ]
      },
      {
        "alternatives": [
          {
            "confidence": 0.94289094,
            "transcript": " all the words that come to mind start with the letter F but I don't want any proper names of people or places so don't give me any names of people or places and only one form of the princess if you can meet the work walk and walked also",
            "words": [
              {
                "endTime": "77.100s",
                "startTime": "76.700s",
                "word": "all"
              },
              {
                "endTime": "77.300s",
                "startTime": "77.100s",
                "word": "the"
              },
              {
                "endTime": "77.600s",
                "startTime": "77.300s",
                "word": "words"
              },
              {
                "endTime": "77.700s",
                "startTime": "77.600s",
                "word": "that"
              },
              {
                "endTime": "77.900s",
                "startTime": "77.700s",
                "word": "come"
              },
              {
                "endTime": "78s",
                "startTime": "77.900s",
                "word": "to"
              },
              {
                "endTime": "78.100s",
                "startTime": "78s",
                "word": "mind"
              },
              {
                "endTime": "78.700s",
                "startTime": "78.100s",
                "word": "start"
              },
              {
                "endTime": "78.900s",
                "startTime": "78.700s",
                "word": "with"
              },
              {
                "endTime": "79s",
                "startTime": "78.900s",
                "word": "the"
              },
              {
                "endTime": "79.300s",
                "startTime": "79s",
                "word": "letter"
              },
              {
                "endTime": "79.600s",
                "startTime": "79.300s",
                "word": "F"
              },
              {
                "endTime": "80.500s",
                "startTime": "79.600s",
                "word": "but"
              },
              {
                "endTime": "80.600s",
                "startTime": "80.500s",
                "word": "I"
              },
              {
                "endTime": "80.800s",
                "startTime": "80.600s",
                "word": "don't"
              },
              {
                "endTime": "80.900s",
                "startTime": "80.800s",
                "word": "want"
              },
              {
                "endTime": "81.100s",
                "startTime": "80.900s",
                "word": "any"
              },
              {
                "endTime": "81.500s",
                "startTime": "81.100s",
                "word": "proper"
              },
              {
                "endTime": "81.900s",
                "startTime": "81.500s",
                "word": "names"
              },
              {
                "endTime": "82.100s",
                "startTime": "81.900s",
                "word": "of"
              },
              {
                "endTime": "82.500s",
                "startTime": "82.100s",
                "word": "people"
              },
              {
                "endTime": "82.600s",
                "startTime": "82.500s",
                "word": "or"
              },
              {
                "endTime": "82.800s",
                "startTime": "82.600s",
                "word": "places"
              },
              {
                "endTime": "83.800s",
                "startTime": "82.800s",
                "word": "so"
              },
              {
                "endTime": "84.100s",
                "startTime": "83.800s",
                "word": "don't"
              },
              {
                "endTime": "84.200s",
                "startTime": "84.100s",
                "word": "give"
              },
              {
                "endTime": "84.300s",
                "startTime": "84.200s",
                "word": "me"
              },
              {
                "endTime": "84.400s",
                "startTime": "84.300s",
                "word": "any"
              },
              {
                "endTime": "84.800s",
                "startTime": "84.400s",
                "word": "names"
              },
              {
                "endTime": "84.900s",
                "startTime": "84.800s",
                "word": "of"
              },
              {
                "endTime": "85.500s",
                "startTime": "84.900s",
                "word": "people"
              },
              {
                "endTime": "86s",
                "startTime": "85.500s",
                "word": "or"
              },
              {
                "endTime": "86.100s",
                "startTime": "86s",
                "word": "places"
              },
              {
                "endTime": "87.400s",
                "startTime": "86.100s",
                "word": "and"
              },
              {
                "endTime": "87.700s",
                "startTime": "87.400s",
                "word": "only"
              },
              {
                "endTime": "88s",
                "startTime": "87.700s",
                "word": "one"
              },
              {
                "endTime": "88.400s",
                "startTime": "88s",
                "word": "form"
              },
              {
                "endTime": "88.400s",
                "startTime": "88.400s",
                "word": "of"
              },
              {
                "endTime": "88.500s",
                "startTime": "88.400s",
                "word": "the"
              },
              {
                "endTime": "89.600s",
                "startTime": "88.500s",
                "word": "princess"
              },
              {
                "endTime": "89.800s",
                "startTime": "89.600s",
                "word": "if"
              },
              {
                "endTime": "89.900s",
                "startTime": "89.800s",
                "word": "you"
              },
              {
                "endTime": "90s",
                "startTime": "89.900s",
                "word": "can"
              },
              {
                "endTime": "90.200s",
                "startTime": "90s",
                "word": "meet"
              },
              {
                "endTime": "90.300s",
                "startTime": "90.200s",
                "word": "the"
              },
              {
                "endTime": "90.700s",
                "startTime": "90.300s",
                "word": "work"
              },
              {
                "endTime": "91.200s",
                "startTime": "90.700s",
                "word": "walk"
              },
              {
                "endTime": "93.100s",
                "startTime": "91.200s",
                "word": "and"
              },
              {
                "endTime": "93.500s",
                "startTime": "93.100s",
                "word": "walked"
              },
              {
                "endTime": "94s",
                "startTime": "93.500s",
                "word": "also"
              }
            ]
          }
        ]
      },
      {
        "alternatives": [
          {
            "confidence": 0.81645447,
            "transcript": " are you going to start with that ready I'll give you another minute go ahead",
            "words": [
              {
                "endTime": "100.300s",
                "startTime": "99.400s",
                "word": "are"
              },
              {
                "endTime": "100.500s",
                "startTime": "100.300s",
                "word": "you"
              },
              {
                "endTime": "100.600s",
                "startTime": "100.500s",
                "word": "going"
              },
              {
                "endTime": "100.800s",
                "startTime": "100.600s",
                "word": "to"
              },
              {
                "endTime": "101.100s",
                "startTime": "100.800s",
                "word": "start"
              },
              {
                "endTime": "101.300s",
                "startTime": "101.100s",
                "word": "with"
              },
              {
                "endTime": "101.500s",
                "startTime": "101.300s",
                "word": "that"
              },
              {
                "endTime": "102.200s",
                "startTime": "101.500s",
                "word": "ready"
              },
              {
                "endTime": "102.400s",
                "startTime": "102.200s",
                "word": "I'll"
              },
              {
                "endTime": "102.600s",
                "startTime": "102.400s",
                "word": "give"
              },
              {
                "endTime": "102.700s",
                "startTime": "102.600s",
                "word": "you"
              },
              {
                "endTime": "102.800s",
                "startTime": "102.700s",
                "word": "another"
              },
              {
                "endTime": "103.200s",
                "startTime": "102.800s",
                "word": "minute"
              },
              {
                "endTime": "104.400s",
                "startTime": "103.200s",
                "word": "go"
              },
              {
                "endTime": "104.600s",
                "startTime": "104.400s",
                "word": "ahead"
              }
            ]
          }
        ]
      },
      {
        "alternatives": [
          {
            "confidence": 0.8844213,
            "transcript": " anything starts with f",
            "words": [
              {
                "endTime": "118.600s",
                "startTime": "117.800s",
                "word": "anything"
              },
              {
                "endTime": "119.100s",
                "startTime": "118.600s",
                "word": "starts"
              },
              {
                "endTime": "119.300s",
                "startTime": "119.100s",
                "word": "with"
              },
              {
                "endTime": "119.600s",
                "startTime": "119.300s",
                "word": "f"
              }
            ]
          }
        ]
      },
      {
        "alternatives": [
          {
            "confidence": 0.8662468,
            "transcript": " no problems with anything that starts with s",
            "words": [
              {
                "endTime": "127.300s",
                "startTime": "126.900s",
                "word": "no"
              },
              {
                "endTime": "127.900s",
                "startTime": "127.300s",
                "word": "problems"
              },
              {
                "endTime": "128.900s",
                "startTime": "127.900s",
                "word": "with"
              },
              {
                "endTime": "129.200s",
                "startTime": "128.900s",
                "word": "anything"
              },
              {
                "endTime": "129.400s",
                "startTime": "129.200s",
                "word": "that"
              },
              {
                "endTime": "129.900s",
                "startTime": "129.400s",
                "word": "starts"
              },
              {
                "endTime": "130s",
                "startTime": "129.900s",
                "word": "with"
              },
              {
                "endTime": "130.300s",
                "startTime": "130s",
                "word": "s"
              }
            ]
          }
        ]
      },
      {
        "alternatives": [
          {
            "confidence": 0.46206143,
            "transcript": " beeline",
            "words": [
              {
                "endTime": "165.500s",
                "startTime": "164s",
                "word": "beeline"
              }
            ]
          }
        ]
      }
    ]
  }
}
