{
  "done": true,
  "metadata": {
    "@type": "type.googleapis.com/google.cloud.speech.v1.LongRunningRecognizeMetadata",
    "lastUpdateTime": "2021-03-11T20:27:03.567989Z",
    "progressPercent": 100,
    "startTime": "2021-03-11T20:26:39.916343Z",
    "uri": "gs://adresso/ADReSSo21-progression-test/progression/test-dist/audio/train/no_decline/adrsp028.wav"
  },
  "name": "8089197925943611206",
  "response": {
    "@type": "type.googleapis.com/google.cloud.speech.v1.LongRunningRecognizeResponse",
    "results": [
      {
        "alternatives": [
          {
            "confidence": 0.85329604,
            "transcript": "cuz I forgot",
            "words": [
              {
                "endTime": "22.400s",
                "startTime": "20.100s",
                "word": "cuz"
              },
              {
                "endTime": "22.500s",
                "startTime": "22.400s",
                "word": "I"
              },
              {
                "endTime": "22.600s",
                "startTime": "22.500s",
                "word": "forgot"
              }
            ]
          }
        ]
      },
      {
        "alternatives": [
          {
            "confidence": 0.5432216,
            "transcript": " Apartments",
            "words": [
              {
                "endTime": "29.900s",
                "startTime": "28.800s",
                "word": "Apartments"
              }
            ]
          }
        ]
      },
      {
        "alternatives": [
          {
            "confidence": 0.76143974,
            "transcript": " remember what you think you doing",
            "words": [
              {
                "endTime": "45.800s",
                "startTime": "44.900s",
                "word": "remember"
              },
              {
                "endTime": "47.300s",
                "startTime": "45.800s",
                "word": "what"
              },
              {
                "endTime": "47.300s",
                "startTime": "47.300s",
                "word": "you"
              },
              {
                "endTime": "47.600s",
                "startTime": "47.300s",
                "word": "think"
              },
              {
                "endTime": "48.800s",
                "startTime": "47.600s",
                "word": "you"
              },
              {
                "endTime": "49.100s",
                "startTime": "48.800s",
                "word": "doing"
              }
            ]
          }
        ]
      },
      {
        "alternatives": [
          {
            "confidence": 0.86104596,
            "transcript": " Animals tired",
            "words": [
              {
                "endTime": "56.400s",
                "startTime": "55.600s",
                "word": "Animals"
              },
              {
                "endTime": "57.800s",
                "startTime": "56.400s",
                "word": "tired"
              }
            ]
          }
        ]
      },
      {
        "alternatives": [
          {
            "confidence": 0.58710635,
            "transcript": " Pig course",
            "words": [
              {
                "endTime": "71.100s",
                "startTime": "69.700s",
                "word": "Pig"
              },
              {
                "endTime": "72.200s",
                "startTime": "71.100s",
                "word": "course"
              }
            ]
          }
        ]
      },
      {
        "alternatives": [
          {
            "confidence": 0.89862156,
            "transcript": " hope to keep going",
            "words": [
              {
                "endTime": "82.900s",
                "startTime": "82.500s",
                "word": "hope"
              },
              {
                "endTime": "83s",
                "startTime": "82.900s",
                "word": "to"
              },
              {
                "endTime": "83.200s",
                "startTime": "83s",
                "word": "keep"
              },
              {
                "endTime": "83.600s",
                "startTime": "83.200s",
                "word": "going"
              }
            ]
          }
        ]
      },
      {
        "alternatives": [
          {
            "confidence": 1,
            "transcript": " Fahrenheit",
            "words": [
              {
                "endTime": "91.800s",
                "startTime": "91s",
                "word": "Fahrenheit"
              }
            ]
          }
        ]
      },
      {
        "alternatives": [
          {
            "confidence": 0.8913435,
            "transcript": " farmer",
            "words": [
              {
                "endTime": "93.600s",
                "startTime": "93s",
                "word": "farmer"
              }
            ]
          }
        ]
      },
      {
        "alternatives": [
          {
            "confidence": 0.9271445,
            "transcript": " my problem I guess it's time",
            "words": [
              {
                "endTime": "103.700s",
                "startTime": "103.300s",
                "word": "my"
              },
              {
                "endTime": "104.200s",
                "startTime": "103.700s",
                "word": "problem"
              },
              {
                "endTime": "104.300s",
                "startTime": "104.200s",
                "word": "I"
              },
              {
                "endTime": "104.600s",
                "startTime": "104.300s",
                "word": "guess"
              },
              {
                "endTime": "106.400s",
                "startTime": "104.600s",
                "word": "it's"
              },
              {
                "endTime": "106.700s",
                "startTime": "106.400s",
                "word": "time"
              }
            ]
          }
        ]
      },
      {
        "alternatives": [
          {
            "confidence": 0.9156247,
            "transcript": " okay",
            "words": [
              {
                "endTime": "151.700s",
                "startTime": "150.200s",
                "word": "okay"
              }
            ]
          }
        ]
      }
    ]
  }
}
