{
  "done": true,
  "metadata": {
    "@type": "type.googleapis.com/google.cloud.speech.v1.LongRunningRecognizeMetadata",
    "lastUpdateTime": "2021-03-11T20:27:25.964444Z",
    "progressPercent": 100,
    "startTime": "2021-03-11T20:26:55.614986Z",
    "uri": "gs://adresso/ADReSSo21-progression-test/progression/test-dist/audio/train/no_decline/adrsp096.wav"
  },
  "name": "7889975131865262944",
  "response": {
    "@type": "type.googleapis.com/google.cloud.speech.v1.LongRunningRecognizeResponse",
    "results": [
      {
        "alternatives": [
          {
            "confidence": 0.98337245,
            "transcript": "you can begin now",
            "words": [
              {
                "endTime": "0.600s",
                "startTime": "0.200s",
                "word": "you"
              },
              {
                "endTime": "0.800s",
                "startTime": "0.600s",
                "word": "can"
              },
              {
                "endTime": "1s",
                "startTime": "0.800s",
                "word": "begin"
              },
              {
                "endTime": "2.100s",
                "startTime": "1s",
                "word": "now"
              }
            ]
          }
        ]
      },
      {
        "alternatives": [
          {
            "confidence": 0.5705235,
            "transcript": " camp",
            "words": [
              {
                "endTime": "8.600s",
                "startTime": "8s",
                "word": "camp"
              }
            ]
          }
        ]
      },
      {
        "alternatives": [
          {
            "confidence": 0.63110954,
            "transcript": " there",
            "words": [
              {
                "endTime": "10.500s",
                "startTime": "10s",
                "word": "there"
              }
            ]
          }
        ]
      },
      {
        "alternatives": [
          {
            "confidence": 0.97620696,
            "transcript": " Buffalo",
            "words": [
              {
                "endTime": "15.900s",
                "startTime": "15.200s",
                "word": "Buffalo"
              }
            ]
          }
        ]
      },
      {
        "alternatives": [
          {
            "confidence": 0.27211747,
            "transcript": " k",
            "words": [
              {
                "endTime": "19.800s",
                "startTime": "19.300s",
                "word": "k"
              }
            ]
          }
        ]
      },
      {
        "alternatives": [
          {
            "confidence": 0.74995023,
            "transcript": " about 40 seconds",
            "words": [
              {
                "endTime": "22.600s",
                "startTime": "22s",
                "word": "about"
              },
              {
                "endTime": "22.900s",
                "startTime": "22.600s",
                "word": "40"
              },
              {
                "endTime": "23.400s",
                "startTime": "22.900s",
                "word": "seconds"
              }
            ]
          }
        ]
      },
      {
        "alternatives": [
          {
            "confidence": 0.8962372,
            "transcript": " 40 seconds left",
            "words": [
              {
                "endTime": "26.200s",
                "startTime": "24.700s",
                "word": "40"
              },
              {
                "endTime": "26.500s",
                "startTime": "26.200s",
                "word": "seconds"
              },
              {
                "endTime": "26.600s",
                "startTime": "26.500s",
                "word": "left"
              }
            ]
          }
        ]
      },
      {
        "alternatives": [
          {
            "confidence": 0.6438721,
            "transcript": " camp Camp",
            "words": [
              {
                "endTime": "31.300s",
                "startTime": "30.500s",
                "word": "camp"
              },
              {
                "endTime": "32.300s",
                "startTime": "31.300s",
                "word": "Camp"
              }
            ]
          }
        ]
      },
      {
        "alternatives": [
          {
            "confidence": 0.89485085,
            "transcript": " do I have forced air",
            "words": [
              {
                "endTime": "40.400s",
                "startTime": "40.100s",
                "word": "do"
              },
              {
                "endTime": "40.500s",
                "startTime": "40.400s",
                "word": "I"
              },
              {
                "endTime": "40.700s",
                "startTime": "40.500s",
                "word": "have"
              },
              {
                "endTime": "41.100s",
                "startTime": "40.700s",
                "word": "forced"
              },
              {
                "endTime": "41.200s",
                "startTime": "41.100s",
                "word": "air"
              }
            ]
          }
        ]
      },
      {
        "alternatives": [
          {
            "confidence": 0.97083014,
            "transcript": " okay",
            "words": [
              {
                "endTime": "43.200s",
                "startTime": "42.600s",
                "word": "okay"
              }
            ]
          }
        ]
      },
      {
        "alternatives": [
          {
            "confidence": 0.9542835,
            "transcript": " dog",
            "words": [
              {
                "endTime": "48.700s",
                "startTime": "48.300s",
                "word": "dog"
              }
            ]
          }
        ]
      },
      {
        "alternatives": [
          {
            "confidence": 0.888659,
            "transcript": " camp",
            "words": [
              {
                "endTime": "51.200s",
                "startTime": "50.500s",
                "word": "camp"
              }
            ]
          }
        ]
      },
      {
        "alternatives": [
          {
            "confidence": 0.42178625,
            "transcript": " my phone",
            "words": [
              {
                "endTime": "56.100s",
                "startTime": "55.800s",
                "word": "my"
              },
              {
                "endTime": "56.600s",
                "startTime": "56.100s",
                "word": "phone"
              }
            ]
          }
        ]
      },
      {
        "alternatives": [
          {
            "confidence": 0.98762906,
            "transcript": " okay good",
            "words": [
              {
                "endTime": "60.600s",
                "startTime": "59.800s",
                "word": "okay"
              },
              {
                "endTime": "61.400s",
                "startTime": "60.600s",
                "word": "good"
              }
            ]
          }
        ]
      },
      {
        "alternatives": [
          {
            "confidence": 0.93757504,
            "transcript": " okay you can stop now okay with the letter F as you can think of is that a proper name or a place like France or Fred",
            "words": [
              {
                "endTime": "62.800s",
                "startTime": "62.300s",
                "word": "okay"
              },
              {
                "endTime": "62.900s",
                "startTime": "62.800s",
                "word": "you"
              },
              {
                "endTime": "63.100s",
                "startTime": "62.900s",
                "word": "can"
              },
              {
                "endTime": "63.200s",
                "startTime": "63.100s",
                "word": "stop"
              },
              {
                "endTime": "63.800s",
                "startTime": "63.200s",
                "word": "now"
              },
              {
                "endTime": "64.500s",
                "startTime": "63.800s",
                "word": "okay"
              },
              {
                "endTime": "68.600s",
                "startTime": "64.500s",
                "word": "with"
              },
              {
                "endTime": "68.700s",
                "startTime": "68.600s",
                "word": "the"
              },
              {
                "endTime": "69s",
                "startTime": "68.700s",
                "word": "letter"
              },
              {
                "endTime": "69.300s",
                "startTime": "69s",
                "word": "F"
              },
              {
                "endTime": "69.700s",
                "startTime": "69.300s",
                "word": "as"
              },
              {
                "endTime": "69.800s",
                "startTime": "69.700s",
                "word": "you"
              },
              {
                "endTime": "70s",
                "startTime": "69.800s",
                "word": "can"
              },
              {
                "endTime": "70.100s",
                "startTime": "70s",
                "word": "think"
              },
              {
                "endTime": "70.400s",
                "startTime": "70.100s",
                "word": "of"
              },
              {
                "endTime": "72.500s",
                "startTime": "70.400s",
                "word": "is"
              },
              {
                "endTime": "73.600s",
                "startTime": "72.500s",
                "word": "that"
              },
              {
                "endTime": "73.800s",
                "startTime": "73.600s",
                "word": "a"
              },
              {
                "endTime": "74.800s",
                "startTime": "73.800s",
                "word": "proper"
              },
              {
                "endTime": "75s",
                "startTime": "74.800s",
                "word": "name"
              },
              {
                "endTime": "75.500s",
                "startTime": "75s",
                "word": "or"
              },
              {
                "endTime": "75.500s",
                "startTime": "75.500s",
                "word": "a"
              },
              {
                "endTime": "76.100s",
                "startTime": "75.500s",
                "word": "place"
              },
              {
                "endTime": "76.400s",
                "startTime": "76.100s",
                "word": "like"
              },
              {
                "endTime": "77s",
                "startTime": "76.400s",
                "word": "France"
              },
              {
                "endTime": "77.400s",
                "startTime": "77s",
                "word": "or"
              },
              {
                "endTime": "77.900s",
                "startTime": "77.400s",
                "word": "Fred"
              }
            ]
          }
        ]
      },
      {
        "alternatives": [
          {
            "confidence": 0.95479816,
            "transcript": " very good sir Frank Black okay so you wanted to get as many words beginning with the letter F as you can think of the other thing is is that you don't want it to be a derivative of each other like in using the letter R run runner and running with all week and this one word okay so as many words beginning with the letter F as you can think of and you can begin now",
            "words": [
              {
                "endTime": "80.500s",
                "startTime": "78.700s",
                "word": "very"
              },
              {
                "endTime": "80.800s",
                "startTime": "80.500s",
                "word": "good"
              },
              {
                "endTime": "81.300s",
                "startTime": "80.800s",
                "word": "sir"
              },
              {
                "endTime": "81.700s",
                "startTime": "81.300s",
                "word": "Frank"
              },
              {
                "endTime": "82s",
                "startTime": "81.700s",
                "word": "Black"
              },
              {
                "endTime": "83.200s",
                "startTime": "82s",
                "word": "okay"
              },
              {
                "endTime": "85.300s",
                "startTime": "83.200s",
                "word": "so"
              },
              {
                "endTime": "85.500s",
                "startTime": "85.300s",
                "word": "you"
              },
              {
                "endTime": "85.700s",
                "startTime": "85.500s",
                "word": "wanted"
              },
              {
                "endTime": "85.700s",
                "startTime": "85.700s",
                "word": "to"
              },
              {
                "endTime": "85.900s",
                "startTime": "85.700s",
                "word": "get"
              },
              {
                "endTime": "86s",
                "startTime": "85.900s",
                "word": "as"
              },
              {
                "endTime": "86.200s",
                "startTime": "86s",
                "word": "many"
              },
              {
                "endTime": "86.700s",
                "startTime": "86.200s",
                "word": "words"
              },
              {
                "endTime": "87s",
                "startTime": "86.700s",
                "word": "beginning"
              },
              {
                "endTime": "87.100s",
                "startTime": "87s",
                "word": "with"
              },
              {
                "endTime": "87.200s",
                "startTime": "87.100s",
                "word": "the"
              },
              {
                "endTime": "87.500s",
                "startTime": "87.200s",
                "word": "letter"
              },
              {
                "endTime": "87.700s",
                "startTime": "87.500s",
                "word": "F"
              },
              {
                "endTime": "87.800s",
                "startTime": "87.700s",
                "word": "as"
              },
              {
                "endTime": "87.900s",
                "startTime": "87.800s",
                "word": "you"
              },
              {
                "endTime": "88.100s",
                "startTime": "87.900s",
                "word": "can"
              },
              {
                "endTime": "88.300s",
                "startTime": "88.100s",
                "word": "think"
              },
              {
                "endTime": "88.500s",
                "startTime": "88.300s",
                "word": "of"
              },
              {
                "endTime": "89.200s",
                "startTime": "88.500s",
                "word": "the"
              },
              {
                "endTime": "89.500s",
                "startTime": "89.200s",
                "word": "other"
              },
              {
                "endTime": "89.800s",
                "startTime": "89.500s",
                "word": "thing"
              },
              {
                "endTime": "89.900s",
                "startTime": "89.800s",
                "word": "is"
              },
              {
                "endTime": "90.100s",
                "startTime": "89.900s",
                "word": "is"
              },
              {
                "endTime": "90.200s",
                "startTime": "90.100s",
                "word": "that"
              },
              {
                "endTime": "90.300s",
                "startTime": "90.200s",
                "word": "you"
              },
              {
                "endTime": "90.600s",
                "startTime": "90.300s",
                "word": "don't"
              },
              {
                "endTime": "90.700s",
                "startTime": "90.600s",
                "word": "want"
              },
              {
                "endTime": "90.900s",
                "startTime": "90.700s",
                "word": "it"
              },
              {
                "endTime": "90.900s",
                "startTime": "90.900s",
                "word": "to"
              },
              {
                "endTime": "91.100s",
                "startTime": "90.900s",
                "word": "be"
              },
              {
                "endTime": "91.100s",
                "startTime": "91.100s",
                "word": "a"
              },
              {
                "endTime": "91.900s",
                "startTime": "91.100s",
                "word": "derivative"
              },
              {
                "endTime": "91.900s",
                "startTime": "91.900s",
                "word": "of"
              },
              {
                "endTime": "92.200s",
                "startTime": "91.900s",
                "word": "each"
              },
              {
                "endTime": "92.600s",
                "startTime": "92.200s",
                "word": "other"
              },
              {
                "endTime": "93.100s",
                "startTime": "92.600s",
                "word": "like"
              },
              {
                "endTime": "93.300s",
                "startTime": "93.100s",
                "word": "in"
              },
              {
                "endTime": "93.600s",
                "startTime": "93.300s",
                "word": "using"
              },
              {
                "endTime": "93.800s",
                "startTime": "93.600s",
                "word": "the"
              },
              {
                "endTime": "94s",
                "startTime": "93.800s",
                "word": "letter"
              },
              {
                "endTime": "94.200s",
                "startTime": "94s",
                "word": "R"
              },
              {
                "endTime": "94.900s",
                "startTime": "94.200s",
                "word": "run"
              },
              {
                "endTime": "95.600s",
                "startTime": "94.900s",
                "word": "runner"
              },
              {
                "endTime": "95.900s",
                "startTime": "95.600s",
                "word": "and"
              },
              {
                "endTime": "96.300s",
                "startTime": "95.900s",
                "word": "running"
              },
              {
                "endTime": "96.400s",
                "startTime": "96.300s",
                "word": "with"
              },
              {
                "endTime": "96.600s",
                "startTime": "96.400s",
                "word": "all"
              },
              {
                "endTime": "96.800s",
                "startTime": "96.600s",
                "word": "week"
              },
              {
                "endTime": "97s",
                "startTime": "96.800s",
                "word": "and"
              },
              {
                "endTime": "97.100s",
                "startTime": "97s",
                "word": "this"
              },
              {
                "endTime": "97.400s",
                "startTime": "97.100s",
                "word": "one"
              },
              {
                "endTime": "98s",
                "startTime": "97.400s",
                "word": "word"
              },
              {
                "endTime": "98.500s",
                "startTime": "98s",
                "word": "okay"
              },
              {
                "endTime": "99.400s",
                "startTime": "98.500s",
                "word": "so"
              },
              {
                "endTime": "99.600s",
                "startTime": "99.400s",
                "word": "as"
              },
              {
                "endTime": "99.900s",
                "startTime": "99.600s",
                "word": "many"
              },
              {
                "endTime": "100.600s",
                "startTime": "99.900s",
                "word": "words"
              },
              {
                "endTime": "101s",
                "startTime": "100.600s",
                "word": "beginning"
              },
              {
                "endTime": "101.100s",
                "startTime": "101s",
                "word": "with"
              },
              {
                "endTime": "101.200s",
                "startTime": "101.100s",
                "word": "the"
              },
              {
                "endTime": "101.500s",
                "startTime": "101.200s",
                "word": "letter"
              },
              {
                "endTime": "101.700s",
                "startTime": "101.500s",
                "word": "F"
              },
              {
                "endTime": "101.800s",
                "startTime": "101.700s",
                "word": "as"
              },
              {
                "endTime": "102s",
                "startTime": "101.800s",
                "word": "you"
              },
              {
                "endTime": "102.100s",
                "startTime": "102s",
                "word": "can"
              },
              {
                "endTime": "102.300s",
                "startTime": "102.100s",
                "word": "think"
              },
              {
                "endTime": "102.500s",
                "startTime": "102.300s",
                "word": "of"
              },
              {
                "endTime": "103.500s",
                "startTime": "102.500s",
                "word": "and"
              },
              {
                "endTime": "103.500s",
                "startTime": "103.500s",
                "word": "you"
              },
              {
                "endTime": "103.800s",
                "startTime": "103.500s",
                "word": "can"
              },
              {
                "endTime": "104s",
                "startTime": "103.800s",
                "word": "begin"
              },
              {
                "endTime": "104.500s",
                "startTime": "104s",
                "word": "now"
              }
            ]
          }
        ]
      },
      {
        "alternatives": [
          {
            "confidence": 0.8115253,
            "transcript": " okay",
            "words": [
              {
                "endTime": "109.100s",
                "startTime": "107.300s",
                "word": "okay"
              }
            ]
          }
        ]
      },
      {
        "alternatives": [
          {
            "confidence": 0.88500947,
            "transcript": " can you go to the words words beginning with the letter f",
            "words": [
              {
                "endTime": "123.200s",
                "startTime": "122.900s",
                "word": "can"
              },
              {
                "endTime": "123.300s",
                "startTime": "123.200s",
                "word": "you"
              },
              {
                "endTime": "123.500s",
                "startTime": "123.300s",
                "word": "go"
              },
              {
                "endTime": "123.600s",
                "startTime": "123.500s",
                "word": "to"
              },
              {
                "endTime": "123.600s",
                "startTime": "123.600s",
                "word": "the"
              },
              {
                "endTime": "128.500s",
                "startTime": "123.600s",
                "word": "words"
              },
              {
                "endTime": "129.200s",
                "startTime": "128.500s",
                "word": "words"
              },
              {
                "endTime": "129.600s",
                "startTime": "129.200s",
                "word": "beginning"
              },
              {
                "endTime": "129.700s",
                "startTime": "129.600s",
                "word": "with"
              },
              {
                "endTime": "129.800s",
                "startTime": "129.700s",
                "word": "the"
              },
              {
                "endTime": "130.200s",
                "startTime": "129.800s",
                "word": "letter"
              },
              {
                "endTime": "130.600s",
                "startTime": "130.200s",
                "word": "f"
              }
            ]
          }
        ]
      },
      {
        "alternatives": [
          {
            "confidence": 0.8966113,
            "transcript": " fish",
            "words": [
              {
                "endTime": "133.400s",
                "startTime": "132.900s",
                "word": "fish"
              }
            ]
          }
        ]
      },
      {
        "alternatives": [
          {
            "confidence": 0.5775336,
            "transcript": " Julianne Moore",
            "words": [
              {
                "endTime": "151.500s",
                "startTime": "150.700s",
                "word": "Julianne"
              },
              {
                "endTime": "151.700s",
                "startTime": "151.500s",
                "word": "Moore"
              }
            ]
          }
        ]
      },
      {
        "alternatives": [
          {
            "confidence": 0.8699773,
            "transcript": " okay good that'll do I said it hears",
            "words": [
              {
                "endTime": "163.400s",
                "startTime": "162.600s",
                "word": "okay"
              },
              {
                "endTime": "163.900s",
                "startTime": "163.400s",
                "word": "good"
              },
              {
                "endTime": "164.100s",
                "startTime": "163.900s",
                "word": "that'll"
              },
              {
                "endTime": "164.400s",
                "startTime": "164.100s",
                "word": "do"
              },
              {
                "endTime": "164.500s",
                "startTime": "164.400s",
                "word": "I"
              },
              {
                "endTime": "164.900s",
                "startTime": "164.500s",
                "word": "said"
              },
              {
                "endTime": "165.800s",
                "startTime": "164.900s",
                "word": "it"
              },
              {
                "endTime": "166.100s",
                "startTime": "165.800s",
                "word": "hears"
              }
            ]
          }
        ]
      }
    ]
  }
}
