{
  "done": true,
  "metadata": {
    "@type": "type.googleapis.com/google.cloud.speech.v1.LongRunningRecognizeMetadata",
    "lastUpdateTime": "2021-03-11T20:27:56.423650Z",
    "progressPercent": 100,
    "startTime": "2021-03-11T20:27:29.310323Z",
    "uri": "gs://adresso/ADReSSo21-progression-test/progression/test-dist/audio/train/no_decline/adrsp306.wav"
  },
  "name": "126325437058515441",
  "response": {
    "@type": "type.googleapis.com/google.cloud.speech.v1.LongRunningRecognizeResponse",
    "results": [
      {
        "alternatives": [
          {
            "confidence": 0.9272839,
            "transcript": "name all the animals that you can think of you can start now",
            "words": [
              {
                "endTime": "0.600s",
                "startTime": "0s",
                "word": "name"
              },
              {
                "endTime": "0.800s",
                "startTime": "0.600s",
                "word": "all"
              },
              {
                "endTime": "0.900s",
                "startTime": "0.800s",
                "word": "the"
              },
              {
                "endTime": "1.300s",
                "startTime": "0.900s",
                "word": "animals"
              },
              {
                "endTime": "1.600s",
                "startTime": "1.300s",
                "word": "that"
              },
              {
                "endTime": "1.800s",
                "startTime": "1.600s",
                "word": "you"
              },
              {
                "endTime": "1.900s",
                "startTime": "1.800s",
                "word": "can"
              },
              {
                "endTime": "2.100s",
                "startTime": "1.900s",
                "word": "think"
              },
              {
                "endTime": "2.300s",
                "startTime": "2.100s",
                "word": "of"
              },
              {
                "endTime": "2.500s",
                "startTime": "2.300s",
                "word": "you"
              },
              {
                "endTime": "2.700s",
                "startTime": "2.500s",
                "word": "can"
              },
              {
                "endTime": "3s",
                "startTime": "2.700s",
                "word": "start"
              },
              {
                "endTime": "3.100s",
                "startTime": "3s",
                "word": "now"
              }
            ]
          }
        ]
      },
      {
        "alternatives": [
          {
            "confidence": 0.92781204,
            "transcript": " name all the animals that you can sync up",
            "words": [
              {
                "endTime": "9.900s",
                "startTime": "9.400s",
                "word": "name"
              },
              {
                "endTime": "10.100s",
                "startTime": "9.900s",
                "word": "all"
              },
              {
                "endTime": "10.200s",
                "startTime": "10.100s",
                "word": "the"
              },
              {
                "endTime": "10.700s",
                "startTime": "10.200s",
                "word": "animals"
              },
              {
                "endTime": "10.900s",
                "startTime": "10.700s",
                "word": "that"
              },
              {
                "endTime": "11.100s",
                "startTime": "10.900s",
                "word": "you"
              },
              {
                "endTime": "11.200s",
                "startTime": "11.100s",
                "word": "can"
              },
              {
                "endTime": "11.600s",
                "startTime": "11.200s",
                "word": "sync"
              },
              {
                "endTime": "11.700s",
                "startTime": "11.600s",
                "word": "up"
              }
            ]
          }
        ]
      },
      {
        "alternatives": [
          {
            "confidence": 0.32161093,
            "transcript": " anymore",
            "words": [
              {
                "endTime": "20.400s",
                "startTime": "19.800s",
                "word": "anymore"
              }
            ]
          }
        ]
      },
      {
        "alternatives": [
          {
            "confidence": 0.89199495,
            "transcript": " name all the animals you can think of any animal at all that you can think up",
            "words": [
              {
                "endTime": "31.200s",
                "startTime": "29.200s",
                "word": "name"
              },
              {
                "endTime": "31.400s",
                "startTime": "31.200s",
                "word": "all"
              },
              {
                "endTime": "31.500s",
                "startTime": "31.400s",
                "word": "the"
              },
              {
                "endTime": "31.900s",
                "startTime": "31.500s",
                "word": "animals"
              },
              {
                "endTime": "32.200s",
                "startTime": "31.900s",
                "word": "you"
              },
              {
                "endTime": "32.500s",
                "startTime": "32.200s",
                "word": "can"
              },
              {
                "endTime": "32.700s",
                "startTime": "32.500s",
                "word": "think"
              },
              {
                "endTime": "32.800s",
                "startTime": "32.700s",
                "word": "of"
              },
              {
                "endTime": "34s",
                "startTime": "32.800s",
                "word": "any"
              },
              {
                "endTime": "34.400s",
                "startTime": "34s",
                "word": "animal"
              },
              {
                "endTime": "34.800s",
                "startTime": "34.400s",
                "word": "at"
              },
              {
                "endTime": "34.900s",
                "startTime": "34.800s",
                "word": "all"
              },
              {
                "endTime": "35.100s",
                "startTime": "34.900s",
                "word": "that"
              },
              {
                "endTime": "35.200s",
                "startTime": "35.100s",
                "word": "you"
              },
              {
                "endTime": "35.300s",
                "startTime": "35.200s",
                "word": "can"
              },
              {
                "endTime": "35.500s",
                "startTime": "35.300s",
                "word": "think"
              },
              {
                "endTime": "35.800s",
                "startTime": "35.500s",
                "word": "up"
              }
            ]
          }
        ]
      },
      {
        "alternatives": [
          {
            "confidence": 0.833325,
            "transcript": " 20 seconds name all the animals you can think of",
            "words": [
              {
                "endTime": "42.900s",
                "startTime": "38.200s",
                "word": "20"
              },
              {
                "endTime": "43.500s",
                "startTime": "42.900s",
                "word": "seconds"
              },
              {
                "endTime": "44s",
                "startTime": "43.500s",
                "word": "name"
              },
              {
                "endTime": "44.100s",
                "startTime": "44s",
                "word": "all"
              },
              {
                "endTime": "44.300s",
                "startTime": "44.100s",
                "word": "the"
              },
              {
                "endTime": "44.700s",
                "startTime": "44.300s",
                "word": "animals"
              },
              {
                "endTime": "45s",
                "startTime": "44.700s",
                "word": "you"
              },
              {
                "endTime": "45.200s",
                "startTime": "45s",
                "word": "can"
              },
              {
                "endTime": "45.500s",
                "startTime": "45.200s",
                "word": "think"
              },
              {
                "endTime": "45.600s",
                "startTime": "45.500s",
                "word": "of"
              }
            ]
          }
        ]
      },
      {
        "alternatives": [
          {
            "confidence": 0.9526521,
            "transcript": " name any more animals",
            "words": [
              {
                "endTime": "51.800s",
                "startTime": "51.100s",
                "word": "name"
              },
              {
                "endTime": "52s",
                "startTime": "51.800s",
                "word": "any"
              },
              {
                "endTime": "52.200s",
                "startTime": "52s",
                "word": "more"
              },
              {
                "endTime": "52.500s",
                "startTime": "52.200s",
                "word": "animals"
              }
            ]
          }
        ]
      },
      {
        "alternatives": [
          {
            "confidence": 0.86680925,
            "transcript": " rhinoceros anymore",
            "words": [
              {
                "endTime": "58.600s",
                "startTime": "57.600s",
                "word": "rhinoceros"
              },
              {
                "endTime": "59.900s",
                "startTime": "58.600s",
                "word": "anymore"
              }
            ]
          }
        ]
      },
      {
        "alternatives": [
          {
            "confidence": 0.8811571,
            "transcript": " okay and you can begin that for me",
            "words": [
              {
                "endTime": "63.200s",
                "startTime": "62.500s",
                "word": "okay"
              },
              {
                "endTime": "65.900s",
                "startTime": "63.200s",
                "word": "and"
              },
              {
                "endTime": "66s",
                "startTime": "65.900s",
                "word": "you"
              },
              {
                "endTime": "66.200s",
                "startTime": "66s",
                "word": "can"
              },
              {
                "endTime": "66.300s",
                "startTime": "66.200s",
                "word": "begin"
              },
              {
                "endTime": "66.900s",
                "startTime": "66.300s",
                "word": "that"
              },
              {
                "endTime": "68.700s",
                "startTime": "66.900s",
                "word": "for"
              },
              {
                "endTime": "68.900s",
                "startTime": "68.700s",
                "word": "me"
              }
            ]
          }
        ]
      },
      {
        "alternatives": [
          {
            "confidence": 0.8673336,
            "transcript": " bad words that begin with the letter s",
            "words": [
              {
                "endTime": "71.200s",
                "startTime": "70.100s",
                "word": "bad"
              },
              {
                "endTime": "72.200s",
                "startTime": "71.200s",
                "word": "words"
              },
              {
                "endTime": "72.300s",
                "startTime": "72.200s",
                "word": "that"
              },
              {
                "endTime": "72.600s",
                "startTime": "72.300s",
                "word": "begin"
              },
              {
                "endTime": "72.700s",
                "startTime": "72.600s",
                "word": "with"
              },
              {
                "endTime": "72.900s",
                "startTime": "72.700s",
                "word": "the"
              },
              {
                "endTime": "73.200s",
                "startTime": "72.900s",
                "word": "letter"
              },
              {
                "endTime": "73.600s",
                "startTime": "73.200s",
                "word": "s"
              }
            ]
          }
        ]
      },
      {
        "alternatives": [
          {
            "confidence": 0.49672204,
            "transcript": " bear",
            "words": [
              {
                "endTime": "75.300s",
                "startTime": "74.700s",
                "word": "bear"
              }
            ]
          }
        ]
      },
      {
        "alternatives": [
          {
            "confidence": 0.79031426,
            "transcript": " anymore",
            "words": [
              {
                "endTime": "77.800s",
                "startTime": "77.200s",
                "word": "anymore"
              }
            ]
          }
        ]
      },
      {
        "alternatives": [
          {
            "confidence": 0.9403007,
            "transcript": " all the words you can think of that begin with the letter f",
            "words": [
              {
                "endTime": "82.200s",
                "startTime": "81.800s",
                "word": "all"
              },
              {
                "endTime": "82.400s",
                "startTime": "82.200s",
                "word": "the"
              },
              {
                "endTime": "82.700s",
                "startTime": "82.400s",
                "word": "words"
              },
              {
                "endTime": "82.700s",
                "startTime": "82.700s",
                "word": "you"
              },
              {
                "endTime": "82.800s",
                "startTime": "82.700s",
                "word": "can"
              },
              {
                "endTime": "83s",
                "startTime": "82.800s",
                "word": "think"
              },
              {
                "endTime": "83.200s",
                "startTime": "83s",
                "word": "of"
              },
              {
                "endTime": "83.300s",
                "startTime": "83.200s",
                "word": "that"
              },
              {
                "endTime": "83.700s",
                "startTime": "83.300s",
                "word": "begin"
              },
              {
                "endTime": "83.800s",
                "startTime": "83.700s",
                "word": "with"
              },
              {
                "endTime": "83.900s",
                "startTime": "83.800s",
                "word": "the"
              },
              {
                "endTime": "84.200s",
                "startTime": "83.900s",
                "word": "letter"
              },
              {
                "endTime": "84.600s",
                "startTime": "84.200s",
                "word": "f"
              }
            ]
          }
        ]
      },
      {
        "alternatives": [
          {
            "confidence": 0.8226237,
            "transcript": " are there any words you can think of that begins with the letter f",
            "words": [
              {
                "endTime": "93.100s",
                "startTime": "92.700s",
                "word": "are"
              },
              {
                "endTime": "93.400s",
                "startTime": "93.100s",
                "word": "there"
              },
              {
                "endTime": "97.400s",
                "startTime": "93.400s",
                "word": "any"
              },
              {
                "endTime": "97.600s",
                "startTime": "97.400s",
                "word": "words"
              },
              {
                "endTime": "97.700s",
                "startTime": "97.600s",
                "word": "you"
              },
              {
                "endTime": "97.900s",
                "startTime": "97.700s",
                "word": "can"
              },
              {
                "endTime": "97.900s",
                "startTime": "97.900s",
                "word": "think"
              },
              {
                "endTime": "98.200s",
                "startTime": "97.900s",
                "word": "of"
              },
              {
                "endTime": "98.300s",
                "startTime": "98.200s",
                "word": "that"
              },
              {
                "endTime": "98.600s",
                "startTime": "98.300s",
                "word": "begins"
              },
              {
                "endTime": "98.900s",
                "startTime": "98.600s",
                "word": "with"
              },
              {
                "endTime": "99s",
                "startTime": "98.900s",
                "word": "the"
              },
              {
                "endTime": "99.100s",
                "startTime": "99s",
                "word": "letter"
              },
              {
                "endTime": "99.700s",
                "startTime": "99.100s",
                "word": "f"
              }
            ]
          }
        ]
      },
      {
        "alternatives": [
          {
            "confidence": 0.96006805,
            "transcript": " any word at all that begins with the letter f",
            "words": [
              {
                "endTime": "109.400s",
                "startTime": "106.600s",
                "word": "any"
              },
              {
                "endTime": "109.700s",
                "startTime": "109.400s",
                "word": "word"
              },
              {
                "endTime": "109.800s",
                "startTime": "109.700s",
                "word": "at"
              },
              {
                "endTime": "109.900s",
                "startTime": "109.800s",
                "word": "all"
              },
              {
                "endTime": "110.200s",
                "startTime": "109.900s",
                "word": "that"
              },
              {
                "endTime": "110.300s",
                "startTime": "110.200s",
                "word": "begins"
              },
              {
                "endTime": "110.500s",
                "startTime": "110.300s",
                "word": "with"
              },
              {
                "endTime": "110.700s",
                "startTime": "110.500s",
                "word": "the"
              },
              {
                "endTime": "110.700s",
                "startTime": "110.700s",
                "word": "letter"
              },
              {
                "endTime": "111.300s",
                "startTime": "110.700s",
                "word": "f"
              }
            ]
          }
        ]
      },
      {
        "alternatives": [
          {
            "confidence": 0.6072669,
            "transcript": " Ashley Frey",
            "words": [
              {
                "endTime": "115.600s",
                "startTime": "114.800s",
                "word": "Ashley"
              },
              {
                "endTime": "115.900s",
                "startTime": "115.600s",
                "word": "Frey"
              }
            ]
          }
        ]
      },
      {
        "alternatives": [
          {
            "confidence": 0.92413986,
            "transcript": " okay",
            "words": [
              {
                "endTime": "127.600s",
                "startTime": "126.800s",
                "word": "okay"
              }
            ]
          }
        ]
      }
    ]
  }
}
