{
  "done": true,
  "metadata": {
    "@type": "type.googleapis.com/google.cloud.speech.v1.LongRunningRecognizeMetadata",
    "lastUpdateTime": "2021-03-10T12:53:09.872921Z",
    "progressPercent": 100,
    "startTime": "2021-03-10T12:52:56.408599Z",
    "uri": "gs://adresso/ADReSSo21-diagnosis-train/diagnosis/train/audio/cn/adrso173.wav"
  },
  "name": "4004043197310648202",
  "response": {
    "@type": "type.googleapis.com/google.cloud.speech.v1.LongRunningRecognizeResponse",
    "results": [
      {
        "alternatives": [
          {
            "confidence": 0.7760139,
            "transcript": "when was she do is",
            "words": [
              {
                "endTime": "0.700s",
                "startTime": "0s",
                "word": "when"
              },
              {
                "endTime": "0.900s",
                "startTime": "0.700s",
                "word": "was"
              },
              {
                "endTime": "1s",
                "startTime": "0.900s",
                "word": "she"
              },
              {
                "endTime": "1.300s",
                "startTime": "1s",
                "word": "do"
              },
              {
                "endTime": "1.800s",
                "startTime": "1.300s",
                "word": "is"
              }
            ]
          }
        ]
      },
      {
        "alternatives": [
          {
            "confidence": 0.9747798,
            "transcript": " take a look at this picture and tell me everything that you see happening in this picture I want you to tell me everything that's going on here",
            "words": [
              {
                "endTime": "3.500s",
                "startTime": "3.100s",
                "word": "take"
              },
              {
                "endTime": "3.600s",
                "startTime": "3.500s",
                "word": "a"
              },
              {
                "endTime": "3.700s",
                "startTime": "3.600s",
                "word": "look"
              },
              {
                "endTime": "3.900s",
                "startTime": "3.700s",
                "word": "at"
              },
              {
                "endTime": "4s",
                "startTime": "3.900s",
                "word": "this"
              },
              {
                "endTime": "4.300s",
                "startTime": "4s",
                "word": "picture"
              },
              {
                "endTime": "5.200s",
                "startTime": "4.300s",
                "word": "and"
              },
              {
                "endTime": "5.500s",
                "startTime": "5.200s",
                "word": "tell"
              },
              {
                "endTime": "5.600s",
                "startTime": "5.500s",
                "word": "me"
              },
              {
                "endTime": "6.200s",
                "startTime": "5.600s",
                "word": "everything"
              },
              {
                "endTime": "6.300s",
                "startTime": "6.200s",
                "word": "that"
              },
              {
                "endTime": "6.500s",
                "startTime": "6.300s",
                "word": "you"
              },
              {
                "endTime": "6.800s",
                "startTime": "6.500s",
                "word": "see"
              },
              {
                "endTime": "7.100s",
                "startTime": "6.800s",
                "word": "happening"
              },
              {
                "endTime": "7.500s",
                "startTime": "7.100s",
                "word": "in"
              },
              {
                "endTime": "7.600s",
                "startTime": "7.500s",
                "word": "this"
              },
              {
                "endTime": "8.100s",
                "startTime": "7.600s",
                "word": "picture"
              },
              {
                "endTime": "8.700s",
                "startTime": "8.100s",
                "word": "I"
              },
              {
                "endTime": "8.800s",
                "startTime": "8.700s",
                "word": "want"
              },
              {
                "endTime": "8.900s",
                "startTime": "8.800s",
                "word": "you"
              },
              {
                "endTime": "9s",
                "startTime": "8.900s",
                "word": "to"
              },
              {
                "endTime": "9.200s",
                "startTime": "9s",
                "word": "tell"
              },
              {
                "endTime": "9.300s",
                "startTime": "9.200s",
                "word": "me"
              },
              {
                "endTime": "9.500s",
                "startTime": "9.300s",
                "word": "everything"
              },
              {
                "endTime": "10.400s",
                "startTime": "9.500s",
                "word": "that's"
              },
              {
                "endTime": "10.800s",
                "startTime": "10.400s",
                "word": "going"
              },
              {
                "endTime": "11s",
                "startTime": "10.800s",
                "word": "on"
              },
              {
                "endTime": "11.400s",
                "startTime": "11s",
                "word": "here"
              }
            ]
          }
        ]
      },
      {
        "alternatives": [
          {
            "confidence": 0.92308974,
            "transcript": " everything not things that are just bad right girl on a boys on a store which is falling over getting cookies out of the jar",
            "words": [
              {
                "endTime": "14s",
                "startTime": "12.600s",
                "word": "everything"
              },
              {
                "endTime": "14.200s",
                "startTime": "14s",
                "word": "not"
              },
              {
                "endTime": "14.500s",
                "startTime": "14.200s",
                "word": "things"
              },
              {
                "endTime": "14.600s",
                "startTime": "14.500s",
                "word": "that"
              },
              {
                "endTime": "14.700s",
                "startTime": "14.600s",
                "word": "are"
              },
              {
                "endTime": "14.900s",
                "startTime": "14.700s",
                "word": "just"
              },
              {
                "endTime": "15.100s",
                "startTime": "14.900s",
                "word": "bad"
              },
              {
                "endTime": "15.700s",
                "startTime": "15.100s",
                "word": "right"
              },
              {
                "endTime": "21.700s",
                "startTime": "15.700s",
                "word": "girl"
              },
              {
                "endTime": "22.400s",
                "startTime": "21.700s",
                "word": "on"
              },
              {
                "endTime": "22.500s",
                "startTime": "22.400s",
                "word": "a"
              },
              {
                "endTime": "23.400s",
                "startTime": "22.500s",
                "word": "boys"
              },
              {
                "endTime": "23.500s",
                "startTime": "23.400s",
                "word": "on"
              },
              {
                "endTime": "23.600s",
                "startTime": "23.500s",
                "word": "a"
              },
              {
                "endTime": "24s",
                "startTime": "23.600s",
                "word": "store"
              },
              {
                "endTime": "24.300s",
                "startTime": "24s",
                "word": "which"
              },
              {
                "endTime": "24.500s",
                "startTime": "24.300s",
                "word": "is"
              },
              {
                "endTime": "25.100s",
                "startTime": "24.500s",
                "word": "falling"
              },
              {
                "endTime": "25.300s",
                "startTime": "25.100s",
                "word": "over"
              },
              {
                "endTime": "26.500s",
                "startTime": "25.300s",
                "word": "getting"
              },
              {
                "endTime": "26.900s",
                "startTime": "26.500s",
                "word": "cookies"
              },
              {
                "endTime": "27.300s",
                "startTime": "26.900s",
                "word": "out"
              },
              {
                "endTime": "27.500s",
                "startTime": "27.300s",
                "word": "of"
              },
              {
                "endTime": "27.500s",
                "startTime": "27.500s",
                "word": "the"
              },
              {
                "endTime": "28s",
                "startTime": "27.500s",
                "word": "jar"
              }
            ]
          }
        ]
      },
      {
        "alternatives": [
          {
            "confidence": 0.91869247,
            "transcript": " cookies are in the cabinet and threw it off",
            "words": [
              {
                "endTime": "29.700s",
                "startTime": "29s",
                "word": "cookies"
              },
              {
                "endTime": "30s",
                "startTime": "29.700s",
                "word": "are"
              },
              {
                "endTime": "30.100s",
                "startTime": "30s",
                "word": "in"
              },
              {
                "endTime": "30.200s",
                "startTime": "30.100s",
                "word": "the"
              },
              {
                "endTime": "30.600s",
                "startTime": "30.200s",
                "word": "cabinet"
              },
              {
                "endTime": "31.300s",
                "startTime": "30.600s",
                "word": "and"
              },
              {
                "endTime": "31.600s",
                "startTime": "31.300s",
                "word": "threw"
              },
              {
                "endTime": "31.600s",
                "startTime": "31.600s",
                "word": "it"
              },
              {
                "endTime": "32.100s",
                "startTime": "31.600s",
                "word": "off"
              }
            ]
          }
        ]
      },
      {
        "alternatives": [
          {
            "confidence": 0.9027555,
            "transcript": " and it's in the kitchen mother is washing dishes at the window with the curtain on the window",
            "words": [
              {
                "endTime": "34.900s",
                "startTime": "34.400s",
                "word": "and"
              },
              {
                "endTime": "35s",
                "startTime": "34.900s",
                "word": "it's"
              },
              {
                "endTime": "35.100s",
                "startTime": "35s",
                "word": "in"
              },
              {
                "endTime": "35.200s",
                "startTime": "35.100s",
                "word": "the"
              },
              {
                "endTime": "35.400s",
                "startTime": "35.200s",
                "word": "kitchen"
              },
              {
                "endTime": "36.900s",
                "startTime": "35.400s",
                "word": "mother"
              },
              {
                "endTime": "37.300s",
                "startTime": "36.900s",
                "word": "is"
              },
              {
                "endTime": "37.900s",
                "startTime": "37.300s",
                "word": "washing"
              },
              {
                "endTime": "38s",
                "startTime": "37.900s",
                "word": "dishes"
              },
              {
                "endTime": "39s",
                "startTime": "38s",
                "word": "at"
              },
              {
                "endTime": "39.200s",
                "startTime": "39s",
                "word": "the"
              },
              {
                "endTime": "39.700s",
                "startTime": "39.200s",
                "word": "window"
              },
              {
                "endTime": "40.200s",
                "startTime": "39.700s",
                "word": "with"
              },
              {
                "endTime": "40.300s",
                "startTime": "40.200s",
                "word": "the"
              },
              {
                "endTime": "40.700s",
                "startTime": "40.300s",
                "word": "curtain"
              },
              {
                "endTime": "40.800s",
                "startTime": "40.700s",
                "word": "on"
              },
              {
                "endTime": "41s",
                "startTime": "40.800s",
                "word": "the"
              },
              {
                "endTime": "41.400s",
                "startTime": "41s",
                "word": "window"
              }
            ]
          }
        ]
      },
      {
        "alternatives": [
          {
            "confidence": 0.9396251,
            "transcript": " walk outside with trees and grass water is running over in the sink onto the floor the mother is drying and Dish and stepping in the water there's a plate into cup sitting on the cabinet",
            "words": [
              {
                "endTime": "43.300s",
                "startTime": "42.600s",
                "word": "walk"
              },
              {
                "endTime": "43.700s",
                "startTime": "43.300s",
                "word": "outside"
              },
              {
                "endTime": "44.800s",
                "startTime": "43.700s",
                "word": "with"
              },
              {
                "endTime": "45.500s",
                "startTime": "44.800s",
                "word": "trees"
              },
              {
                "endTime": "45.600s",
                "startTime": "45.500s",
                "word": "and"
              },
              {
                "endTime": "46.200s",
                "startTime": "45.600s",
                "word": "grass"
              },
              {
                "endTime": "47.200s",
                "startTime": "46.200s",
                "word": "water"
              },
              {
                "endTime": "47.300s",
                "startTime": "47.200s",
                "word": "is"
              },
              {
                "endTime": "47.600s",
                "startTime": "47.300s",
                "word": "running"
              },
              {
                "endTime": "48.300s",
                "startTime": "47.600s",
                "word": "over"
              },
              {
                "endTime": "48.500s",
                "startTime": "48.300s",
                "word": "in"
              },
              {
                "endTime": "48.700s",
                "startTime": "48.500s",
                "word": "the"
              },
              {
                "endTime": "49.100s",
                "startTime": "48.700s",
                "word": "sink"
              },
              {
                "endTime": "49.600s",
                "startTime": "49.100s",
                "word": "onto"
              },
              {
                "endTime": "49.700s",
                "startTime": "49.600s",
                "word": "the"
              },
              {
                "endTime": "50.200s",
                "startTime": "49.700s",
                "word": "floor"
              },
              {
                "endTime": "51.200s",
                "startTime": "50.200s",
                "word": "the"
              },
              {
                "endTime": "51.600s",
                "startTime": "51.200s",
                "word": "mother"
              },
              {
                "endTime": "51.800s",
                "startTime": "51.600s",
                "word": "is"
              },
              {
                "endTime": "52.400s",
                "startTime": "51.800s",
                "word": "drying"
              },
              {
                "endTime": "52.500s",
                "startTime": "52.400s",
                "word": "and"
              },
              {
                "endTime": "52.900s",
                "startTime": "52.500s",
                "word": "Dish"
              },
              {
                "endTime": "53.100s",
                "startTime": "52.900s",
                "word": "and"
              },
              {
                "endTime": "53.500s",
                "startTime": "53.100s",
                "word": "stepping"
              },
              {
                "endTime": "53.600s",
                "startTime": "53.500s",
                "word": "in"
              },
              {
                "endTime": "53.700s",
                "startTime": "53.600s",
                "word": "the"
              },
              {
                "endTime": "54.100s",
                "startTime": "53.700s",
                "word": "water"
              },
              {
                "endTime": "55.200s",
                "startTime": "54.100s",
                "word": "there's"
              },
              {
                "endTime": "55.300s",
                "startTime": "55.200s",
                "word": "a"
              },
              {
                "endTime": "55.800s",
                "startTime": "55.300s",
                "word": "plate"
              },
              {
                "endTime": "56.100s",
                "startTime": "55.800s",
                "word": "into"
              },
              {
                "endTime": "56.400s",
                "startTime": "56.100s",
                "word": "cup"
              },
              {
                "endTime": "56.800s",
                "startTime": "56.400s",
                "word": "sitting"
              },
              {
                "endTime": "57.100s",
                "startTime": "56.800s",
                "word": "on"
              },
              {
                "endTime": "57.200s",
                "startTime": "57.100s",
                "word": "the"
              },
              {
                "endTime": "57.900s",
                "startTime": "57.200s",
                "word": "cabinet"
              }
            ]
          }
        ]
      },
      {
        "alternatives": [
          {
            "confidence": 0.89771557,
            "transcript": " mother has an apron",
            "words": [
              {
                "endTime": "60.800s",
                "startTime": "60.100s",
                "word": "mother"
              },
              {
                "endTime": "61s",
                "startTime": "60.800s",
                "word": "has"
              },
              {
                "endTime": "61.100s",
                "startTime": "61s",
                "word": "an"
              },
              {
                "endTime": "61.500s",
                "startTime": "61.100s",
                "word": "apron"
              }
            ]
          }
        ]
      }
    ]
  }
}
