{
  "done": true,
  "metadata": {
    "@type": "type.googleapis.com/google.cloud.speech.v1.LongRunningRecognizeMetadata",
    "lastUpdateTime": "2021-03-10T12:54:12.840982Z",
    "progressPercent": 100,
    "startTime": "2021-03-10T12:54:03.528681Z",
    "uri": "gs://adresso/ADReSSo21-diagnosis-train/diagnosis/train/audio/cn/adrso316.wav"
  },
  "name": "4922197537315133623",
  "response": {
    "@type": "type.googleapis.com/google.cloud.speech.v1.LongRunningRecognizeResponse",
    "results": [
      {
        "alternatives": [
          {
            "confidence": 0.9065214,
            "transcript": "I like you to tell me everything that you see going on in the picture",
            "words": [
              {
                "endTime": "0.500s",
                "startTime": "0s",
                "word": "I"
              },
              {
                "endTime": "0.800s",
                "startTime": "0.500s",
                "word": "like"
              },
              {
                "endTime": "0.900s",
                "startTime": "0.800s",
                "word": "you"
              },
              {
                "endTime": "1s",
                "startTime": "0.900s",
                "word": "to"
              },
              {
                "endTime": "1.200s",
                "startTime": "1s",
                "word": "tell"
              },
              {
                "endTime": "1.200s",
                "startTime": "1.200s",
                "word": "me"
              },
              {
                "endTime": "1.400s",
                "startTime": "1.200s",
                "word": "everything"
              },
              {
                "endTime": "1.700s",
                "startTime": "1.400s",
                "word": "that"
              },
              {
                "endTime": "1.900s",
                "startTime": "1.700s",
                "word": "you"
              },
              {
                "endTime": "2.200s",
                "startTime": "1.900s",
                "word": "see"
              },
              {
                "endTime": "2.600s",
                "startTime": "2.200s",
                "word": "going"
              },
              {
                "endTime": "2.900s",
                "startTime": "2.600s",
                "word": "on"
              },
              {
                "endTime": "3s",
                "startTime": "2.900s",
                "word": "in"
              },
              {
                "endTime": "3.100s",
                "startTime": "3s",
                "word": "the"
              },
              {
                "endTime": "3.400s",
                "startTime": "3.100s",
                "word": "picture"
              }
            ]
          }
        ]
      },
      {
        "alternatives": [
          {
            "confidence": 0.9504318,
            "transcript": " action type thing",
            "words": [
              {
                "endTime": "8.800s",
                "startTime": "8.100s",
                "word": "action"
              },
              {
                "endTime": "9.400s",
                "startTime": "8.800s",
                "word": "type"
              },
              {
                "endTime": "9.700s",
                "startTime": "9.400s",
                "word": "thing"
              }
            ]
          }
        ]
      },
      {
        "alternatives": [
          {
            "confidence": 0.9791979,
            "transcript": " there is water coming out of a faucet into a basin which is overflowing onto the floor",
            "words": [
              {
                "endTime": "11.300s",
                "startTime": "10.900s",
                "word": "there"
              },
              {
                "endTime": "11.500s",
                "startTime": "11.300s",
                "word": "is"
              },
              {
                "endTime": "11.700s",
                "startTime": "11.500s",
                "word": "water"
              },
              {
                "endTime": "12.100s",
                "startTime": "11.700s",
                "word": "coming"
              },
              {
                "endTime": "12.400s",
                "startTime": "12.100s",
                "word": "out"
              },
              {
                "endTime": "12.500s",
                "startTime": "12.400s",
                "word": "of"
              },
              {
                "endTime": "12.600s",
                "startTime": "12.500s",
                "word": "a"
              },
              {
                "endTime": "13.100s",
                "startTime": "12.600s",
                "word": "faucet"
              },
              {
                "endTime": "14.700s",
                "startTime": "13.100s",
                "word": "into"
              },
              {
                "endTime": "15.100s",
                "startTime": "14.700s",
                "word": "a"
              },
              {
                "endTime": "16.400s",
                "startTime": "15.100s",
                "word": "basin"
              },
              {
                "endTime": "16.900s",
                "startTime": "16.400s",
                "word": "which"
              },
              {
                "endTime": "17.100s",
                "startTime": "16.900s",
                "word": "is"
              },
              {
                "endTime": "17.900s",
                "startTime": "17.100s",
                "word": "overflowing"
              },
              {
                "endTime": "18.400s",
                "startTime": "17.900s",
                "word": "onto"
              },
              {
                "endTime": "18.700s",
                "startTime": "18.400s",
                "word": "the"
              },
              {
                "endTime": "19.200s",
                "startTime": "18.700s",
                "word": "floor"
              }
            ]
          }
        ]
      },
      {
        "alternatives": [
          {
            "confidence": 0.96961254,
            "transcript": " mother is drying dishes and she's walking in the water that is Flowing on the floor",
            "words": [
              {
                "endTime": "21.700s",
                "startTime": "20.900s",
                "word": "mother"
              },
              {
                "endTime": "22s",
                "startTime": "21.700s",
                "word": "is"
              },
              {
                "endTime": "22.800s",
                "startTime": "22s",
                "word": "drying"
              },
              {
                "endTime": "23.200s",
                "startTime": "22.800s",
                "word": "dishes"
              },
              {
                "endTime": "24.200s",
                "startTime": "23.200s",
                "word": "and"
              },
              {
                "endTime": "24.400s",
                "startTime": "24.200s",
                "word": "she's"
              },
              {
                "endTime": "24.800s",
                "startTime": "24.400s",
                "word": "walking"
              },
              {
                "endTime": "25.300s",
                "startTime": "24.800s",
                "word": "in"
              },
              {
                "endTime": "25.400s",
                "startTime": "25.300s",
                "word": "the"
              },
              {
                "endTime": "25.600s",
                "startTime": "25.400s",
                "word": "water"
              },
              {
                "endTime": "26.200s",
                "startTime": "25.600s",
                "word": "that"
              },
              {
                "endTime": "26.300s",
                "startTime": "26.200s",
                "word": "is"
              },
              {
                "endTime": "26.800s",
                "startTime": "26.300s",
                "word": "Flowing"
              },
              {
                "endTime": "26.900s",
                "startTime": "26.800s",
                "word": "on"
              },
              {
                "endTime": "27s",
                "startTime": "26.900s",
                "word": "the"
              },
              {
                "endTime": "27.500s",
                "startTime": "27s",
                "word": "floor"
              }
            ]
          }
        ]
      },
      {
        "alternatives": [
          {
            "confidence": 0.9287908,
            "transcript": " two children are stealing cookies one of them is up on a",
            "words": [
              {
                "endTime": "30.500s",
                "startTime": "30.100s",
                "word": "two"
              },
              {
                "endTime": "30.900s",
                "startTime": "30.500s",
                "word": "children"
              },
              {
                "endTime": "31.100s",
                "startTime": "30.900s",
                "word": "are"
              },
              {
                "endTime": "31.700s",
                "startTime": "31.100s",
                "word": "stealing"
              },
              {
                "endTime": "31.900s",
                "startTime": "31.700s",
                "word": "cookies"
              },
              {
                "endTime": "33.500s",
                "startTime": "31.900s",
                "word": "one"
              },
              {
                "endTime": "33.600s",
                "startTime": "33.500s",
                "word": "of"
              },
              {
                "endTime": "33.900s",
                "startTime": "33.600s",
                "word": "them"
              },
              {
                "endTime": "34s",
                "startTime": "33.900s",
                "word": "is"
              },
              {
                "endTime": "34.200s",
                "startTime": "34s",
                "word": "up"
              },
              {
                "endTime": "34.600s",
                "startTime": "34.200s",
                "word": "on"
              },
              {
                "endTime": "34.700s",
                "startTime": "34.600s",
                "word": "a"
              }
            ]
          }
        ]
      },
      {
        "alternatives": [
          {
            "confidence": 0.62510926,
            "transcript": " tool",
            "words": [
              {
                "endTime": "37.600s",
                "startTime": "36.200s",
                "word": "tool"
              }
            ]
          }
        ]
      },
      {
        "alternatives": [
          {
            "confidence": 0.9443369,
            "transcript": " that is about to call",
            "words": [
              {
                "endTime": "39.900s",
                "startTime": "39.400s",
                "word": "that"
              },
              {
                "endTime": "40s",
                "startTime": "39.900s",
                "word": "is"
              },
              {
                "endTime": "40.300s",
                "startTime": "40s",
                "word": "about"
              },
              {
                "endTime": "40.600s",
                "startTime": "40.300s",
                "word": "to"
              },
              {
                "endTime": "40.900s",
                "startTime": "40.600s",
                "word": "call"
              }
            ]
          }
        ]
      },
      {
        "alternatives": [
          {
            "confidence": 0.9272684,
            "transcript": " he's removing cookies from an upper shelf in the closet",
            "words": [
              {
                "endTime": "43s",
                "startTime": "42.600s",
                "word": "he's"
              },
              {
                "endTime": "43.500s",
                "startTime": "43s",
                "word": "removing"
              },
              {
                "endTime": "43.800s",
                "startTime": "43.500s",
                "word": "cookies"
              },
              {
                "endTime": "44.400s",
                "startTime": "43.800s",
                "word": "from"
              },
              {
                "endTime": "44.500s",
                "startTime": "44.400s",
                "word": "an"
              },
              {
                "endTime": "44.700s",
                "startTime": "44.500s",
                "word": "upper"
              },
              {
                "endTime": "45.200s",
                "startTime": "44.700s",
                "word": "shelf"
              },
              {
                "endTime": "45.400s",
                "startTime": "45.200s",
                "word": "in"
              },
              {
                "endTime": "45.500s",
                "startTime": "45.400s",
                "word": "the"
              },
              {
                "endTime": "45.800s",
                "startTime": "45.500s",
                "word": "closet"
              }
            ]
          }
        ]
      },
      {
        "alternatives": [
          {
            "confidence": 0.9156095,
            "transcript": " the wind appears to be blowing because the",
            "words": [
              {
                "endTime": "49.700s",
                "startTime": "49.300s",
                "word": "the"
              },
              {
                "endTime": "50s",
                "startTime": "49.700s",
                "word": "wind"
              },
              {
                "endTime": "50.200s",
                "startTime": "50s",
                "word": "appears"
              },
              {
                "endTime": "50.800s",
                "startTime": "50.200s",
                "word": "to"
              },
              {
                "endTime": "50.900s",
                "startTime": "50.800s",
                "word": "be"
              },
              {
                "endTime": "51.400s",
                "startTime": "50.900s",
                "word": "blowing"
              },
              {
                "endTime": "52s",
                "startTime": "51.400s",
                "word": "because"
              },
              {
                "endTime": "52.300s",
                "startTime": "52s",
                "word": "the"
              }
            ]
          }
        ]
      },
      {
        "alternatives": [
          {
            "confidence": 0.9539723,
            "transcript": " curtains appear to be",
            "words": [
              {
                "endTime": "54.400s",
                "startTime": "53.600s",
                "word": "curtains"
              },
              {
                "endTime": "54.800s",
                "startTime": "54.400s",
                "word": "appear"
              },
              {
                "endTime": "55.100s",
                "startTime": "54.800s",
                "word": "to"
              },
              {
                "endTime": "55.400s",
                "startTime": "55.100s",
                "word": "be"
              }
            ]
          }
        ]
      },
      {
        "alternatives": [
          {
            "confidence": 0.94252425,
            "transcript": " those are the only action things that I can see",
            "words": [
              {
                "endTime": "60.600s",
                "startTime": "60s",
                "word": "those"
              },
              {
                "endTime": "60.800s",
                "startTime": "60.600s",
                "word": "are"
              },
              {
                "endTime": "60.800s",
                "startTime": "60.800s",
                "word": "the"
              },
              {
                "endTime": "61.100s",
                "startTime": "60.800s",
                "word": "only"
              },
              {
                "endTime": "61.800s",
                "startTime": "61.100s",
                "word": "action"
              },
              {
                "endTime": "62.200s",
                "startTime": "61.800s",
                "word": "things"
              },
              {
                "endTime": "62.400s",
                "startTime": "62.200s",
                "word": "that"
              },
              {
                "endTime": "62.500s",
                "startTime": "62.400s",
                "word": "I"
              },
              {
                "endTime": "62.800s",
                "startTime": "62.500s",
                "word": "can"
              },
              {
                "endTime": "63.100s",
                "startTime": "62.800s",
                "word": "see"
              }
            ]
          }
        ]
      }
    ]
  }
}
