{
  "done": true,
  "metadata": {
    "@type": "type.googleapis.com/google.cloud.speech.v1.LongRunningRecognizeMetadata",
    "lastUpdateTime": "2021-03-10T12:52:21.125813Z",
    "progressPercent": 100,
    "startTime": "2021-03-10T12:52:07.783812Z",
    "uri": "gs://adresso/ADReSSo21-diagnosis-train/diagnosis/train/audio/cn/adrso008.wav"
  },
  "name": "7948423117162095261",
  "response": {
    "@type": "type.googleapis.com/google.cloud.speech.v1.LongRunningRecognizeResponse",
    "results": [
      {
        "alternatives": [
          {
            "confidence": 0.9663371,
            "transcript": "Ico it seems to be a mother or could be a babysitter with two children a boy and a girl the kids are after the cookies and the little boy is going to hurt himself really badly and the mother is not too good to see if either because there's water spilling out of the sink and it's her feet are going to get get wet tickets left she could break the dishes would really hurt herself a little girl and she's safe enough looks like she's a little worried beautiful day when does it open the curtains are",
            "words": [
              {
                "endTime": "1.200s",
                "startTime": "0s",
                "word": "Ico"
              },
              {
                "endTime": "1.400s",
                "startTime": "1.200s",
                "word": "it"
              },
              {
                "endTime": "1.700s",
                "startTime": "1.400s",
                "word": "seems"
              },
              {
                "endTime": "1.800s",
                "startTime": "1.700s",
                "word": "to"
              },
              {
                "endTime": "1.900s",
                "startTime": "1.800s",
                "word": "be"
              },
              {
                "endTime": "2s",
                "startTime": "1.900s",
                "word": "a"
              },
              {
                "endTime": "2.300s",
                "startTime": "2s",
                "word": "mother"
              },
              {
                "endTime": "2.700s",
                "startTime": "2.300s",
                "word": "or"
              },
              {
                "endTime": "3s",
                "startTime": "2.700s",
                "word": "could"
              },
              {
                "endTime": "3s",
                "startTime": "3s",
                "word": "be"
              },
              {
                "endTime": "3.200s",
                "startTime": "3s",
                "word": "a"
              },
              {
                "endTime": "3.700s",
                "startTime": "3.200s",
                "word": "babysitter"
              },
              {
                "endTime": "3.900s",
                "startTime": "3.700s",
                "word": "with"
              },
              {
                "endTime": "4.200s",
                "startTime": "3.900s",
                "word": "two"
              },
              {
                "endTime": "4.500s",
                "startTime": "4.200s",
                "word": "children"
              },
              {
                "endTime": "4.700s",
                "startTime": "4.500s",
                "word": "a"
              },
              {
                "endTime": "4.900s",
                "startTime": "4.700s",
                "word": "boy"
              },
              {
                "endTime": "5.100s",
                "startTime": "4.900s",
                "word": "and"
              },
              {
                "endTime": "5.100s",
                "startTime": "5.100s",
                "word": "a"
              },
              {
                "endTime": "5.200s",
                "startTime": "5.100s",
                "word": "girl"
              },
              {
                "endTime": "5.800s",
                "startTime": "5.200s",
                "word": "the"
              },
              {
                "endTime": "6s",
                "startTime": "5.800s",
                "word": "kids"
              },
              {
                "endTime": "6.100s",
                "startTime": "6s",
                "word": "are"
              },
              {
                "endTime": "6.400s",
                "startTime": "6.100s",
                "word": "after"
              },
              {
                "endTime": "6.500s",
                "startTime": "6.400s",
                "word": "the"
              },
              {
                "endTime": "6.900s",
                "startTime": "6.500s",
                "word": "cookies"
              },
              {
                "endTime": "7s",
                "startTime": "6.900s",
                "word": "and"
              },
              {
                "endTime": "7.100s",
                "startTime": "7s",
                "word": "the"
              },
              {
                "endTime": "7.300s",
                "startTime": "7.100s",
                "word": "little"
              },
              {
                "endTime": "7.400s",
                "startTime": "7.300s",
                "word": "boy"
              },
              {
                "endTime": "7.600s",
                "startTime": "7.400s",
                "word": "is"
              },
              {
                "endTime": "7.800s",
                "startTime": "7.600s",
                "word": "going"
              },
              {
                "endTime": "7.800s",
                "startTime": "7.800s",
                "word": "to"
              },
              {
                "endTime": "8s",
                "startTime": "7.800s",
                "word": "hurt"
              },
              {
                "endTime": "8.200s",
                "startTime": "8s",
                "word": "himself"
              },
              {
                "endTime": "8.900s",
                "startTime": "8.200s",
                "word": "really"
              },
              {
                "endTime": "9.500s",
                "startTime": "8.900s",
                "word": "badly"
              },
              {
                "endTime": "10.300s",
                "startTime": "9.500s",
                "word": "and"
              },
              {
                "endTime": "10.400s",
                "startTime": "10.300s",
                "word": "the"
              },
              {
                "endTime": "10.700s",
                "startTime": "10.400s",
                "word": "mother"
              },
              {
                "endTime": "10.800s",
                "startTime": "10.700s",
                "word": "is"
              },
              {
                "endTime": "11.400s",
                "startTime": "10.800s",
                "word": "not"
              },
              {
                "endTime": "11.600s",
                "startTime": "11.400s",
                "word": "too"
              },
              {
                "endTime": "11.800s",
                "startTime": "11.600s",
                "word": "good"
              },
              {
                "endTime": "11.900s",
                "startTime": "11.800s",
                "word": "to"
              },
              {
                "endTime": "11.900s",
                "startTime": "11.900s",
                "word": "see"
              },
              {
                "endTime": "12.200s",
                "startTime": "11.900s",
                "word": "if"
              },
              {
                "endTime": "12.500s",
                "startTime": "12.200s",
                "word": "either"
              },
              {
                "endTime": "12.900s",
                "startTime": "12.500s",
                "word": "because"
              },
              {
                "endTime": "13.100s",
                "startTime": "12.900s",
                "word": "there's"
              },
              {
                "endTime": "13.400s",
                "startTime": "13.100s",
                "word": "water"
              },
              {
                "endTime": "13.700s",
                "startTime": "13.400s",
                "word": "spilling"
              },
              {
                "endTime": "14s",
                "startTime": "13.700s",
                "word": "out"
              },
              {
                "endTime": "14.100s",
                "startTime": "14s",
                "word": "of"
              },
              {
                "endTime": "14.200s",
                "startTime": "14.100s",
                "word": "the"
              },
              {
                "endTime": "14.600s",
                "startTime": "14.200s",
                "word": "sink"
              },
              {
                "endTime": "14.800s",
                "startTime": "14.600s",
                "word": "and"
              },
              {
                "endTime": "15.300s",
                "startTime": "14.800s",
                "word": "it's"
              },
              {
                "endTime": "15.500s",
                "startTime": "15.300s",
                "word": "her"
              },
              {
                "endTime": "15.800s",
                "startTime": "15.500s",
                "word": "feet"
              },
              {
                "endTime": "15.800s",
                "startTime": "15.800s",
                "word": "are"
              },
              {
                "endTime": "15.900s",
                "startTime": "15.800s",
                "word": "going"
              },
              {
                "endTime": "16s",
                "startTime": "15.900s",
                "word": "to"
              },
              {
                "endTime": "16.200s",
                "startTime": "16s",
                "word": "get"
              },
              {
                "endTime": "16.400s",
                "startTime": "16.200s",
                "word": "get"
              },
              {
                "endTime": "16.700s",
                "startTime": "16.400s",
                "word": "wet"
              },
              {
                "endTime": "17.100s",
                "startTime": "16.700s",
                "word": "tickets"
              },
              {
                "endTime": "17.500s",
                "startTime": "17.100s",
                "word": "left"
              },
              {
                "endTime": "17.700s",
                "startTime": "17.500s",
                "word": "she"
              },
              {
                "endTime": "17.900s",
                "startTime": "17.700s",
                "word": "could"
              },
              {
                "endTime": "18.100s",
                "startTime": "17.900s",
                "word": "break"
              },
              {
                "endTime": "18.300s",
                "startTime": "18.100s",
                "word": "the"
              },
              {
                "endTime": "18.500s",
                "startTime": "18.300s",
                "word": "dishes"
              },
              {
                "endTime": "19.300s",
                "startTime": "18.500s",
                "word": "would"
              },
              {
                "endTime": "19.600s",
                "startTime": "19.300s",
                "word": "really"
              },
              {
                "endTime": "19.800s",
                "startTime": "19.600s",
                "word": "hurt"
              },
              {
                "endTime": "20s",
                "startTime": "19.800s",
                "word": "herself"
              },
              {
                "endTime": "21s",
                "startTime": "20s",
                "word": "a"
              },
              {
                "endTime": "21.400s",
                "startTime": "21s",
                "word": "little"
              },
              {
                "endTime": "21.800s",
                "startTime": "21.400s",
                "word": "girl"
              },
              {
                "endTime": "22.900s",
                "startTime": "21.800s",
                "word": "and"
              },
              {
                "endTime": "23.200s",
                "startTime": "22.900s",
                "word": "she's"
              },
              {
                "endTime": "23.500s",
                "startTime": "23.200s",
                "word": "safe"
              },
              {
                "endTime": "23.600s",
                "startTime": "23.500s",
                "word": "enough"
              },
              {
                "endTime": "24.900s",
                "startTime": "23.600s",
                "word": "looks"
              },
              {
                "endTime": "25.100s",
                "startTime": "24.900s",
                "word": "like"
              },
              {
                "endTime": "25.300s",
                "startTime": "25.100s",
                "word": "she's"
              },
              {
                "endTime": "25.300s",
                "startTime": "25.300s",
                "word": "a"
              },
              {
                "endTime": "25.600s",
                "startTime": "25.300s",
                "word": "little"
              },
              {
                "endTime": "26s",
                "startTime": "25.600s",
                "word": "worried"
              },
              {
                "endTime": "27.100s",
                "startTime": "26s",
                "word": "beautiful"
              },
              {
                "endTime": "27.400s",
                "startTime": "27.100s",
                "word": "day"
              },
              {
                "endTime": "28.500s",
                "startTime": "27.400s",
                "word": "when"
              },
              {
                "endTime": "28.600s",
                "startTime": "28.500s",
                "word": "does"
              },
              {
                "endTime": "28.700s",
                "startTime": "28.600s",
                "word": "it"
              },
              {
                "endTime": "29s",
                "startTime": "28.700s",
                "word": "open"
              },
              {
                "endTime": "29.500s",
                "startTime": "29s",
                "word": "the"
              },
              {
                "endTime": "30.700s",
                "startTime": "29.500s",
                "word": "curtains"
              },
              {
                "endTime": "30.800s",
                "startTime": "30.700s",
                "word": "are"
              }
            ]
          }
        ]
      },
      {
        "alternatives": [
          {
            "confidence": 0.6168713,
            "transcript": "and Buster too windy because it has to be in place",
            "words": [
              {
                "endTime": "32.500s",
                "startTime": "31.800s",
                "word": "and"
              },
              {
                "endTime": "33s",
                "startTime": "32.500s",
                "word": "Buster"
              },
              {
                "endTime": "33.200s",
                "startTime": "33s",
                "word": "too"
              },
              {
                "endTime": "33.500s",
                "startTime": "33.200s",
                "word": "windy"
              },
              {
                "endTime": "33.900s",
                "startTime": "33.500s",
                "word": "because"
              },
              {
                "endTime": "34s",
                "startTime": "33.900s",
                "word": "it"
              },
              {
                "endTime": "34.500s",
                "startTime": "34s",
                "word": "has"
              },
              {
                "endTime": "34.600s",
                "startTime": "34.500s",
                "word": "to"
              },
              {
                "endTime": "34.600s",
                "startTime": "34.600s",
                "word": "be"
              },
              {
                "endTime": "34.800s",
                "startTime": "34.600s",
                "word": "in"
              },
              {
                "endTime": "35.100s",
                "startTime": "34.800s",
                "word": "place"
              }
            ]
          }
        ]
      },
      {
        "alternatives": [
          {
            "confidence": 0.9087231,
            "transcript": " other than that it seems very sweet home",
            "words": [
              {
                "endTime": "38.100s",
                "startTime": "37.600s",
                "word": "other"
              },
              {
                "endTime": "38.200s",
                "startTime": "38.100s",
                "word": "than"
              },
              {
                "endTime": "38.400s",
                "startTime": "38.200s",
                "word": "that"
              },
              {
                "endTime": "38.700s",
                "startTime": "38.400s",
                "word": "it"
              },
              {
                "endTime": "38.700s",
                "startTime": "38.700s",
                "word": "seems"
              },
              {
                "endTime": "39.400s",
                "startTime": "38.700s",
                "word": "very"
              },
              {
                "endTime": "40.200s",
                "startTime": "39.400s",
                "word": "sweet"
              },
              {
                "endTime": "40.500s",
                "startTime": "40.200s",
                "word": "home"
              }
            ]
          }
        ]
      },
      {
        "alternatives": [
          {
            "confidence": 0.731685,
            "transcript": " and",
            "words": [
              {
                "endTime": "43.300s",
                "startTime": "42.700s",
                "word": "and"
              }
            ]
          }
        ]
      },
      {
        "alternatives": [
          {
            "confidence": 0.9529374,
            "transcript": " probably a little few years ago not right now",
            "words": [
              {
                "endTime": "46.500s",
                "startTime": "45.900s",
                "word": "probably"
              },
              {
                "endTime": "46.500s",
                "startTime": "46.500s",
                "word": "a"
              },
              {
                "endTime": "46.700s",
                "startTime": "46.500s",
                "word": "little"
              },
              {
                "endTime": "47.500s",
                "startTime": "46.700s",
                "word": "few"
              },
              {
                "endTime": "47.800s",
                "startTime": "47.500s",
                "word": "years"
              },
              {
                "endTime": "48s",
                "startTime": "47.800s",
                "word": "ago"
              },
              {
                "endTime": "48.600s",
                "startTime": "48s",
                "word": "not"
              },
              {
                "endTime": "49.600s",
                "startTime": "48.600s",
                "word": "right"
              },
              {
                "endTime": "49.800s",
                "startTime": "49.600s",
                "word": "now"
              }
            ]
          }
        ]
      }
    ]
  }
}
