{
  "done": true,
  "metadata": {
    "@type": "type.googleapis.com/google.cloud.speech.v1.LongRunningRecognizeMetadata",
    "lastUpdateTime": "2021-03-10T12:52:59.484035Z",
    "progressPercent": 100,
    "startTime": "2021-03-10T12:52:47.101848Z",
    "uri": "gs://adresso/ADReSSo21-diagnosis-train/diagnosis/train/audio/cn/adrso165.wav"
  },
  "name": "2190916363757000008",
  "response": {
    "@type": "type.googleapis.com/google.cloud.speech.v1.LongRunningRecognizeResponse",
    "results": [
      {
        "alternatives": [
          {
            "confidence": 0.70211357,
            "transcript": "running a picture",
            "words": [
              {
                "endTime": "0.500s",
                "startTime": "0s",
                "word": "running"
              },
              {
                "endTime": "0.600s",
                "startTime": "0.500s",
                "word": "a"
              },
              {
                "endTime": "0.900s",
                "startTime": "0.600s",
                "word": "picture"
              }
            ]
          }
        ]
      },
      {
        "alternatives": [
          {
            "confidence": 0.96600246,
            "transcript": " girls reaching up the boys",
            "words": [
              {
                "endTime": "3.800s",
                "startTime": "3.200s",
                "word": "girls"
              },
              {
                "endTime": "4.200s",
                "startTime": "3.800s",
                "word": "reaching"
              },
              {
                "endTime": "4.500s",
                "startTime": "4.200s",
                "word": "up"
              },
              {
                "endTime": "4.800s",
                "startTime": "4.500s",
                "word": "the"
              },
              {
                "endTime": "5.200s",
                "startTime": "4.800s",
                "word": "boys"
              }
            ]
          }
        ]
      },
      {
        "alternatives": [
          {
            "confidence": 0.9275428,
            "transcript": " taking cookies out of the cookie jar they stole is tilting mother is washing the dishes the water is running over",
            "words": [
              {
                "endTime": "8.200s",
                "startTime": "6.800s",
                "word": "taking"
              },
              {
                "endTime": "8.600s",
                "startTime": "8.200s",
                "word": "cookies"
              },
              {
                "endTime": "8.800s",
                "startTime": "8.600s",
                "word": "out"
              },
              {
                "endTime": "8.800s",
                "startTime": "8.800s",
                "word": "of"
              },
              {
                "endTime": "8.900s",
                "startTime": "8.800s",
                "word": "the"
              },
              {
                "endTime": "9.100s",
                "startTime": "8.900s",
                "word": "cookie"
              },
              {
                "endTime": "9.700s",
                "startTime": "9.100s",
                "word": "jar"
              },
              {
                "endTime": "10.400s",
                "startTime": "9.700s",
                "word": "they"
              },
              {
                "endTime": "12.100s",
                "startTime": "10.400s",
                "word": "stole"
              },
              {
                "endTime": "12.200s",
                "startTime": "12.100s",
                "word": "is"
              },
              {
                "endTime": "12.800s",
                "startTime": "12.200s",
                "word": "tilting"
              },
              {
                "endTime": "13s",
                "startTime": "12.800s",
                "word": "mother"
              },
              {
                "endTime": "13.200s",
                "startTime": "13s",
                "word": "is"
              },
              {
                "endTime": "13.600s",
                "startTime": "13.200s",
                "word": "washing"
              },
              {
                "endTime": "13.700s",
                "startTime": "13.600s",
                "word": "the"
              },
              {
                "endTime": "14s",
                "startTime": "13.700s",
                "word": "dishes"
              },
              {
                "endTime": "14.300s",
                "startTime": "14s",
                "word": "the"
              },
              {
                "endTime": "14.600s",
                "startTime": "14.300s",
                "word": "water"
              },
              {
                "endTime": "14.700s",
                "startTime": "14.600s",
                "word": "is"
              },
              {
                "endTime": "14.900s",
                "startTime": "14.700s",
                "word": "running"
              },
              {
                "endTime": "15.500s",
                "startTime": "14.900s",
                "word": "over"
              }
            ]
          }
        ]
      },
      {
        "alternatives": [
          {
            "confidence": 0.9938145,
            "transcript": " when does blowing Vapors",
            "words": [
              {
                "endTime": "18.500s",
                "startTime": "17.900s",
                "word": "when"
              },
              {
                "endTime": "18.700s",
                "startTime": "18.500s",
                "word": "does"
              },
              {
                "endTime": "19.100s",
                "startTime": "18.700s",
                "word": "blowing"
              },
              {
                "endTime": "19.500s",
                "startTime": "19.100s",
                "word": "Vapors"
              }
            ]
          }
        ]
      },
      {
        "alternatives": [
          {
            "confidence": 0.29989547,
            "transcript": " curtain",
            "words": [
              {
                "endTime": "21.800s",
                "startTime": "21.100s",
                "word": "curtain"
              }
            ]
          }
        ]
      },
      {
        "alternatives": [
          {
            "confidence": 0.93064,
            "transcript": " mother's drying the dishes",
            "words": [
              {
                "endTime": "28.300s",
                "startTime": "27.600s",
                "word": "mother's"
              },
              {
                "endTime": "28.700s",
                "startTime": "28.300s",
                "word": "drying"
              },
              {
                "endTime": "28.800s",
                "startTime": "28.700s",
                "word": "the"
              },
              {
                "endTime": "29s",
                "startTime": "28.800s",
                "word": "dishes"
              }
            ]
          }
        ]
      },
      {
        "alternatives": [
          {
            "confidence": 0.63688314,
            "transcript": " boys are itching down there I guess the sister",
            "words": [
              {
                "endTime": "33.400s",
                "startTime": "32.600s",
                "word": "boys"
              },
              {
                "endTime": "33.800s",
                "startTime": "33.400s",
                "word": "are"
              },
              {
                "endTime": "34.100s",
                "startTime": "33.800s",
                "word": "itching"
              },
              {
                "endTime": "34.200s",
                "startTime": "34.100s",
                "word": "down"
              },
              {
                "endTime": "34.400s",
                "startTime": "34.200s",
                "word": "there"
              },
              {
                "endTime": "34.800s",
                "startTime": "34.400s",
                "word": "I"
              },
              {
                "endTime": "35.100s",
                "startTime": "34.800s",
                "word": "guess"
              },
              {
                "endTime": "35.200s",
                "startTime": "35.100s",
                "word": "the"
              },
              {
                "endTime": "35.700s",
                "startTime": "35.200s",
                "word": "sister"
              }
            ]
          }
        ]
      },
      {
        "alternatives": [
          {
            "confidence": 0.7349408,
            "transcript": " boys climbing but he's going to fall",
            "words": [
              {
                "endTime": "39.700s",
                "startTime": "39s",
                "word": "boys"
              },
              {
                "endTime": "40.300s",
                "startTime": "39.700s",
                "word": "climbing"
              },
              {
                "endTime": "40.400s",
                "startTime": "40.300s",
                "word": "but"
              },
              {
                "endTime": "40.500s",
                "startTime": "40.400s",
                "word": "he's"
              },
              {
                "endTime": "40.700s",
                "startTime": "40.500s",
                "word": "going"
              },
              {
                "endTime": "40.700s",
                "startTime": "40.700s",
                "word": "to"
              },
              {
                "endTime": "41.100s",
                "startTime": "40.700s",
                "word": "fall"
              }
            ]
          }
        ]
      },
      {
        "alternatives": [
          {
            "confidence": 0.9340123,
            "transcript": " mother's drying the dishes I think I said that the water is running and running them",
            "words": [
              {
                "endTime": "48.400s",
                "startTime": "47.700s",
                "word": "mother's"
              },
              {
                "endTime": "48.800s",
                "startTime": "48.400s",
                "word": "drying"
              },
              {
                "endTime": "48.800s",
                "startTime": "48.800s",
                "word": "the"
              },
              {
                "endTime": "49s",
                "startTime": "48.800s",
                "word": "dishes"
              },
              {
                "endTime": "49.300s",
                "startTime": "49s",
                "word": "I"
              },
              {
                "endTime": "49.600s",
                "startTime": "49.300s",
                "word": "think"
              },
              {
                "endTime": "49.700s",
                "startTime": "49.600s",
                "word": "I"
              },
              {
                "endTime": "49.900s",
                "startTime": "49.700s",
                "word": "said"
              },
              {
                "endTime": "50s",
                "startTime": "49.900s",
                "word": "that"
              },
              {
                "endTime": "50.300s",
                "startTime": "50s",
                "word": "the"
              },
              {
                "endTime": "50.500s",
                "startTime": "50.300s",
                "word": "water"
              },
              {
                "endTime": "50.600s",
                "startTime": "50.500s",
                "word": "is"
              },
              {
                "endTime": "50.800s",
                "startTime": "50.600s",
                "word": "running"
              },
              {
                "endTime": "51.200s",
                "startTime": "50.800s",
                "word": "and"
              },
              {
                "endTime": "51.500s",
                "startTime": "51.200s",
                "word": "running"
              },
              {
                "endTime": "52s",
                "startTime": "51.500s",
                "word": "them"
              }
            ]
          }
        ]
      },
      {
        "alternatives": [
          {
            "confidence": 0.69077456,
            "transcript": " do I stay on that",
            "words": [
              {
                "endTime": "53.600s",
                "startTime": "53s",
                "word": "do"
              },
              {
                "endTime": "53.800s",
                "startTime": "53.600s",
                "word": "I"
              },
              {
                "endTime": "54.100s",
                "startTime": "53.800s",
                "word": "stay"
              },
              {
                "endTime": "54.200s",
                "startTime": "54.100s",
                "word": "on"
              },
              {
                "endTime": "54.400s",
                "startTime": "54.200s",
                "word": "that"
              }
            ]
          }
        ]
      }
    ]
  }
}
