{
  "done": true,
  "metadata": {
    "@type": "type.googleapis.com/google.cloud.speech.v1.LongRunningRecognizeMetadata",
    "lastUpdateTime": "2021-03-10T12:52:11.842979Z",
    "progressPercent": 100,
    "startTime": "2021-03-10T12:52:06.217513Z",
    "uri": "gs://adresso/ADReSSo21-diagnosis-train/diagnosis/train/audio/cn/adrso007.wav"
  },
  "name": "3065613548062673798",
  "response": {
    "@type": "type.googleapis.com/google.cloud.speech.v1.LongRunningRecognizeResponse",
    "results": [
      {
        "alternatives": [
          {
            "confidence": 0.88063544,
            "transcript": "another standing by the sink",
            "words": [
              {
                "endTime": "0.800s",
                "startTime": "0.200s",
                "word": "another"
              },
              {
                "endTime": "1.300s",
                "startTime": "0.800s",
                "word": "standing"
              },
              {
                "endTime": "1.400s",
                "startTime": "1.300s",
                "word": "by"
              },
              {
                "endTime": "1.600s",
                "startTime": "1.400s",
                "word": "the"
              },
              {
                "endTime": "2.100s",
                "startTime": "1.600s",
                "word": "sink"
              }
            ]
          }
        ]
      },
      {
        "alternatives": [
          {
            "confidence": 0.91555834,
            "transcript": " kind of looks like lost in thought wiping a dish the sink is overflowing with water she doesn't seem too concerned",
            "words": [
              {
                "endTime": "3.500s",
                "startTime": "3.100s",
                "word": "kind"
              },
              {
                "endTime": "3.600s",
                "startTime": "3.500s",
                "word": "of"
              },
              {
                "endTime": "3.800s",
                "startTime": "3.600s",
                "word": "looks"
              },
              {
                "endTime": "3.900s",
                "startTime": "3.800s",
                "word": "like"
              },
              {
                "endTime": "4.300s",
                "startTime": "3.900s",
                "word": "lost"
              },
              {
                "endTime": "4.500s",
                "startTime": "4.300s",
                "word": "in"
              },
              {
                "endTime": "4.800s",
                "startTime": "4.500s",
                "word": "thought"
              },
              {
                "endTime": "5.300s",
                "startTime": "4.800s",
                "word": "wiping"
              },
              {
                "endTime": "5.400s",
                "startTime": "5.300s",
                "word": "a"
              },
              {
                "endTime": "5.800s",
                "startTime": "5.400s",
                "word": "dish"
              },
              {
                "endTime": "6.600s",
                "startTime": "5.800s",
                "word": "the"
              },
              {
                "endTime": "6.900s",
                "startTime": "6.600s",
                "word": "sink"
              },
              {
                "endTime": "7s",
                "startTime": "6.900s",
                "word": "is"
              },
              {
                "endTime": "7.100s",
                "startTime": "7s",
                "word": "overflowing"
              },
              {
                "endTime": "7.800s",
                "startTime": "7.100s",
                "word": "with"
              },
              {
                "endTime": "7.900s",
                "startTime": "7.800s",
                "word": "water"
              },
              {
                "endTime": "8.200s",
                "startTime": "7.900s",
                "word": "she"
              },
              {
                "endTime": "8.500s",
                "startTime": "8.200s",
                "word": "doesn't"
              },
              {
                "endTime": "8.700s",
                "startTime": "8.500s",
                "word": "seem"
              },
              {
                "endTime": "8.900s",
                "startTime": "8.700s",
                "word": "too"
              },
              {
                "endTime": "9.200s",
                "startTime": "8.900s",
                "word": "concerned"
              }
            ]
          }
        ]
      },
      {
        "alternatives": [
          {
            "confidence": 0.94136924,
            "transcript": " boy is on a stool it's about to tip over he's in the cookie jar his sister's got her hand up reached look waiting for a cookie and",
            "words": [
              {
                "endTime": "11s",
                "startTime": "10.500s",
                "word": "boy"
              },
              {
                "endTime": "11.500s",
                "startTime": "11s",
                "word": "is"
              },
              {
                "endTime": "11.700s",
                "startTime": "11.500s",
                "word": "on"
              },
              {
                "endTime": "11.800s",
                "startTime": "11.700s",
                "word": "a"
              },
              {
                "endTime": "12.100s",
                "startTime": "11.800s",
                "word": "stool"
              },
              {
                "endTime": "12.300s",
                "startTime": "12.100s",
                "word": "it's"
              },
              {
                "endTime": "12.500s",
                "startTime": "12.300s",
                "word": "about"
              },
              {
                "endTime": "12.700s",
                "startTime": "12.500s",
                "word": "to"
              },
              {
                "endTime": "14s",
                "startTime": "12.700s",
                "word": "tip"
              },
              {
                "endTime": "14.300s",
                "startTime": "14s",
                "word": "over"
              },
              {
                "endTime": "14.800s",
                "startTime": "14.300s",
                "word": "he's"
              },
              {
                "endTime": "15s",
                "startTime": "14.800s",
                "word": "in"
              },
              {
                "endTime": "15.100s",
                "startTime": "15s",
                "word": "the"
              },
              {
                "endTime": "15.300s",
                "startTime": "15.100s",
                "word": "cookie"
              },
              {
                "endTime": "15.400s",
                "startTime": "15.300s",
                "word": "jar"
              },
              {
                "endTime": "16s",
                "startTime": "15.400s",
                "word": "his"
              },
              {
                "endTime": "16.400s",
                "startTime": "16s",
                "word": "sister's"
              },
              {
                "endTime": "16.600s",
                "startTime": "16.400s",
                "word": "got"
              },
              {
                "endTime": "16.600s",
                "startTime": "16.600s",
                "word": "her"
              },
              {
                "endTime": "17s",
                "startTime": "16.600s",
                "word": "hand"
              },
              {
                "endTime": "17.100s",
                "startTime": "17s",
                "word": "up"
              },
              {
                "endTime": "17.700s",
                "startTime": "17.100s",
                "word": "reached"
              },
              {
                "endTime": "18.700s",
                "startTime": "17.700s",
                "word": "look"
              },
              {
                "endTime": "19.100s",
                "startTime": "18.700s",
                "word": "waiting"
              },
              {
                "endTime": "19.400s",
                "startTime": "19.100s",
                "word": "for"
              },
              {
                "endTime": "19.500s",
                "startTime": "19.400s",
                "word": "a"
              },
              {
                "endTime": "19.800s",
                "startTime": "19.500s",
                "word": "cookie"
              },
              {
                "endTime": "21.500s",
                "startTime": "19.800s",
                "word": "and"
              }
            ]
          }
        ]
      },
      {
        "alternatives": [
          {
            "confidence": 0.9258756,
            "transcript": " mother seems oblivious to what they're doing",
            "words": [
              {
                "endTime": "23.100s",
                "startTime": "22.500s",
                "word": "mother"
              },
              {
                "endTime": "23.500s",
                "startTime": "23.100s",
                "word": "seems"
              },
              {
                "endTime": "23.700s",
                "startTime": "23.500s",
                "word": "oblivious"
              },
              {
                "endTime": "24.200s",
                "startTime": "23.700s",
                "word": "to"
              },
              {
                "endTime": "24.400s",
                "startTime": "24.200s",
                "word": "what"
              },
              {
                "endTime": "24.600s",
                "startTime": "24.400s",
                "word": "they're"
              },
              {
                "endTime": "25s",
                "startTime": "24.600s",
                "word": "doing"
              }
            ]
          }
        ]
      }
    ]
  }
}
