{
  "done": true,
  "metadata": {
    "@type": "type.googleapis.com/google.cloud.speech.v1.LongRunningRecognizeMetadata",
    "lastUpdateTime": "2021-03-10T12:53:52.993540Z",
    "progressPercent": 100,
    "startTime": "2021-03-10T12:53:34.432251Z",
    "uri": "gs://adresso/ADReSSo21-diagnosis-train/diagnosis/train/audio/cn/adrso280.wav"
  },
  "name": "4806809229817520878",
  "response": {
    "@type": "type.googleapis.com/google.cloud.speech.v1.LongRunningRecognizeResponse",
    "results": [
      {
        "alternatives": [
          {
            "confidence": 0.79551286,
            "transcript": "there's the picture",
            "words": [
              {
                "endTime": "0.600s",
                "startTime": "0.100s",
                "word": "there's"
              },
              {
                "endTime": "0.700s",
                "startTime": "0.600s",
                "word": "the"
              },
              {
                "endTime": "1s",
                "startTime": "0.700s",
                "word": "picture"
              }
            ]
          }
        ]
      },
      {
        "alternatives": [
          {
            "confidence": 0.7459428,
            "transcript": " and just stand",
            "words": [
              {
                "endTime": "19.600s",
                "startTime": "19.100s",
                "word": "and"
              },
              {
                "endTime": "20.200s",
                "startTime": "19.600s",
                "word": "just"
              },
              {
                "endTime": "21.500s",
                "startTime": "20.200s",
                "word": "stand"
              }
            ]
          }
        ]
      },
      {
        "alternatives": [
          {
            "confidence": 0.57525283,
            "transcript": " wanting some cookies",
            "words": [
              {
                "endTime": "24.800s",
                "startTime": "24.200s",
                "word": "wanting"
              },
              {
                "endTime": "25s",
                "startTime": "24.800s",
                "word": "some"
              },
              {
                "endTime": "25.300s",
                "startTime": "25s",
                "word": "cookies"
              }
            ]
          }
        ]
      },
      {
        "alternatives": [
          {
            "confidence": 0.6052507,
            "transcript": " don't hurry up",
            "words": [
              {
                "endTime": "30.400s",
                "startTime": "29.900s",
                "word": "don't"
              },
              {
                "endTime": "30.600s",
                "startTime": "30.400s",
                "word": "hurry"
              },
              {
                "endTime": "30.700s",
                "startTime": "30.600s",
                "word": "up"
              }
            ]
          }
        ]
      },
      {
        "alternatives": [
          {
            "confidence": 0.8828105,
            "transcript": " why are you running over",
            "words": [
              {
                "endTime": "43.100s",
                "startTime": "42.700s",
                "word": "why"
              },
              {
                "endTime": "43.300s",
                "startTime": "43.100s",
                "word": "are"
              },
              {
                "endTime": "43.500s",
                "startTime": "43.300s",
                "word": "you"
              },
              {
                "endTime": "43.700s",
                "startTime": "43.500s",
                "word": "running"
              },
              {
                "endTime": "44.100s",
                "startTime": "43.700s",
                "word": "over"
              }
            ]
          }
        ]
      },
      {
        "alternatives": [
          {
            "confidence": 0.8412927,
            "transcript": " I don't know",
            "words": [
              {
                "endTime": "47.700s",
                "startTime": "47.400s",
                "word": "I"
              },
              {
                "endTime": "48s",
                "startTime": "47.700s",
                "word": "don't"
              },
              {
                "endTime": "48.100s",
                "startTime": "48s",
                "word": "know"
              }
            ]
          }
        ]
      },
      {
        "alternatives": [
          {
            "confidence": 0.78633875,
            "transcript": " hernia",
            "words": [
              {
                "endTime": "94.300s",
                "startTime": "93.500s",
                "word": "hernia"
              }
            ]
          }
        ]
      },
      {
        "alternatives": [
          {
            "confidence": 0.86294657,
            "transcript": " I meant you did fine that's great",
            "words": [
              {
                "endTime": "97.400s",
                "startTime": "96.700s",
                "word": "I"
              },
              {
                "endTime": "97.700s",
                "startTime": "97.400s",
                "word": "meant"
              },
              {
                "endTime": "98.100s",
                "startTime": "97.700s",
                "word": "you"
              },
              {
                "endTime": "98.300s",
                "startTime": "98.100s",
                "word": "did"
              },
              {
                "endTime": "98.700s",
                "startTime": "98.300s",
                "word": "fine"
              },
              {
                "endTime": "98.900s",
                "startTime": "98.700s",
                "word": "that's"
              },
              {
                "endTime": "99.400s",
                "startTime": "98.900s",
                "word": "great"
              }
            ]
          }
        ]
      }
    ]
  }
}
