{
  "done": true,
  "metadata": {
    "@type": "type.googleapis.com/google.cloud.speech.v1.LongRunningRecognizeMetadata",
    "lastUpdateTime": "2021-03-10T12:52:09.994153Z",
    "progressPercent": 100,
    "startTime": "2021-03-10T12:52:02.960602Z",
    "uri": "gs://adresso/ADReSSo21-diagnosis-train/diagnosis/train/audio/cn/adrso003.wav"
  },
  "name": "8753558019623240666",
  "response": {
    "@type": "type.googleapis.com/google.cloud.speech.v1.LongRunningRecognizeResponse",
    "results": [
      {
        "alternatives": [
          {
            "confidence": 0.93310654,
            "transcript": "I'm starting from the left I see two children standing on a tipping stool reaching for the cooking jar the boys up on the top of the stool obviously getting the cookies for the low temperature mom is washing the dishes while the sink is overflowing",
            "words": [
              {
                "endTime": "0.200s",
                "startTime": "0s",
                "word": "I'm"
              },
              {
                "endTime": "0.600s",
                "startTime": "0.200s",
                "word": "starting"
              },
              {
                "endTime": "0.800s",
                "startTime": "0.600s",
                "word": "from"
              },
              {
                "endTime": "1.100s",
                "startTime": "0.800s",
                "word": "the"
              },
              {
                "endTime": "1.200s",
                "startTime": "1.100s",
                "word": "left"
              },
              {
                "endTime": "1.600s",
                "startTime": "1.200s",
                "word": "I"
              },
              {
                "endTime": "1.800s",
                "startTime": "1.600s",
                "word": "see"
              },
              {
                "endTime": "2.100s",
                "startTime": "1.800s",
                "word": "two"
              },
              {
                "endTime": "2.700s",
                "startTime": "2.100s",
                "word": "children"
              },
              {
                "endTime": "3.200s",
                "startTime": "2.700s",
                "word": "standing"
              },
              {
                "endTime": "3.400s",
                "startTime": "3.200s",
                "word": "on"
              },
              {
                "endTime": "3.500s",
                "startTime": "3.400s",
                "word": "a"
              },
              {
                "endTime": "3.900s",
                "startTime": "3.500s",
                "word": "tipping"
              },
              {
                "endTime": "4.500s",
                "startTime": "3.900s",
                "word": "stool"
              },
              {
                "endTime": "5.500s",
                "startTime": "4.500s",
                "word": "reaching"
              },
              {
                "endTime": "5.700s",
                "startTime": "5.500s",
                "word": "for"
              },
              {
                "endTime": "5.800s",
                "startTime": "5.700s",
                "word": "the"
              },
              {
                "endTime": "6.200s",
                "startTime": "5.800s",
                "word": "cooking"
              },
              {
                "endTime": "6.400s",
                "startTime": "6.200s",
                "word": "jar"
              },
              {
                "endTime": "6.900s",
                "startTime": "6.400s",
                "word": "the"
              },
              {
                "endTime": "7.500s",
                "startTime": "6.900s",
                "word": "boys"
              },
              {
                "endTime": "7.900s",
                "startTime": "7.500s",
                "word": "up"
              },
              {
                "endTime": "8.100s",
                "startTime": "7.900s",
                "word": "on"
              },
              {
                "endTime": "8.200s",
                "startTime": "8.100s",
                "word": "the"
              },
              {
                "endTime": "8.500s",
                "startTime": "8.200s",
                "word": "top"
              },
              {
                "endTime": "8.600s",
                "startTime": "8.500s",
                "word": "of"
              },
              {
                "endTime": "8.700s",
                "startTime": "8.600s",
                "word": "the"
              },
              {
                "endTime": "9.100s",
                "startTime": "8.700s",
                "word": "stool"
              },
              {
                "endTime": "9.800s",
                "startTime": "9.100s",
                "word": "obviously"
              },
              {
                "endTime": "10.100s",
                "startTime": "9.800s",
                "word": "getting"
              },
              {
                "endTime": "10.300s",
                "startTime": "10.100s",
                "word": "the"
              },
              {
                "endTime": "10.700s",
                "startTime": "10.300s",
                "word": "cookies"
              },
              {
                "endTime": "11s",
                "startTime": "10.700s",
                "word": "for"
              },
              {
                "endTime": "11.200s",
                "startTime": "11s",
                "word": "the"
              },
              {
                "endTime": "11.300s",
                "startTime": "11.200s",
                "word": "low"
              },
              {
                "endTime": "12.600s",
                "startTime": "11.300s",
                "word": "temperature"
              },
              {
                "endTime": "14.100s",
                "startTime": "12.600s",
                "word": "mom"
              },
              {
                "endTime": "14.300s",
                "startTime": "14.100s",
                "word": "is"
              },
              {
                "endTime": "14.600s",
                "startTime": "14.300s",
                "word": "washing"
              },
              {
                "endTime": "14.900s",
                "startTime": "14.600s",
                "word": "the"
              },
              {
                "endTime": "15.200s",
                "startTime": "14.900s",
                "word": "dishes"
              },
              {
                "endTime": "16.400s",
                "startTime": "15.200s",
                "word": "while"
              },
              {
                "endTime": "16.700s",
                "startTime": "16.400s",
                "word": "the"
              },
              {
                "endTime": "17s",
                "startTime": "16.700s",
                "word": "sink"
              },
              {
                "endTime": "17.100s",
                "startTime": "17s",
                "word": "is"
              },
              {
                "endTime": "17.300s",
                "startTime": "17.100s",
                "word": "overflowing"
              }
            ]
          }
        ]
      },
      {
        "alternatives": [
          {
            "confidence": 0.92476934,
            "transcript": " I got a white guy doing the dishes and not really sure what's going on out there on the other side of the window",
            "words": [
              {
                "endTime": "19.300s",
                "startTime": "19s",
                "word": "I"
              },
              {
                "endTime": "19.600s",
                "startTime": "19.300s",
                "word": "got"
              },
              {
                "endTime": "19.700s",
                "startTime": "19.600s",
                "word": "a"
              },
              {
                "endTime": "20.100s",
                "startTime": "19.700s",
                "word": "white"
              },
              {
                "endTime": "20.200s",
                "startTime": "20.100s",
                "word": "guy"
              },
              {
                "endTime": "21s",
                "startTime": "20.200s",
                "word": "doing"
              },
              {
                "endTime": "21.100s",
                "startTime": "21s",
                "word": "the"
              },
              {
                "endTime": "21.300s",
                "startTime": "21.100s",
                "word": "dishes"
              },
              {
                "endTime": "21.700s",
                "startTime": "21.300s",
                "word": "and"
              },
              {
                "endTime": "23.100s",
                "startTime": "21.700s",
                "word": "not"
              },
              {
                "endTime": "23.300s",
                "startTime": "23.100s",
                "word": "really"
              },
              {
                "endTime": "23.500s",
                "startTime": "23.300s",
                "word": "sure"
              },
              {
                "endTime": "23.800s",
                "startTime": "23.500s",
                "word": "what's"
              },
              {
                "endTime": "23.800s",
                "startTime": "23.800s",
                "word": "going"
              },
              {
                "endTime": "24.100s",
                "startTime": "23.800s",
                "word": "on"
              },
              {
                "endTime": "24.400s",
                "startTime": "24.100s",
                "word": "out"
              },
              {
                "endTime": "24.500s",
                "startTime": "24.400s",
                "word": "there"
              },
              {
                "endTime": "25.500s",
                "startTime": "24.500s",
                "word": "on"
              },
              {
                "endTime": "25.800s",
                "startTime": "25.500s",
                "word": "the"
              },
              {
                "endTime": "25.900s",
                "startTime": "25.800s",
                "word": "other"
              },
              {
                "endTime": "26.100s",
                "startTime": "25.900s",
                "word": "side"
              },
              {
                "endTime": "26.300s",
                "startTime": "26.100s",
                "word": "of"
              },
              {
                "endTime": "26.400s",
                "startTime": "26.300s",
                "word": "the"
              },
              {
                "endTime": "26.900s",
                "startTime": "26.400s",
                "word": "window"
              }
            ]
          }
        ]
      },
      {
        "alternatives": [
          {
            "confidence": 0.71868616,
            "transcript": " play some cases are on the safe that remain to be done",
            "words": [
              {
                "endTime": "29.700s",
                "startTime": "28.800s",
                "word": "play"
              },
              {
                "endTime": "29.900s",
                "startTime": "29.700s",
                "word": "some"
              },
              {
                "endTime": "30.400s",
                "startTime": "29.900s",
                "word": "cases"
              },
              {
                "endTime": "30.600s",
                "startTime": "30.400s",
                "word": "are"
              },
              {
                "endTime": "30.800s",
                "startTime": "30.600s",
                "word": "on"
              },
              {
                "endTime": "30.900s",
                "startTime": "30.800s",
                "word": "the"
              },
              {
                "endTime": "31.200s",
                "startTime": "30.900s",
                "word": "safe"
              },
              {
                "endTime": "31.400s",
                "startTime": "31.200s",
                "word": "that"
              },
              {
                "endTime": "31.800s",
                "startTime": "31.400s",
                "word": "remain"
              },
              {
                "endTime": "31.900s",
                "startTime": "31.800s",
                "word": "to"
              },
              {
                "endTime": "32s",
                "startTime": "31.900s",
                "word": "be"
              },
              {
                "endTime": "32.700s",
                "startTime": "32s",
                "word": "done"
              }
            ]
          }
        ]
      }
    ]
  }
}
