{
  "done": true,
  "metadata": {
    "@type": "type.googleapis.com/google.cloud.speech.v1.LongRunningRecognizeMetadata",
    "lastUpdateTime": "2021-03-10T12:53:23.821034Z",
    "progressPercent": 100,
    "startTime": "2021-03-10T12:53:15.015115Z",
    "uri": "gs://adresso/ADReSSo21-diagnosis-train/diagnosis/train/audio/cn/adrso263.wav"
  },
  "name": "3067790522055901651",
  "response": {
    "@type": "type.googleapis.com/google.cloud.speech.v1.LongRunningRecognizeResponse",
    "results": [
      {
        "alternatives": [
          {
            "confidence": 0.72907275,
            "transcript": "here's the picture",
            "words": [
              {
                "endTime": "1.600s",
                "startTime": "0.800s",
                "word": "here's"
              },
              {
                "endTime": "1.800s",
                "startTime": "1.600s",
                "word": "the"
              },
              {
                "endTime": "2.300s",
                "startTime": "1.800s",
                "word": "picture"
              }
            ]
          }
        ]
      },
      {
        "alternatives": [
          {
            "confidence": 0.9026681,
            "transcript": " do you want me to start labor",
            "words": [
              {
                "endTime": "9.500s",
                "startTime": "9.200s",
                "word": "do"
              },
              {
                "endTime": "9.600s",
                "startTime": "9.500s",
                "word": "you"
              },
              {
                "endTime": "9.800s",
                "startTime": "9.600s",
                "word": "want"
              },
              {
                "endTime": "9.800s",
                "startTime": "9.800s",
                "word": "me"
              },
              {
                "endTime": "10s",
                "startTime": "9.800s",
                "word": "to"
              },
              {
                "endTime": "10.200s",
                "startTime": "10s",
                "word": "start"
              },
              {
                "endTime": "10.500s",
                "startTime": "10.200s",
                "word": "labor"
              }
            ]
          }
        ]
      },
      {
        "alternatives": [
          {
            "confidence": 0.63426507,
            "transcript": " about to up and down three legged stool",
            "words": [
              {
                "endTime": "20.300s",
                "startTime": "19.900s",
                "word": "about"
              },
              {
                "endTime": "20.500s",
                "startTime": "20.300s",
                "word": "to"
              },
              {
                "endTime": "20.700s",
                "startTime": "20.500s",
                "word": "up"
              },
              {
                "endTime": "20.900s",
                "startTime": "20.700s",
                "word": "and"
              },
              {
                "endTime": "21.100s",
                "startTime": "20.900s",
                "word": "down"
              },
              {
                "endTime": "21.400s",
                "startTime": "21.100s",
                "word": "three"
              },
              {
                "endTime": "21.700s",
                "startTime": "21.400s",
                "word": "legged"
              },
              {
                "endTime": "21.800s",
                "startTime": "21.700s",
                "word": "stool"
              }
            ]
          }
        ]
      },
      {
        "alternatives": [
          {
            "confidence": 0.9411686,
            "transcript": " mother drying dishes see overflowing",
            "words": [
              {
                "endTime": "24.100s",
                "startTime": "23.300s",
                "word": "mother"
              },
              {
                "endTime": "24.500s",
                "startTime": "24.100s",
                "word": "drying"
              },
              {
                "endTime": "24.800s",
                "startTime": "24.500s",
                "word": "dishes"
              },
              {
                "endTime": "25.100s",
                "startTime": "24.800s",
                "word": "see"
              },
              {
                "endTime": "26.100s",
                "startTime": "25.100s",
                "word": "overflowing"
              }
            ]
          }
        ]
      },
      {
        "alternatives": [
          {
            "confidence": 0.7053914,
            "transcript": " you want you want action tonight",
            "words": [
              {
                "endTime": "31.300s",
                "startTime": "30.500s",
                "word": "you"
              },
              {
                "endTime": "31.600s",
                "startTime": "31.300s",
                "word": "want"
              },
              {
                "endTime": "31.800s",
                "startTime": "31.600s",
                "word": "you"
              },
              {
                "endTime": "31.900s",
                "startTime": "31.800s",
                "word": "want"
              },
              {
                "endTime": "32.300s",
                "startTime": "31.900s",
                "word": "action"
              },
              {
                "endTime": "32.500s",
                "startTime": "32.300s",
                "word": "tonight"
              }
            ]
          }
        ]
      },
      {
        "alternatives": [
          {
            "confidence": 0.9840722,
            "transcript": " okay good",
            "words": [
              {
                "endTime": "43.600s",
                "startTime": "43s",
                "word": "okay"
              },
              {
                "endTime": "44.200s",
                "startTime": "43.600s",
                "word": "good"
              }
            ]
          }
        ]
      }
    ]
  }
}
