{
  "done": true,
  "metadata": {
    "@type": "type.googleapis.com/google.cloud.speech.v1.LongRunningRecognizeMetadata",
    "lastUpdateTime": "2021-03-10T12:52:36.563092Z",
    "progressPercent": 100,
    "startTime": "2021-03-10T12:52:19.036580Z",
    "uri": "gs://adresso/ADReSSo21-diagnosis-train/diagnosis/train/audio/cn/adrso018.wav"
  },
  "name": "3406804118986024021",
  "response": {
    "@type": "type.googleapis.com/google.cloud.speech.v1.LongRunningRecognizeResponse",
    "results": [
      {
        "alternatives": [
          {
            "confidence": 0.9714738,
            "transcript": "is look at this point and tell me everything you see going on",
            "words": [
              {
                "endTime": "0.500s",
                "startTime": "0.100s",
                "word": "is"
              },
              {
                "endTime": "0.700s",
                "startTime": "0.500s",
                "word": "look"
              },
              {
                "endTime": "0.800s",
                "startTime": "0.700s",
                "word": "at"
              },
              {
                "endTime": "0.900s",
                "startTime": "0.800s",
                "word": "this"
              },
              {
                "endTime": "1.100s",
                "startTime": "0.900s",
                "word": "point"
              },
              {
                "endTime": "1.200s",
                "startTime": "1.100s",
                "word": "and"
              },
              {
                "endTime": "1.400s",
                "startTime": "1.200s",
                "word": "tell"
              },
              {
                "endTime": "1.600s",
                "startTime": "1.400s",
                "word": "me"
              },
              {
                "endTime": "2s",
                "startTime": "1.600s",
                "word": "everything"
              },
              {
                "endTime": "2s",
                "startTime": "2s",
                "word": "you"
              },
              {
                "endTime": "2.200s",
                "startTime": "2s",
                "word": "see"
              },
              {
                "endTime": "2.500s",
                "startTime": "2.200s",
                "word": "going"
              },
              {
                "endTime": "2.800s",
                "startTime": "2.500s",
                "word": "on"
              }
            ]
          }
        ]
      },
      {
        "alternatives": [
          {
            "confidence": 0.9268374,
            "transcript": " Mahoning Avenue good day",
            "words": [
              {
                "endTime": "8.300s",
                "startTime": "6.100s",
                "word": "Mahoning"
              },
              {
                "endTime": "8.600s",
                "startTime": "8.300s",
                "word": "Avenue"
              },
              {
                "endTime": "8.900s",
                "startTime": "8.600s",
                "word": "good"
              },
              {
                "endTime": "9.100s",
                "startTime": "8.900s",
                "word": "day"
              }
            ]
          }
        ]
      },
      {
        "alternatives": [
          {
            "confidence": 0.80991423,
            "transcript": " see that have a good day at all kids in the cookie job",
            "words": [
              {
                "endTime": "10.800s",
                "startTime": "10.400s",
                "word": "see"
              },
              {
                "endTime": "11s",
                "startTime": "10.800s",
                "word": "that"
              },
              {
                "endTime": "11.300s",
                "startTime": "11s",
                "word": "have"
              },
              {
                "endTime": "11.400s",
                "startTime": "11.300s",
                "word": "a"
              },
              {
                "endTime": "11.600s",
                "startTime": "11.400s",
                "word": "good"
              },
              {
                "endTime": "11.800s",
                "startTime": "11.600s",
                "word": "day"
              },
              {
                "endTime": "11.900s",
                "startTime": "11.800s",
                "word": "at"
              },
              {
                "endTime": "12s",
                "startTime": "11.900s",
                "word": "all"
              },
              {
                "endTime": "14s",
                "startTime": "12s",
                "word": "kids"
              },
              {
                "endTime": "15.100s",
                "startTime": "14s",
                "word": "in"
              },
              {
                "endTime": "15.200s",
                "startTime": "15.100s",
                "word": "the"
              },
              {
                "endTime": "15.600s",
                "startTime": "15.200s",
                "word": "cookie"
              },
              {
                "endTime": "16.200s",
                "startTime": "15.600s",
                "word": "job"
              }
            ]
          }
        ]
      },
      {
        "alternatives": [
          {
            "confidence": 0.92193645,
            "transcript": " Latin the mathematical to high chairs turning over she's a preoccupied with him even though she's not looking at it and she forgot to turn out her water off but her sink is overflowing getting up getting her wet",
            "words": [
              {
                "endTime": "18.100s",
                "startTime": "17.100s",
                "word": "Latin"
              },
              {
                "endTime": "18.300s",
                "startTime": "18.100s",
                "word": "the"
              },
              {
                "endTime": "19.500s",
                "startTime": "18.300s",
                "word": "mathematical"
              },
              {
                "endTime": "19.600s",
                "startTime": "19.500s",
                "word": "to"
              },
              {
                "endTime": "19.900s",
                "startTime": "19.600s",
                "word": "high"
              },
              {
                "endTime": "20.400s",
                "startTime": "19.900s",
                "word": "chairs"
              },
              {
                "endTime": "20.900s",
                "startTime": "20.400s",
                "word": "turning"
              },
              {
                "endTime": "21.200s",
                "startTime": "20.900s",
                "word": "over"
              },
              {
                "endTime": "22.700s",
                "startTime": "21.200s",
                "word": "she's"
              },
              {
                "endTime": "22.800s",
                "startTime": "22.700s",
                "word": "a"
              },
              {
                "endTime": "23.400s",
                "startTime": "22.800s",
                "word": "preoccupied"
              },
              {
                "endTime": "24s",
                "startTime": "23.400s",
                "word": "with"
              },
              {
                "endTime": "24.400s",
                "startTime": "24s",
                "word": "him"
              },
              {
                "endTime": "24.700s",
                "startTime": "24.400s",
                "word": "even"
              },
              {
                "endTime": "24.800s",
                "startTime": "24.700s",
                "word": "though"
              },
              {
                "endTime": "25.200s",
                "startTime": "24.800s",
                "word": "she's"
              },
              {
                "endTime": "25.500s",
                "startTime": "25.200s",
                "word": "not"
              },
              {
                "endTime": "26s",
                "startTime": "25.500s",
                "word": "looking"
              },
              {
                "endTime": "26.200s",
                "startTime": "26s",
                "word": "at"
              },
              {
                "endTime": "26.200s",
                "startTime": "26.200s",
                "word": "it"
              },
              {
                "endTime": "26.300s",
                "startTime": "26.200s",
                "word": "and"
              },
              {
                "endTime": "27.200s",
                "startTime": "26.300s",
                "word": "she"
              },
              {
                "endTime": "27.500s",
                "startTime": "27.200s",
                "word": "forgot"
              },
              {
                "endTime": "27.500s",
                "startTime": "27.500s",
                "word": "to"
              },
              {
                "endTime": "27.800s",
                "startTime": "27.500s",
                "word": "turn"
              },
              {
                "endTime": "27.900s",
                "startTime": "27.800s",
                "word": "out"
              },
              {
                "endTime": "28.400s",
                "startTime": "27.900s",
                "word": "her"
              },
              {
                "endTime": "28.800s",
                "startTime": "28.400s",
                "word": "water"
              },
              {
                "endTime": "29s",
                "startTime": "28.800s",
                "word": "off"
              },
              {
                "endTime": "29.200s",
                "startTime": "29s",
                "word": "but"
              },
              {
                "endTime": "29.400s",
                "startTime": "29.200s",
                "word": "her"
              },
              {
                "endTime": "29.800s",
                "startTime": "29.400s",
                "word": "sink"
              },
              {
                "endTime": "30s",
                "startTime": "29.800s",
                "word": "is"
              },
              {
                "endTime": "30.100s",
                "startTime": "30s",
                "word": "overflowing"
              },
              {
                "endTime": "31.900s",
                "startTime": "30.100s",
                "word": "getting"
              },
              {
                "endTime": "32.200s",
                "startTime": "31.900s",
                "word": "up"
              },
              {
                "endTime": "32.400s",
                "startTime": "32.200s",
                "word": "getting"
              },
              {
                "endTime": "32.700s",
                "startTime": "32.400s",
                "word": "her"
              },
              {
                "endTime": "34.200s",
                "startTime": "32.700s",
                "word": "wet"
              }
            ]
          }
        ]
      },
      {
        "alternatives": [
          {
            "confidence": 0.917106,
            "transcript": " and her daughter or sister she's just laughing she's having a ball she's enjoyed every minute but at the same time as you want to cook it before you file it is just it's just kind of chaotic day for",
            "words": [
              {
                "endTime": "35.500s",
                "startTime": "35.100s",
                "word": "and"
              },
              {
                "endTime": "35.600s",
                "startTime": "35.500s",
                "word": "her"
              },
              {
                "endTime": "35.800s",
                "startTime": "35.600s",
                "word": "daughter"
              },
              {
                "endTime": "37.400s",
                "startTime": "35.800s",
                "word": "or"
              },
              {
                "endTime": "38s",
                "startTime": "37.400s",
                "word": "sister"
              },
              {
                "endTime": "39s",
                "startTime": "38s",
                "word": "she's"
              },
              {
                "endTime": "39.300s",
                "startTime": "39s",
                "word": "just"
              },
              {
                "endTime": "39.700s",
                "startTime": "39.300s",
                "word": "laughing"
              },
              {
                "endTime": "39.900s",
                "startTime": "39.700s",
                "word": "she's"
              },
              {
                "endTime": "40.200s",
                "startTime": "39.900s",
                "word": "having"
              },
              {
                "endTime": "40.300s",
                "startTime": "40.200s",
                "word": "a"
              },
              {
                "endTime": "40.400s",
                "startTime": "40.300s",
                "word": "ball"
              },
              {
                "endTime": "40.900s",
                "startTime": "40.400s",
                "word": "she's"
              },
              {
                "endTime": "41.300s",
                "startTime": "40.900s",
                "word": "enjoyed"
              },
              {
                "endTime": "41.600s",
                "startTime": "41.300s",
                "word": "every"
              },
              {
                "endTime": "41.700s",
                "startTime": "41.600s",
                "word": "minute"
              },
              {
                "endTime": "42.800s",
                "startTime": "41.700s",
                "word": "but"
              },
              {
                "endTime": "42.900s",
                "startTime": "42.800s",
                "word": "at"
              },
              {
                "endTime": "43s",
                "startTime": "42.900s",
                "word": "the"
              },
              {
                "endTime": "43.100s",
                "startTime": "43s",
                "word": "same"
              },
              {
                "endTime": "43.400s",
                "startTime": "43.100s",
                "word": "time"
              },
              {
                "endTime": "43.700s",
                "startTime": "43.400s",
                "word": "as"
              },
              {
                "endTime": "43.900s",
                "startTime": "43.700s",
                "word": "you"
              },
              {
                "endTime": "43.900s",
                "startTime": "43.900s",
                "word": "want"
              },
              {
                "endTime": "44.100s",
                "startTime": "43.900s",
                "word": "to"
              },
              {
                "endTime": "44.200s",
                "startTime": "44.100s",
                "word": "cook"
              },
              {
                "endTime": "44.300s",
                "startTime": "44.200s",
                "word": "it"
              },
              {
                "endTime": "44.500s",
                "startTime": "44.300s",
                "word": "before"
              },
              {
                "endTime": "44.800s",
                "startTime": "44.500s",
                "word": "you"
              },
              {
                "endTime": "45.100s",
                "startTime": "44.800s",
                "word": "file"
              },
              {
                "endTime": "48.300s",
                "startTime": "45.100s",
                "word": "it"
              },
              {
                "endTime": "48.500s",
                "startTime": "48.300s",
                "word": "is"
              },
              {
                "endTime": "48.800s",
                "startTime": "48.500s",
                "word": "just"
              },
              {
                "endTime": "49.200s",
                "startTime": "48.800s",
                "word": "it's"
              },
              {
                "endTime": "49.300s",
                "startTime": "49.200s",
                "word": "just"
              },
              {
                "endTime": "49.800s",
                "startTime": "49.300s",
                "word": "kind"
              },
              {
                "endTime": "49.800s",
                "startTime": "49.800s",
                "word": "of"
              },
              {
                "endTime": "50.400s",
                "startTime": "49.800s",
                "word": "chaotic"
              },
              {
                "endTime": "50.600s",
                "startTime": "50.400s",
                "word": "day"
              },
              {
                "endTime": "50.900s",
                "startTime": "50.600s",
                "word": "for"
              }
            ]
          }
        ]
      },
      {
        "alternatives": [
          {
            "confidence": 0.782783,
            "transcript": " but he seems to have a smile on your face I guess you said what",
            "words": [
              {
                "endTime": "53s",
                "startTime": "52.600s",
                "word": "but"
              },
              {
                "endTime": "53.800s",
                "startTime": "53s",
                "word": "he"
              },
              {
                "endTime": "54.100s",
                "startTime": "53.800s",
                "word": "seems"
              },
              {
                "endTime": "54.200s",
                "startTime": "54.100s",
                "word": "to"
              },
              {
                "endTime": "54.300s",
                "startTime": "54.200s",
                "word": "have"
              },
              {
                "endTime": "54.500s",
                "startTime": "54.300s",
                "word": "a"
              },
              {
                "endTime": "54.800s",
                "startTime": "54.500s",
                "word": "smile"
              },
              {
                "endTime": "54.900s",
                "startTime": "54.800s",
                "word": "on"
              },
              {
                "endTime": "55s",
                "startTime": "54.900s",
                "word": "your"
              },
              {
                "endTime": "55.100s",
                "startTime": "55s",
                "word": "face"
              },
              {
                "endTime": "55.400s",
                "startTime": "55.100s",
                "word": "I"
              },
              {
                "endTime": "55.600s",
                "startTime": "55.400s",
                "word": "guess"
              },
              {
                "endTime": "55.800s",
                "startTime": "55.600s",
                "word": "you"
              },
              {
                "endTime": "56s",
                "startTime": "55.800s",
                "word": "said"
              },
              {
                "endTime": "56.100s",
                "startTime": "56s",
                "word": "what"
              }
            ]
          }
        ]
      },
      {
        "alternatives": [
          {
            "confidence": 0.7882177,
            "transcript": " give me the ZIP code",
            "words": [
              {
                "endTime": "59.400s",
                "startTime": "58.900s",
                "word": "give"
              },
              {
                "endTime": "59.500s",
                "startTime": "59.400s",
                "word": "me"
              },
              {
                "endTime": "59.700s",
                "startTime": "59.500s",
                "word": "the"
              },
              {
                "endTime": "59.900s",
                "startTime": "59.700s",
                "word": "ZIP"
              },
              {
                "endTime": "60.200s",
                "startTime": "59.900s",
                "word": "code"
              }
            ]
          }
        ]
      },
      {
        "alternatives": [
          {
            "confidence": 0.78342354,
            "transcript": " thank you",
            "words": [
              {
                "endTime": "63.500s",
                "startTime": "61.800s",
                "word": "thank"
              },
              {
                "endTime": "63.600s",
                "startTime": "63.500s",
                "word": "you"
              }
            ]
          }
        ]
      }
    ]
  }
}
