{
  "done": true,
  "metadata": {
    "@type": "type.googleapis.com/google.cloud.speech.v1.LongRunningRecognizeMetadata",
    "lastUpdateTime": "2021-03-10T12:54:22.749232Z",
    "progressPercent": 100,
    "startTime": "2021-03-10T12:53:54.175982Z",
    "uri": "gs://adresso/ADReSSo21-diagnosis-train/diagnosis/train/audio/cn/adrso307.wav"
  },
  "name": "1553444150435813787",
  "response": {
    "@type": "type.googleapis.com/google.cloud.speech.v1.LongRunningRecognizeResponse",
    "results": [
      {
        "alternatives": [
          {
            "confidence": 0.7102961,
            "transcript": "a picture",
            "words": [
              {
                "endTime": "0.200s",
                "startTime": "0s",
                "word": "a"
              },
              {
                "endTime": "1s",
                "startTime": "0.200s",
                "word": "picture"
              }
            ]
          }
        ]
      },
      {
        "alternatives": [
          {
            "confidence": 0.9221148,
            "transcript": " boys and girls making fun of the boys you meant to be so much while he was still in the cookie in the cookie jar and it made him truck and he's going to call the mother is listen to the kids in transition at the window at the mirror isn't paying attention to sync the sink spilling water on to the store is getting their feet wet curtains are open to allow for sure there's two cups on the sink",
            "words": [
              {
                "endTime": "4s",
                "startTime": "3.500s",
                "word": "boys"
              },
              {
                "endTime": "4.300s",
                "startTime": "4s",
                "word": "and"
              },
              {
                "endTime": "4.600s",
                "startTime": "4.300s",
                "word": "girls"
              },
              {
                "endTime": "4.700s",
                "startTime": "4.600s",
                "word": "making"
              },
              {
                "endTime": "5s",
                "startTime": "4.700s",
                "word": "fun"
              },
              {
                "endTime": "5.100s",
                "startTime": "5s",
                "word": "of"
              },
              {
                "endTime": "5.200s",
                "startTime": "5.100s",
                "word": "the"
              },
              {
                "endTime": "5.400s",
                "startTime": "5.200s",
                "word": "boys"
              },
              {
                "endTime": "5.700s",
                "startTime": "5.400s",
                "word": "you"
              },
              {
                "endTime": "5.900s",
                "startTime": "5.700s",
                "word": "meant"
              },
              {
                "endTime": "6s",
                "startTime": "5.900s",
                "word": "to"
              },
              {
                "endTime": "6.200s",
                "startTime": "6s",
                "word": "be"
              },
              {
                "endTime": "6.400s",
                "startTime": "6.200s",
                "word": "so"
              },
              {
                "endTime": "6.600s",
                "startTime": "6.400s",
                "word": "much"
              },
              {
                "endTime": "7s",
                "startTime": "6.600s",
                "word": "while"
              },
              {
                "endTime": "7.100s",
                "startTime": "7s",
                "word": "he"
              },
              {
                "endTime": "7.300s",
                "startTime": "7.100s",
                "word": "was"
              },
              {
                "endTime": "7.500s",
                "startTime": "7.300s",
                "word": "still"
              },
              {
                "endTime": "7.600s",
                "startTime": "7.500s",
                "word": "in"
              },
              {
                "endTime": "7.700s",
                "startTime": "7.600s",
                "word": "the"
              },
              {
                "endTime": "8s",
                "startTime": "7.700s",
                "word": "cookie"
              },
              {
                "endTime": "8.200s",
                "startTime": "8s",
                "word": "in"
              },
              {
                "endTime": "8.200s",
                "startTime": "8.200s",
                "word": "the"
              },
              {
                "endTime": "8.300s",
                "startTime": "8.200s",
                "word": "cookie"
              },
              {
                "endTime": "8.600s",
                "startTime": "8.300s",
                "word": "jar"
              },
              {
                "endTime": "9.700s",
                "startTime": "8.600s",
                "word": "and"
              },
              {
                "endTime": "9.800s",
                "startTime": "9.700s",
                "word": "it"
              },
              {
                "endTime": "10s",
                "startTime": "9.800s",
                "word": "made"
              },
              {
                "endTime": "10.100s",
                "startTime": "10s",
                "word": "him"
              },
              {
                "endTime": "10.400s",
                "startTime": "10.100s",
                "word": "truck"
              },
              {
                "endTime": "11.300s",
                "startTime": "10.400s",
                "word": "and"
              },
              {
                "endTime": "11.400s",
                "startTime": "11.300s",
                "word": "he's"
              },
              {
                "endTime": "11.500s",
                "startTime": "11.400s",
                "word": "going"
              },
              {
                "endTime": "11.700s",
                "startTime": "11.500s",
                "word": "to"
              },
              {
                "endTime": "12s",
                "startTime": "11.700s",
                "word": "call"
              },
              {
                "endTime": "12.100s",
                "startTime": "12s",
                "word": "the"
              },
              {
                "endTime": "12.400s",
                "startTime": "12.100s",
                "word": "mother"
              },
              {
                "endTime": "12.700s",
                "startTime": "12.400s",
                "word": "is"
              },
              {
                "endTime": "13.600s",
                "startTime": "12.700s",
                "word": "listen"
              },
              {
                "endTime": "13.800s",
                "startTime": "13.600s",
                "word": "to"
              },
              {
                "endTime": "13.900s",
                "startTime": "13.800s",
                "word": "the"
              },
              {
                "endTime": "14.400s",
                "startTime": "13.900s",
                "word": "kids"
              },
              {
                "endTime": "14.700s",
                "startTime": "14.400s",
                "word": "in"
              },
              {
                "endTime": "15.400s",
                "startTime": "14.700s",
                "word": "transition"
              },
              {
                "endTime": "16.300s",
                "startTime": "15.400s",
                "word": "at"
              },
              {
                "endTime": "16.400s",
                "startTime": "16.300s",
                "word": "the"
              },
              {
                "endTime": "16.700s",
                "startTime": "16.400s",
                "word": "window"
              },
              {
                "endTime": "17s",
                "startTime": "16.700s",
                "word": "at"
              },
              {
                "endTime": "17.100s",
                "startTime": "17s",
                "word": "the"
              },
              {
                "endTime": "17.500s",
                "startTime": "17.100s",
                "word": "mirror"
              },
              {
                "endTime": "18.500s",
                "startTime": "17.500s",
                "word": "isn't"
              },
              {
                "endTime": "18.700s",
                "startTime": "18.500s",
                "word": "paying"
              },
              {
                "endTime": "18.800s",
                "startTime": "18.700s",
                "word": "attention"
              },
              {
                "endTime": "19.200s",
                "startTime": "18.800s",
                "word": "to"
              },
              {
                "endTime": "19.600s",
                "startTime": "19.200s",
                "word": "sync"
              },
              {
                "endTime": "19.700s",
                "startTime": "19.600s",
                "word": "the"
              },
              {
                "endTime": "20s",
                "startTime": "19.700s",
                "word": "sink"
              },
              {
                "endTime": "20.400s",
                "startTime": "20s",
                "word": "spilling"
              },
              {
                "endTime": "20.500s",
                "startTime": "20.400s",
                "word": "water"
              },
              {
                "endTime": "20.800s",
                "startTime": "20.500s",
                "word": "on"
              },
              {
                "endTime": "21s",
                "startTime": "20.800s",
                "word": "to"
              },
              {
                "endTime": "21.100s",
                "startTime": "21s",
                "word": "the"
              },
              {
                "endTime": "21.300s",
                "startTime": "21.100s",
                "word": "store"
              },
              {
                "endTime": "21.500s",
                "startTime": "21.300s",
                "word": "is"
              },
              {
                "endTime": "21.700s",
                "startTime": "21.500s",
                "word": "getting"
              },
              {
                "endTime": "21.900s",
                "startTime": "21.700s",
                "word": "their"
              },
              {
                "endTime": "22.100s",
                "startTime": "21.900s",
                "word": "feet"
              },
              {
                "endTime": "22.200s",
                "startTime": "22.100s",
                "word": "wet"
              },
              {
                "endTime": "23.100s",
                "startTime": "22.200s",
                "word": "curtains"
              },
              {
                "endTime": "23.200s",
                "startTime": "23.100s",
                "word": "are"
              },
              {
                "endTime": "23.300s",
                "startTime": "23.200s",
                "word": "open"
              },
              {
                "endTime": "24.800s",
                "startTime": "23.300s",
                "word": "to"
              },
              {
                "endTime": "25s",
                "startTime": "24.800s",
                "word": "allow"
              },
              {
                "endTime": "25.700s",
                "startTime": "25s",
                "word": "for"
              },
              {
                "endTime": "26s",
                "startTime": "25.700s",
                "word": "sure"
              },
              {
                "endTime": "26.900s",
                "startTime": "26s",
                "word": "there's"
              },
              {
                "endTime": "27.100s",
                "startTime": "26.900s",
                "word": "two"
              },
              {
                "endTime": "27.900s",
                "startTime": "27.100s",
                "word": "cups"
              },
              {
                "endTime": "28.100s",
                "startTime": "27.900s",
                "word": "on"
              },
              {
                "endTime": "28.200s",
                "startTime": "28.100s",
                "word": "the"
              },
              {
                "endTime": "29.700s",
                "startTime": "28.200s",
                "word": "sink"
              }
            ]
          }
        ]
      },
      {
        "alternatives": [
          {
            "confidence": 0.92435896,
            "transcript": " looks like I might be soccer spring or summer I because things look like a growing inside that she has shoes and she is Susan dishes and she has to dress dress a burn",
            "words": [
              {
                "endTime": "36.500s",
                "startTime": "34s",
                "word": "looks"
              },
              {
                "endTime": "36.600s",
                "startTime": "36.500s",
                "word": "like"
              },
              {
                "endTime": "36.700s",
                "startTime": "36.600s",
                "word": "I"
              },
              {
                "endTime": "36.800s",
                "startTime": "36.700s",
                "word": "might"
              },
              {
                "endTime": "37s",
                "startTime": "36.800s",
                "word": "be"
              },
              {
                "endTime": "37.400s",
                "startTime": "37s",
                "word": "soccer"
              },
              {
                "endTime": "37.700s",
                "startTime": "37.400s",
                "word": "spring"
              },
              {
                "endTime": "37.800s",
                "startTime": "37.700s",
                "word": "or"
              },
              {
                "endTime": "38.100s",
                "startTime": "37.800s",
                "word": "summer"
              },
              {
                "endTime": "38.200s",
                "startTime": "38.100s",
                "word": "I"
              },
              {
                "endTime": "38.600s",
                "startTime": "38.200s",
                "word": "because"
              },
              {
                "endTime": "38.900s",
                "startTime": "38.600s",
                "word": "things"
              },
              {
                "endTime": "39s",
                "startTime": "38.900s",
                "word": "look"
              },
              {
                "endTime": "39.100s",
                "startTime": "39s",
                "word": "like"
              },
              {
                "endTime": "39.300s",
                "startTime": "39.100s",
                "word": "a"
              },
              {
                "endTime": "39.700s",
                "startTime": "39.300s",
                "word": "growing"
              },
              {
                "endTime": "40s",
                "startTime": "39.700s",
                "word": "inside"
              },
              {
                "endTime": "40.800s",
                "startTime": "40s",
                "word": "that"
              },
              {
                "endTime": "40.900s",
                "startTime": "40.800s",
                "word": "she"
              },
              {
                "endTime": "41.100s",
                "startTime": "40.900s",
                "word": "has"
              },
              {
                "endTime": "41.500s",
                "startTime": "41.100s",
                "word": "shoes"
              },
              {
                "endTime": "41.500s",
                "startTime": "41.500s",
                "word": "and"
              },
              {
                "endTime": "41.800s",
                "startTime": "41.500s",
                "word": "she"
              },
              {
                "endTime": "42s",
                "startTime": "41.800s",
                "word": "is"
              },
              {
                "endTime": "42.600s",
                "startTime": "42s",
                "word": "Susan"
              },
              {
                "endTime": "43.600s",
                "startTime": "42.600s",
                "word": "dishes"
              },
              {
                "endTime": "43.900s",
                "startTime": "43.600s",
                "word": "and"
              },
              {
                "endTime": "44.600s",
                "startTime": "43.900s",
                "word": "she"
              },
              {
                "endTime": "44.800s",
                "startTime": "44.600s",
                "word": "has"
              },
              {
                "endTime": "45s",
                "startTime": "44.800s",
                "word": "to"
              },
              {
                "endTime": "46.300s",
                "startTime": "45s",
                "word": "dress"
              },
              {
                "endTime": "47.400s",
                "startTime": "46.300s",
                "word": "dress"
              },
              {
                "endTime": "47.500s",
                "startTime": "47.400s",
                "word": "a"
              },
              {
                "endTime": "47.800s",
                "startTime": "47.500s",
                "word": "burn"
              }
            ]
          }
        ]
      },
      {
        "alternatives": [
          {
            "confidence": 0.9893771,
            "transcript": " shirt shorts socks socks",
            "words": [
              {
                "endTime": "49.600s",
                "startTime": "49s",
                "word": "shirt"
              },
              {
                "endTime": "50.600s",
                "startTime": "49.600s",
                "word": "shorts"
              },
              {
                "endTime": "51.900s",
                "startTime": "50.600s",
                "word": "socks"
              },
              {
                "endTime": "53.200s",
                "startTime": "51.900s",
                "word": "socks"
              }
            ]
          }
        ]
      },
      {
        "alternatives": [
          {
            "confidence": 0.7690588,
            "transcript": " look up the cookie jar",
            "words": [
              {
                "endTime": "55.400s",
                "startTime": "54.500s",
                "word": "look"
              },
              {
                "endTime": "55.600s",
                "startTime": "55.400s",
                "word": "up"
              },
              {
                "endTime": "55.800s",
                "startTime": "55.600s",
                "word": "the"
              },
              {
                "endTime": "56.100s",
                "startTime": "55.800s",
                "word": "cookie"
              },
              {
                "endTime": "56.500s",
                "startTime": "56.100s",
                "word": "jar"
              }
            ]
          }
        ]
      },
      {
        "alternatives": [
          {
            "confidence": 0.8896113,
            "transcript": " there's a 50 sink cabinet over here and then fancy wall cabinet over there that's about it",
            "words": [
              {
                "endTime": "59.400s",
                "startTime": "58.800s",
                "word": "there's"
              },
              {
                "endTime": "59.500s",
                "startTime": "59.400s",
                "word": "a"
              },
              {
                "endTime": "61.400s",
                "startTime": "59.500s",
                "word": "50"
              },
              {
                "endTime": "62.800s",
                "startTime": "61.400s",
                "word": "sink"
              },
              {
                "endTime": "63.100s",
                "startTime": "62.800s",
                "word": "cabinet"
              },
              {
                "endTime": "63.300s",
                "startTime": "63.100s",
                "word": "over"
              },
              {
                "endTime": "63.500s",
                "startTime": "63.300s",
                "word": "here"
              },
              {
                "endTime": "64.100s",
                "startTime": "63.500s",
                "word": "and"
              },
              {
                "endTime": "64.200s",
                "startTime": "64.100s",
                "word": "then"
              },
              {
                "endTime": "64.600s",
                "startTime": "64.200s",
                "word": "fancy"
              },
              {
                "endTime": "64.900s",
                "startTime": "64.600s",
                "word": "wall"
              },
              {
                "endTime": "65.300s",
                "startTime": "64.900s",
                "word": "cabinet"
              },
              {
                "endTime": "65.500s",
                "startTime": "65.300s",
                "word": "over"
              },
              {
                "endTime": "65.600s",
                "startTime": "65.500s",
                "word": "there"
              },
              {
                "endTime": "66s",
                "startTime": "65.600s",
                "word": "that's"
              },
              {
                "endTime": "66.200s",
                "startTime": "66s",
                "word": "about"
              },
              {
                "endTime": "66.400s",
                "startTime": "66.200s",
                "word": "it"
              }
            ]
          }
        ]
      }
    ]
  }
}
