{
  "done": true,
  "metadata": {
    "@type": "type.googleapis.com/google.cloud.speech.v1.LongRunningRecognizeMetadata",
    "lastUpdateTime": "2021-03-10T12:52:22.935017Z",
    "progressPercent": 100,
    "startTime": "2021-03-10T12:52:10.968522Z",
    "uri": "gs://adresso/ADReSSo21-diagnosis-train/diagnosis/train/audio/cn/adrso012.wav"
  },
  "name": "3065613548062674519",
  "response": {
    "@type": "type.googleapis.com/google.cloud.speech.v1.LongRunningRecognizeResponse",
    "results": [
      {
        "alternatives": [
          {
            "confidence": 0.95282656,
            "transcript": "well I see a kitchen and a housewife or Homemaker at the sink and her two kids are having a great time as she is",
            "words": [
              {
                "endTime": "1.300s",
                "startTime": "0.700s",
                "word": "well"
              },
              {
                "endTime": "1.700s",
                "startTime": "1.300s",
                "word": "I"
              },
              {
                "endTime": "2s",
                "startTime": "1.700s",
                "word": "see"
              },
              {
                "endTime": "2s",
                "startTime": "2s",
                "word": "a"
              },
              {
                "endTime": "2.600s",
                "startTime": "2s",
                "word": "kitchen"
              },
              {
                "endTime": "3s",
                "startTime": "2.600s",
                "word": "and"
              },
              {
                "endTime": "3.100s",
                "startTime": "3s",
                "word": "a"
              },
              {
                "endTime": "4.200s",
                "startTime": "3.100s",
                "word": "housewife"
              },
              {
                "endTime": "4.400s",
                "startTime": "4.200s",
                "word": "or"
              },
              {
                "endTime": "4.500s",
                "startTime": "4.400s",
                "word": "Homemaker"
              },
              {
                "endTime": "6.400s",
                "startTime": "4.500s",
                "word": "at"
              },
              {
                "endTime": "6.500s",
                "startTime": "6.400s",
                "word": "the"
              },
              {
                "endTime": "6.900s",
                "startTime": "6.500s",
                "word": "sink"
              },
              {
                "endTime": "7.700s",
                "startTime": "6.900s",
                "word": "and"
              },
              {
                "endTime": "8.100s",
                "startTime": "7.700s",
                "word": "her"
              },
              {
                "endTime": "8.300s",
                "startTime": "8.100s",
                "word": "two"
              },
              {
                "endTime": "8.400s",
                "startTime": "8.300s",
                "word": "kids"
              },
              {
                "endTime": "9.400s",
                "startTime": "8.400s",
                "word": "are"
              },
              {
                "endTime": "9.700s",
                "startTime": "9.400s",
                "word": "having"
              },
              {
                "endTime": "10s",
                "startTime": "9.700s",
                "word": "a"
              },
              {
                "endTime": "10.300s",
                "startTime": "10s",
                "word": "great"
              },
              {
                "endTime": "10.400s",
                "startTime": "10.300s",
                "word": "time"
              },
              {
                "endTime": "11.400s",
                "startTime": "10.400s",
                "word": "as"
              },
              {
                "endTime": "11.600s",
                "startTime": "11.400s",
                "word": "she"
              },
              {
                "endTime": "11.800s",
                "startTime": "11.600s",
                "word": "is"
              }
            ]
          }
        ]
      },
      {
        "alternatives": [
          {
            "confidence": 0.93699217,
            "transcript": " drawing a Dish as her sink overflows she must be blind but that's her doing all so the kid is about to fall having unsuccessfully help successfully gotten a cookie out of the cookie jar that's the boy whose up on a stool and the daughter is there trying to grab the cookie I guess from the boy",
            "words": [
              {
                "endTime": "14.100s",
                "startTime": "13.300s",
                "word": "drawing"
              },
              {
                "endTime": "14.200s",
                "startTime": "14.100s",
                "word": "a"
              },
              {
                "endTime": "14.700s",
                "startTime": "14.200s",
                "word": "Dish"
              },
              {
                "endTime": "15.600s",
                "startTime": "14.700s",
                "word": "as"
              },
              {
                "endTime": "15.900s",
                "startTime": "15.600s",
                "word": "her"
              },
              {
                "endTime": "16.400s",
                "startTime": "15.900s",
                "word": "sink"
              },
              {
                "endTime": "17.400s",
                "startTime": "16.400s",
                "word": "overflows"
              },
              {
                "endTime": "18.100s",
                "startTime": "17.400s",
                "word": "she"
              },
              {
                "endTime": "18.400s",
                "startTime": "18.100s",
                "word": "must"
              },
              {
                "endTime": "18.500s",
                "startTime": "18.400s",
                "word": "be"
              },
              {
                "endTime": "18.800s",
                "startTime": "18.500s",
                "word": "blind"
              },
              {
                "endTime": "19.400s",
                "startTime": "18.800s",
                "word": "but"
              },
              {
                "endTime": "20.200s",
                "startTime": "19.400s",
                "word": "that's"
              },
              {
                "endTime": "20.400s",
                "startTime": "20.200s",
                "word": "her"
              },
              {
                "endTime": "20.800s",
                "startTime": "20.400s",
                "word": "doing"
              },
              {
                "endTime": "21.600s",
                "startTime": "20.800s",
                "word": "all"
              },
              {
                "endTime": "22s",
                "startTime": "21.600s",
                "word": "so"
              },
              {
                "endTime": "22.200s",
                "startTime": "22s",
                "word": "the"
              },
              {
                "endTime": "22.400s",
                "startTime": "22.200s",
                "word": "kid"
              },
              {
                "endTime": "22.500s",
                "startTime": "22.400s",
                "word": "is"
              },
              {
                "endTime": "23s",
                "startTime": "22.500s",
                "word": "about"
              },
              {
                "endTime": "23.200s",
                "startTime": "23s",
                "word": "to"
              },
              {
                "endTime": "23.400s",
                "startTime": "23.200s",
                "word": "fall"
              },
              {
                "endTime": "25.300s",
                "startTime": "23.400s",
                "word": "having"
              },
              {
                "endTime": "27s",
                "startTime": "25.300s",
                "word": "unsuccessfully"
              },
              {
                "endTime": "27.300s",
                "startTime": "27s",
                "word": "help"
              },
              {
                "endTime": "28s",
                "startTime": "27.300s",
                "word": "successfully"
              },
              {
                "endTime": "29.100s",
                "startTime": "28s",
                "word": "gotten"
              },
              {
                "endTime": "29.200s",
                "startTime": "29.100s",
                "word": "a"
              },
              {
                "endTime": "29.600s",
                "startTime": "29.200s",
                "word": "cookie"
              },
              {
                "endTime": "29.700s",
                "startTime": "29.600s",
                "word": "out"
              },
              {
                "endTime": "29.900s",
                "startTime": "29.700s",
                "word": "of"
              },
              {
                "endTime": "30s",
                "startTime": "29.900s",
                "word": "the"
              },
              {
                "endTime": "30.100s",
                "startTime": "30s",
                "word": "cookie"
              },
              {
                "endTime": "30.500s",
                "startTime": "30.100s",
                "word": "jar"
              },
              {
                "endTime": "31.600s",
                "startTime": "30.500s",
                "word": "that's"
              },
              {
                "endTime": "31.900s",
                "startTime": "31.600s",
                "word": "the"
              },
              {
                "endTime": "32.100s",
                "startTime": "31.900s",
                "word": "boy"
              },
              {
                "endTime": "32.500s",
                "startTime": "32.100s",
                "word": "whose"
              },
              {
                "endTime": "32.800s",
                "startTime": "32.500s",
                "word": "up"
              },
              {
                "endTime": "33s",
                "startTime": "32.800s",
                "word": "on"
              },
              {
                "endTime": "33.100s",
                "startTime": "33s",
                "word": "a"
              },
              {
                "endTime": "33.400s",
                "startTime": "33.100s",
                "word": "stool"
              },
              {
                "endTime": "34.500s",
                "startTime": "33.400s",
                "word": "and"
              },
              {
                "endTime": "34.600s",
                "startTime": "34.500s",
                "word": "the"
              },
              {
                "endTime": "35s",
                "startTime": "34.600s",
                "word": "daughter"
              },
              {
                "endTime": "35.700s",
                "startTime": "35s",
                "word": "is"
              },
              {
                "endTime": "36s",
                "startTime": "35.700s",
                "word": "there"
              },
              {
                "endTime": "37.500s",
                "startTime": "36s",
                "word": "trying"
              },
              {
                "endTime": "37.600s",
                "startTime": "37.500s",
                "word": "to"
              },
              {
                "endTime": "37.800s",
                "startTime": "37.600s",
                "word": "grab"
              },
              {
                "endTime": "37.900s",
                "startTime": "37.800s",
                "word": "the"
              },
              {
                "endTime": "38.200s",
                "startTime": "37.900s",
                "word": "cookie"
              },
              {
                "endTime": "38.300s",
                "startTime": "38.200s",
                "word": "I"
              },
              {
                "endTime": "38.700s",
                "startTime": "38.300s",
                "word": "guess"
              },
              {
                "endTime": "39.900s",
                "startTime": "38.700s",
                "word": "from"
              },
              {
                "endTime": "40.400s",
                "startTime": "39.900s",
                "word": "the"
              },
              {
                "endTime": "40.500s",
                "startTime": "40.400s",
                "word": "boy"
              }
            ]
          }
        ]
      },
      {
        "alternatives": [
          {
            "confidence": 0.91995406,
            "transcript": " what else",
            "words": [
              {
                "endTime": "42.900s",
                "startTime": "42.100s",
                "word": "what"
              },
              {
                "endTime": "43.200s",
                "startTime": "42.900s",
                "word": "else"
              }
            ]
          }
        ]
      },
      {
        "alternatives": [
          {
            "confidence": 0.93058914,
            "transcript": " it looks like a nice yard and back with a bit of a garden some grass I believe she's standing in the water still bothers me that she's gone blind that you can't do while she'll feel its own on her face on the water hits her that's that's what I see",
            "words": [
              {
                "endTime": "45.700s",
                "startTime": "44.900s",
                "word": "it"
              },
              {
                "endTime": "46s",
                "startTime": "45.700s",
                "word": "looks"
              },
              {
                "endTime": "46.300s",
                "startTime": "46s",
                "word": "like"
              },
              {
                "endTime": "46.400s",
                "startTime": "46.300s",
                "word": "a"
              },
              {
                "endTime": "46.800s",
                "startTime": "46.400s",
                "word": "nice"
              },
              {
                "endTime": "47.100s",
                "startTime": "46.800s",
                "word": "yard"
              },
              {
                "endTime": "47.500s",
                "startTime": "47.100s",
                "word": "and"
              },
              {
                "endTime": "47.800s",
                "startTime": "47.500s",
                "word": "back"
              },
              {
                "endTime": "48.700s",
                "startTime": "47.800s",
                "word": "with"
              },
              {
                "endTime": "48.900s",
                "startTime": "48.700s",
                "word": "a"
              },
              {
                "endTime": "49.900s",
                "startTime": "48.900s",
                "word": "bit"
              },
              {
                "endTime": "49.900s",
                "startTime": "49.900s",
                "word": "of"
              },
              {
                "endTime": "50s",
                "startTime": "49.900s",
                "word": "a"
              },
              {
                "endTime": "50.600s",
                "startTime": "50s",
                "word": "garden"
              },
              {
                "endTime": "51.900s",
                "startTime": "50.600s",
                "word": "some"
              },
              {
                "endTime": "52.400s",
                "startTime": "51.900s",
                "word": "grass"
              },
              {
                "endTime": "53.500s",
                "startTime": "52.400s",
                "word": "I"
              },
              {
                "endTime": "54s",
                "startTime": "53.500s",
                "word": "believe"
              },
              {
                "endTime": "54.400s",
                "startTime": "54s",
                "word": "she's"
              },
              {
                "endTime": "54.800s",
                "startTime": "54.400s",
                "word": "standing"
              },
              {
                "endTime": "54.900s",
                "startTime": "54.800s",
                "word": "in"
              },
              {
                "endTime": "55s",
                "startTime": "54.900s",
                "word": "the"
              },
              {
                "endTime": "55.200s",
                "startTime": "55s",
                "word": "water"
              },
              {
                "endTime": "56.200s",
                "startTime": "55.200s",
                "word": "still"
              },
              {
                "endTime": "56.600s",
                "startTime": "56.200s",
                "word": "bothers"
              },
              {
                "endTime": "56.700s",
                "startTime": "56.600s",
                "word": "me"
              },
              {
                "endTime": "56.900s",
                "startTime": "56.700s",
                "word": "that"
              },
              {
                "endTime": "57.300s",
                "startTime": "56.900s",
                "word": "she's"
              },
              {
                "endTime": "58.200s",
                "startTime": "57.300s",
                "word": "gone"
              },
              {
                "endTime": "58.600s",
                "startTime": "58.200s",
                "word": "blind"
              },
              {
                "endTime": "59.700s",
                "startTime": "58.600s",
                "word": "that"
              },
              {
                "endTime": "59.900s",
                "startTime": "59.700s",
                "word": "you"
              },
              {
                "endTime": "60.300s",
                "startTime": "59.900s",
                "word": "can't"
              },
              {
                "endTime": "60.800s",
                "startTime": "60.300s",
                "word": "do"
              },
              {
                "endTime": "61.500s",
                "startTime": "60.800s",
                "word": "while"
              },
              {
                "endTime": "61.900s",
                "startTime": "61.500s",
                "word": "she'll"
              },
              {
                "endTime": "62.200s",
                "startTime": "61.900s",
                "word": "feel"
              },
              {
                "endTime": "62.400s",
                "startTime": "62.200s",
                "word": "its"
              },
              {
                "endTime": "62.600s",
                "startTime": "62.400s",
                "word": "own"
              },
              {
                "endTime": "62.800s",
                "startTime": "62.600s",
                "word": "on"
              },
              {
                "endTime": "62.900s",
                "startTime": "62.800s",
                "word": "her"
              },
              {
                "endTime": "63.300s",
                "startTime": "62.900s",
                "word": "face"
              },
              {
                "endTime": "64s",
                "startTime": "63.300s",
                "word": "on"
              },
              {
                "endTime": "64.100s",
                "startTime": "64s",
                "word": "the"
              },
              {
                "endTime": "64.500s",
                "startTime": "64.100s",
                "word": "water"
              },
              {
                "endTime": "64.700s",
                "startTime": "64.500s",
                "word": "hits"
              },
              {
                "endTime": "64.900s",
                "startTime": "64.700s",
                "word": "her"
              },
              {
                "endTime": "66.500s",
                "startTime": "64.900s",
                "word": "that's"
              },
              {
                "endTime": "66.800s",
                "startTime": "66.500s",
                "word": "that's"
              },
              {
                "endTime": "67.200s",
                "startTime": "66.800s",
                "word": "what"
              },
              {
                "endTime": "67.200s",
                "startTime": "67.200s",
                "word": "I"
              },
              {
                "endTime": "67.500s",
                "startTime": "67.200s",
                "word": "see"
              }
            ]
          }
        ]
      }
    ]
  }
}
