{
  "done": true,
  "metadata": {
    "@type": "type.googleapis.com/google.cloud.speech.v1.LongRunningRecognizeMetadata",
    "lastUpdateTime": "2021-03-10T12:52:38.655195Z",
    "progressPercent": 100,
    "startTime": "2021-03-10T12:52:28.426385Z",
    "uri": "gs://adresso/ADReSSo21-diagnosis-train/diagnosis/train/audio/cn/adrso151.wav"
  },
  "name": "2190916363757001569",
  "response": {
    "@type": "type.googleapis.com/google.cloud.speech.v1.LongRunningRecognizeResponse",
    "results": [
      {
        "alternatives": [
          {
            "confidence": 0.9457843,
            "transcript": "okay here's the picture all the action",
            "words": [
              {
                "endTime": "1.700s",
                "startTime": "0.400s",
                "word": "okay"
              },
              {
                "endTime": "2.100s",
                "startTime": "1.700s",
                "word": "here's"
              },
              {
                "endTime": "2.300s",
                "startTime": "2.100s",
                "word": "the"
              },
              {
                "endTime": "2.700s",
                "startTime": "2.300s",
                "word": "picture"
              },
              {
                "endTime": "2.900s",
                "startTime": "2.700s",
                "word": "all"
              },
              {
                "endTime": "3s",
                "startTime": "2.900s",
                "word": "the"
              },
              {
                "endTime": "3.600s",
                "startTime": "3s",
                "word": "action"
              }
            ]
          }
        ]
      },
      {
        "alternatives": [
          {
            "confidence": 0.9717188,
            "transcript": " boy taking cookies out of the cookie jar",
            "words": [
              {
                "endTime": "7.700s",
                "startTime": "7.300s",
                "word": "boy"
              },
              {
                "endTime": "9.100s",
                "startTime": "7.700s",
                "word": "taking"
              },
              {
                "endTime": "9.600s",
                "startTime": "9.100s",
                "word": "cookies"
              },
              {
                "endTime": "9.700s",
                "startTime": "9.600s",
                "word": "out"
              },
              {
                "endTime": "9.800s",
                "startTime": "9.700s",
                "word": "of"
              },
              {
                "endTime": "9.900s",
                "startTime": "9.800s",
                "word": "the"
              },
              {
                "endTime": "10.100s",
                "startTime": "9.900s",
                "word": "cookie"
              },
              {
                "endTime": "10.700s",
                "startTime": "10.100s",
                "word": "jar"
              }
            ]
          }
        ]
      },
      {
        "alternatives": [
          {
            "confidence": 0.7700858,
            "transcript": " Stewie home",
            "words": [
              {
                "endTime": "12.500s",
                "startTime": "11.900s",
                "word": "Stewie"
              },
              {
                "endTime": "13.600s",
                "startTime": "12.500s",
                "word": "home"
              }
            ]
          }
        ]
      },
      {
        "alternatives": [
          {
            "confidence": 0.8041308,
            "transcript": " little girl is reaching",
            "words": [
              {
                "endTime": "17.500s",
                "startTime": "16.900s",
                "word": "little"
              },
              {
                "endTime": "17.800s",
                "startTime": "17.500s",
                "word": "girl"
              },
              {
                "endTime": "17.900s",
                "startTime": "17.800s",
                "word": "is"
              },
              {
                "endTime": "18.500s",
                "startTime": "17.900s",
                "word": "reaching"
              }
            ]
          }
        ]
      },
      {
        "alternatives": [
          {
            "confidence": 0.9811099,
            "transcript": " water is running out of faucet water is overflowing me",
            "words": [
              {
                "endTime": "20.500s",
                "startTime": "19.800s",
                "word": "water"
              },
              {
                "endTime": "20.800s",
                "startTime": "20.500s",
                "word": "is"
              },
              {
                "endTime": "21.100s",
                "startTime": "20.800s",
                "word": "running"
              },
              {
                "endTime": "21.400s",
                "startTime": "21.100s",
                "word": "out"
              },
              {
                "endTime": "21.400s",
                "startTime": "21.400s",
                "word": "of"
              },
              {
                "endTime": "22.200s",
                "startTime": "21.400s",
                "word": "faucet"
              },
              {
                "endTime": "23.200s",
                "startTime": "22.200s",
                "word": "water"
              },
              {
                "endTime": "23.300s",
                "startTime": "23.200s",
                "word": "is"
              },
              {
                "endTime": "23.600s",
                "startTime": "23.300s",
                "word": "overflowing"
              },
              {
                "endTime": "24.300s",
                "startTime": "23.600s",
                "word": "me"
              }
            ]
          }
        ]
      },
      {
        "alternatives": [
          {
            "confidence": 0.93254614,
            "transcript": " woman is porcelain dishes",
            "words": [
              {
                "endTime": "27.600s",
                "startTime": "27s",
                "word": "woman"
              },
              {
                "endTime": "27.800s",
                "startTime": "27.600s",
                "word": "is"
              },
              {
                "endTime": "29.100s",
                "startTime": "27.800s",
                "word": "porcelain"
              },
              {
                "endTime": "29.400s",
                "startTime": "29.100s",
                "word": "dishes"
              }
            ]
          }
        ]
      }
    ]
  }
}
