{
  "done": true,
  "metadata": {
    "@type": "type.googleapis.com/google.cloud.speech.v1.LongRunningRecognizeMetadata",
    "lastUpdateTime": "2021-03-11T20:31:14.077501Z",
    "progressPercent": 100,
    "startTime": "2021-03-11T20:30:53.145334Z",
    "uri": "gs://adresso/ADReSSo21-progression-test/progression/test-dist/audio/train/decline/adrsp313.wav"
  },
  "name": "582220567464117082",
  "response": {
    "@type": "type.googleapis.com/google.cloud.speech.v1.LongRunningRecognizeResponse",
    "results": [
      {
        "alternatives": [
          {
            "confidence": 0.96044195,
            "transcript": "can you can start now",
            "words": [
              {
                "endTime": "0.300s",
                "startTime": "0s",
                "word": "can"
              },
              {
                "endTime": "0.400s",
                "startTime": "0.300s",
                "word": "you"
              },
              {
                "endTime": "0.600s",
                "startTime": "0.400s",
                "word": "can"
              },
              {
                "endTime": "1s",
                "startTime": "0.600s",
                "word": "start"
              },
              {
                "endTime": "1.100s",
                "startTime": "1s",
                "word": "now"
              }
            ]
          }
        ]
      },
      {
        "alternatives": [
          {
            "confidence": 0.5240444,
            "transcript": " the same",
            "words": [
              {
                "endTime": "3.900s",
                "startTime": "3.600s",
                "word": "the"
              },
              {
                "endTime": "4.200s",
                "startTime": "3.900s",
                "word": "same"
              }
            ]
          }
        ]
      },
      {
        "alternatives": [
          {
            "confidence": 0.98762906,
            "transcript": " well",
            "words": [
              {
                "endTime": "6.900s",
                "startTime": "6.300s",
                "word": "well"
              }
            ]
          }
        ]
      },
      {
        "alternatives": [
          {
            "confidence": 0.67347527,
            "transcript": " cat dog",
            "words": [
              {
                "endTime": "10.900s",
                "startTime": "9.500s",
                "word": "cat"
              },
              {
                "endTime": "12.500s",
                "startTime": "10.900s",
                "word": "dog"
              }
            ]
          }
        ]
      },
      {
        "alternatives": [
          {
            "confidence": 0.5618093,
            "transcript": " labor something here",
            "words": [
              {
                "endTime": "18.100s",
                "startTime": "16.900s",
                "word": "labor"
              },
              {
                "endTime": "18.500s",
                "startTime": "18.100s",
                "word": "something"
              },
              {
                "endTime": "18.800s",
                "startTime": "18.500s",
                "word": "here"
              }
            ]
          }
        ]
      },
      {
        "alternatives": [
          {
            "confidence": 0.8820856,
            "transcript": " all the animals you can think of",
            "words": [
              {
                "endTime": "22.800s",
                "startTime": "22.200s",
                "word": "all"
              },
              {
                "endTime": "23s",
                "startTime": "22.800s",
                "word": "the"
              },
              {
                "endTime": "23.600s",
                "startTime": "23s",
                "word": "animals"
              },
              {
                "endTime": "23.800s",
                "startTime": "23.600s",
                "word": "you"
              },
              {
                "endTime": "24s",
                "startTime": "23.800s",
                "word": "can"
              },
              {
                "endTime": "24.300s",
                "startTime": "24s",
                "word": "think"
              },
              {
                "endTime": "24.400s",
                "startTime": "24.300s",
                "word": "of"
              }
            ]
          }
        ]
      },
      {
        "alternatives": [
          {
            "confidence": 0.9791498,
            "transcript": " I don't have any dogs",
            "words": [
              {
                "endTime": "32s",
                "startTime": "29.200s",
                "word": "I"
              },
              {
                "endTime": "32.300s",
                "startTime": "32s",
                "word": "don't"
              },
              {
                "endTime": "32.500s",
                "startTime": "32.300s",
                "word": "have"
              },
              {
                "endTime": "32.800s",
                "startTime": "32.500s",
                "word": "any"
              },
              {
                "endTime": "33.400s",
                "startTime": "32.800s",
                "word": "dogs"
              }
            ]
          }
        ]
      },
      {
        "alternatives": [
          {
            "confidence": 0.62855536,
            "transcript": " I just got a blank",
            "words": [
              {
                "endTime": "41s",
                "startTime": "40.600s",
                "word": "I"
              },
              {
                "endTime": "41.300s",
                "startTime": "41s",
                "word": "just"
              },
              {
                "endTime": "41.400s",
                "startTime": "41.300s",
                "word": "got"
              },
              {
                "endTime": "41.500s",
                "startTime": "41.400s",
                "word": "a"
              },
              {
                "endTime": "42.400s",
                "startTime": "41.500s",
                "word": "blank"
              }
            ]
          }
        ]
      },
      {
        "alternatives": [
          {
            "confidence": 0.8281986,
            "transcript": " adult camp dogs",
            "words": [
              {
                "endTime": "44.900s",
                "startTime": "44s",
                "word": "adult"
              },
              {
                "endTime": "47s",
                "startTime": "44.900s",
                "word": "camp"
              },
              {
                "endTime": "48s",
                "startTime": "47s",
                "word": "dogs"
              }
            ]
          }
        ]
      },
      {
        "alternatives": [
          {
            "confidence": 0.83514917,
            "transcript": " okay thanks the directions and you can start now the words",
            "words": [
              {
                "endTime": "61.300s",
                "startTime": "60.600s",
                "word": "okay"
              },
              {
                "endTime": "62.700s",
                "startTime": "61.300s",
                "word": "thanks"
              },
              {
                "endTime": "62.800s",
                "startTime": "62.700s",
                "word": "the"
              },
              {
                "endTime": "63.500s",
                "startTime": "62.800s",
                "word": "directions"
              },
              {
                "endTime": "63.800s",
                "startTime": "63.500s",
                "word": "and"
              },
              {
                "endTime": "63.900s",
                "startTime": "63.800s",
                "word": "you"
              },
              {
                "endTime": "64s",
                "startTime": "63.900s",
                "word": "can"
              },
              {
                "endTime": "64.300s",
                "startTime": "64s",
                "word": "start"
              },
              {
                "endTime": "64.500s",
                "startTime": "64.300s",
                "word": "now"
              },
              {
                "endTime": "65.300s",
                "startTime": "64.500s",
                "word": "the"
              },
              {
                "endTime": "65.800s",
                "startTime": "65.300s",
                "word": "words"
              }
            ]
          }
        ]
      },
      {
        "alternatives": [
          {
            "confidence": 0.8859152,
            "transcript": " begin with f",
            "words": [
              {
                "endTime": "68.100s",
                "startTime": "67.500s",
                "word": "begin"
              },
              {
                "endTime": "68.200s",
                "startTime": "68.100s",
                "word": "with"
              },
              {
                "endTime": "68.600s",
                "startTime": "68.200s",
                "word": "f"
              }
            ]
          }
        ]
      },
      {
        "alternatives": [
          {
            "confidence": 0.7333135,
            "transcript": " people's names that you say or just old",
            "words": [
              {
                "endTime": "73.100s",
                "startTime": "71.400s",
                "word": "people's"
              },
              {
                "endTime": "73.300s",
                "startTime": "73.100s",
                "word": "names"
              },
              {
                "endTime": "73.400s",
                "startTime": "73.300s",
                "word": "that"
              },
              {
                "endTime": "73.600s",
                "startTime": "73.400s",
                "word": "you"
              },
              {
                "endTime": "73.800s",
                "startTime": "73.600s",
                "word": "say"
              },
              {
                "endTime": "73.900s",
                "startTime": "73.800s",
                "word": "or"
              },
              {
                "endTime": "82.600s",
                "startTime": "73.900s",
                "word": "just"
              },
              {
                "endTime": "83.700s",
                "startTime": "82.600s",
                "word": "old"
              }
            ]
          }
        ]
      },
      {
        "alternatives": [
          {
            "confidence": 0.35589966,
            "transcript": " far",
            "words": [
              {
                "endTime": "86.700s",
                "startTime": "86s",
                "word": "far"
              }
            ]
          }
        ]
      },
      {
        "alternatives": [
          {
            "confidence": 0.9911851,
            "transcript": " French",
            "words": [
              {
                "endTime": "91.300s",
                "startTime": "89.700s",
                "word": "French"
              }
            ]
          }
        ]
      },
      {
        "alternatives": [
          {
            "confidence": 0.50414383,
            "transcript": " why",
            "words": [
              {
                "endTime": "93.500s",
                "startTime": "93s",
                "word": "why"
              }
            ]
          }
        ]
      },
      {
        "alternatives": [
          {
            "confidence": 0.4215026,
            "transcript": " same",
            "words": [
              {
                "endTime": "98.300s",
                "startTime": "97.500s",
                "word": "same"
              }
            ]
          }
        ]
      },
      {
        "alternatives": [
          {
            "confidence": 0.9109427,
            "transcript": " former",
            "words": [
              {
                "endTime": "102.500s",
                "startTime": "101.700s",
                "word": "former"
              }
            ]
          }
        ]
      },
      {
        "alternatives": [
          {
            "confidence": 0.7897764,
            "transcript": " pressured I give you fresh fix",
            "words": [
              {
                "endTime": "104.700s",
                "startTime": "103.600s",
                "word": "pressured"
              },
              {
                "endTime": "104.800s",
                "startTime": "104.700s",
                "word": "I"
              },
              {
                "endTime": "105s",
                "startTime": "104.800s",
                "word": "give"
              },
              {
                "endTime": "105.200s",
                "startTime": "105s",
                "word": "you"
              },
              {
                "endTime": "105.600s",
                "startTime": "105.200s",
                "word": "fresh"
              },
              {
                "endTime": "107.900s",
                "startTime": "105.600s",
                "word": "fix"
              }
            ]
          }
        ]
      },
      {
        "alternatives": [
          {
            "confidence": 0.79273623,
            "transcript": " Fallout 4 armor",
            "words": [
              {
                "endTime": "110.600s",
                "startTime": "109.900s",
                "word": "Fallout"
              },
              {
                "endTime": "110.700s",
                "startTime": "110.600s",
                "word": "4"
              },
              {
                "endTime": "111.100s",
                "startTime": "110.700s",
                "word": "armor"
              }
            ]
          }
        ]
      },
      {
        "alternatives": [
          {
            "confidence": 0.8014785,
            "transcript": " Bond",
            "words": [
              {
                "endTime": "114.300s",
                "startTime": "113.400s",
                "word": "Bond"
              }
            ]
          }
        ]
      },
      {
        "alternatives": [
          {
            "confidence": 0.8486695,
            "transcript": " Fair",
            "words": [
              {
                "endTime": "117.800s",
                "startTime": "117.100s",
                "word": "Fair"
              }
            ]
          }
        ]
      },
      {
        "alternatives": [
          {
            "confidence": 0.83356076,
            "transcript": " fresh",
            "words": [
              {
                "endTime": "123.300s",
                "startTime": "122.600s",
                "word": "fresh"
              }
            ]
          }
        ]
      },
      {
        "alternatives": [
          {
            "confidence": 0.45839667,
            "transcript": " fond",
            "words": [
              {
                "endTime": "125.900s",
                "startTime": "125s",
                "word": "fond"
              }
            ]
          }
        ]
      },
      {
        "alternatives": [
          {
            "confidence": 0.9542452,
            "transcript": " fixing",
            "words": [
              {
                "endTime": "127.900s",
                "startTime": "127.100s",
                "word": "fixing"
              }
            ]
          }
        ]
      }
    ]
  }
}
