{
  "done": true,
  "metadata": {
    "@type": "type.googleapis.com/google.cloud.speech.v1.LongRunningRecognizeMetadata",
    "lastUpdateTime": "2021-03-10T10:04:00.644756Z",
    "progressPercent": 100,
    "startTime": "2021-03-10T10:03:25.211541Z",
    "uri": "gs://adresso/ADReSSo21-diagnosis-train/diagnosis/train/audio/ad/adrso049.wav"
  },
  "name": "5234772784097696658",
  "response": {
    "@type": "type.googleapis.com/google.cloud.speech.v1.LongRunningRecognizeResponse",
    "results": [
      {
        "alternatives": [
          {
            "confidence": 0.93293023,
            "transcript": "and there's the picture all the action that you can stay",
            "words": [
              {
                "endTime": "0.600s",
                "startTime": "0.100s",
                "word": "and"
              },
              {
                "endTime": "0.900s",
                "startTime": "0.600s",
                "word": "there's"
              },
              {
                "endTime": "1s",
                "startTime": "0.900s",
                "word": "the"
              },
              {
                "endTime": "1.400s",
                "startTime": "1s",
                "word": "picture"
              },
              {
                "endTime": "2.200s",
                "startTime": "1.400s",
                "word": "all"
              },
              {
                "endTime": "2.300s",
                "startTime": "2.200s",
                "word": "the"
              },
              {
                "endTime": "2.700s",
                "startTime": "2.300s",
                "word": "action"
              },
              {
                "endTime": "2.800s",
                "startTime": "2.700s",
                "word": "that"
              },
              {
                "endTime": "3s",
                "startTime": "2.800s",
                "word": "you"
              },
              {
                "endTime": "3.200s",
                "startTime": "3s",
                "word": "can"
              },
              {
                "endTime": "3.500s",
                "startTime": "3.200s",
                "word": "stay"
              }
            ]
          }
        ]
      },
      {
        "alternatives": [
          {
            "confidence": 0.6063714,
            "transcript": ".",
            "words": [
              {
                "endTime": "6.100s",
                "startTime": "5.400s",
                "word": "."
              }
            ]
          }
        ]
      },
      {
        "alternatives": [
          {
            "confidence": 0.76813143,
            "transcript": " live by climbing up in some cookie Cookie by the cookie jar",
            "words": [
              {
                "endTime": "14.600s",
                "startTime": "14s",
                "word": "live"
              },
              {
                "endTime": "14.800s",
                "startTime": "14.600s",
                "word": "by"
              },
              {
                "endTime": "15.200s",
                "startTime": "14.800s",
                "word": "climbing"
              },
              {
                "endTime": "15.400s",
                "startTime": "15.200s",
                "word": "up"
              },
              {
                "endTime": "16s",
                "startTime": "15.400s",
                "word": "in"
              },
              {
                "endTime": "16.100s",
                "startTime": "16s",
                "word": "some"
              },
              {
                "endTime": "16.400s",
                "startTime": "16.100s",
                "word": "cookie"
              },
              {
                "endTime": "16.800s",
                "startTime": "16.400s",
                "word": "Cookie"
              },
              {
                "endTime": "16.900s",
                "startTime": "16.800s",
                "word": "by"
              },
              {
                "endTime": "17s",
                "startTime": "16.900s",
                "word": "the"
              },
              {
                "endTime": "17.100s",
                "startTime": "17s",
                "word": "cookie"
              },
              {
                "endTime": "17.600s",
                "startTime": "17.100s",
                "word": "jar"
              }
            ]
          }
        ]
      },
      {
        "alternatives": [
          {
            "confidence": 0.393893,
            "transcript": " Costa Rica the song",
            "words": [
              {
                "endTime": "20.900s",
                "startTime": "19.900s",
                "word": "Costa"
              },
              {
                "endTime": "21.100s",
                "startTime": "20.900s",
                "word": "Rica"
              },
              {
                "endTime": "21.300s",
                "startTime": "21.100s",
                "word": "the"
              },
              {
                "endTime": "21.700s",
                "startTime": "21.300s",
                "word": "song"
              }
            ]
          }
        ]
      },
      {
        "alternatives": [
          {
            "confidence": 0.4435768,
            "transcript": " the bus down on the left",
            "words": [
              {
                "endTime": "24.400s",
                "startTime": "23.900s",
                "word": "the"
              },
              {
                "endTime": "24.700s",
                "startTime": "24.400s",
                "word": "bus"
              },
              {
                "endTime": "24.900s",
                "startTime": "24.700s",
                "word": "down"
              },
              {
                "endTime": "25.100s",
                "startTime": "24.900s",
                "word": "on"
              },
              {
                "endTime": "25.200s",
                "startTime": "25.100s",
                "word": "the"
              },
              {
                "endTime": "25.300s",
                "startTime": "25.200s",
                "word": "left"
              }
            ]
          }
        ]
      },
      {
        "alternatives": [
          {
            "confidence": 0.8537518,
            "transcript": " big sister watching ridiculous",
            "words": [
              {
                "endTime": "30.500s",
                "startTime": "29.800s",
                "word": "big"
              },
              {
                "endTime": "31s",
                "startTime": "30.500s",
                "word": "sister"
              },
              {
                "endTime": "31.400s",
                "startTime": "31s",
                "word": "watching"
              },
              {
                "endTime": "32.100s",
                "startTime": "31.400s",
                "word": "ridiculous"
              }
            ]
          }
        ]
      },
      {
        "alternatives": [
          {
            "confidence": 0.7908981,
            "transcript": " beats just washing the dishes and she got the dishes on the sitting on the sink",
            "words": [
              {
                "endTime": "55.600s",
                "startTime": "55s",
                "word": "beats"
              },
              {
                "endTime": "55.700s",
                "startTime": "55.600s",
                "word": "just"
              },
              {
                "endTime": "56.100s",
                "startTime": "55.700s",
                "word": "washing"
              },
              {
                "endTime": "56.200s",
                "startTime": "56.100s",
                "word": "the"
              },
              {
                "endTime": "56.500s",
                "startTime": "56.200s",
                "word": "dishes"
              },
              {
                "endTime": "56.600s",
                "startTime": "56.500s",
                "word": "and"
              },
              {
                "endTime": "57.700s",
                "startTime": "56.600s",
                "word": "she"
              },
              {
                "endTime": "57.900s",
                "startTime": "57.700s",
                "word": "got"
              },
              {
                "endTime": "58.100s",
                "startTime": "57.900s",
                "word": "the"
              },
              {
                "endTime": "58.500s",
                "startTime": "58.100s",
                "word": "dishes"
              },
              {
                "endTime": "58.700s",
                "startTime": "58.500s",
                "word": "on"
              },
              {
                "endTime": "58.800s",
                "startTime": "58.700s",
                "word": "the"
              },
              {
                "endTime": "59.600s",
                "startTime": "58.800s",
                "word": "sitting"
              },
              {
                "endTime": "59.600s",
                "startTime": "59.600s",
                "word": "on"
              },
              {
                "endTime": "59.800s",
                "startTime": "59.600s",
                "word": "the"
              },
              {
                "endTime": "60.100s",
                "startTime": "59.800s",
                "word": "sink"
              }
            ]
          }
        ]
      },
      {
        "alternatives": [
          {
            "confidence": 0.8614573,
            "transcript": " running water",
            "words": [
              {
                "endTime": "68.600s",
                "startTime": "67.400s",
                "word": "running"
              },
              {
                "endTime": "68.900s",
                "startTime": "68.600s",
                "word": "water"
              }
            ]
          }
        ]
      },
      {
        "alternatives": [
          {
            "confidence": 0.6943793,
            "transcript": " pictures of American Girl dolls going on over there",
            "words": [
              {
                "endTime": "79.600s",
                "startTime": "78.600s",
                "word": "pictures"
              },
              {
                "endTime": "79.700s",
                "startTime": "79.600s",
                "word": "of"
              },
              {
                "endTime": "80.200s",
                "startTime": "79.700s",
                "word": "American"
              },
              {
                "endTime": "80.300s",
                "startTime": "80.200s",
                "word": "Girl"
              },
              {
                "endTime": "80.600s",
                "startTime": "80.300s",
                "word": "dolls"
              },
              {
                "endTime": "81s",
                "startTime": "80.600s",
                "word": "going"
              },
              {
                "endTime": "81.100s",
                "startTime": "81s",
                "word": "on"
              },
              {
                "endTime": "81.500s",
                "startTime": "81.100s",
                "word": "over"
              },
              {
                "endTime": "81.600s",
                "startTime": "81.500s",
                "word": "there"
              }
            ]
          }
        ]
      },
      {
        "alternatives": [
          {
            "confidence": 0.8906631,
            "transcript": " and I have little sisters Johnny Johnny",
            "words": [
              {
                "endTime": "86.700s",
                "startTime": "86.300s",
                "word": "and"
              },
              {
                "endTime": "86.800s",
                "startTime": "86.700s",
                "word": "I"
              },
              {
                "endTime": "86.900s",
                "startTime": "86.800s",
                "word": "have"
              },
              {
                "endTime": "88.800s",
                "startTime": "86.900s",
                "word": "little"
              },
              {
                "endTime": "89.100s",
                "startTime": "88.800s",
                "word": "sisters"
              },
              {
                "endTime": "91.300s",
                "startTime": "89.100s",
                "word": "Johnny"
              },
              {
                "endTime": "91.900s",
                "startTime": "91.300s",
                "word": "Johnny"
              }
            ]
          }
        ]
      },
      {
        "alternatives": [
          {
            "confidence": 0.5751466,
            "transcript": " little sister original Richie Rich in El Paso",
            "words": [
              {
                "endTime": "99.100s",
                "startTime": "98.500s",
                "word": "little"
              },
              {
                "endTime": "99.400s",
                "startTime": "99.100s",
                "word": "sister"
              },
              {
                "endTime": "99.500s",
                "startTime": "99.400s",
                "word": "original"
              },
              {
                "endTime": "100s",
                "startTime": "99.500s",
                "word": "Richie"
              },
              {
                "endTime": "100.200s",
                "startTime": "100s",
                "word": "Rich"
              },
              {
                "endTime": "100.300s",
                "startTime": "100.200s",
                "word": "in"
              },
              {
                "endTime": "100.500s",
                "startTime": "100.300s",
                "word": "El"
              },
              {
                "endTime": "100.900s",
                "startTime": "100.500s",
                "word": "Paso"
              }
            ]
          }
        ]
      },
      {
        "alternatives": [
          {
            "confidence": 0.82049066,
            "transcript": " and that right there that about to turn up one",
            "words": [
              {
                "endTime": "108.200s",
                "startTime": "107.700s",
                "word": "and"
              },
              {
                "endTime": "108.300s",
                "startTime": "108.200s",
                "word": "that"
              },
              {
                "endTime": "108.500s",
                "startTime": "108.300s",
                "word": "right"
              },
              {
                "endTime": "108.600s",
                "startTime": "108.500s",
                "word": "there"
              },
              {
                "endTime": "108.800s",
                "startTime": "108.600s",
                "word": "that"
              },
              {
                "endTime": "109.100s",
                "startTime": "108.800s",
                "word": "about"
              },
              {
                "endTime": "109.200s",
                "startTime": "109.100s",
                "word": "to"
              },
              {
                "endTime": "109.400s",
                "startTime": "109.200s",
                "word": "turn"
              },
              {
                "endTime": "109.500s",
                "startTime": "109.400s",
                "word": "up"
              },
              {
                "endTime": "109.700s",
                "startTime": "109.500s",
                "word": "one"
              }
            ]
          }
        ]
      },
      {
        "alternatives": [
          {
            "confidence": 0.9357051,
            "transcript": " anything else going on over here",
            "words": [
              {
                "endTime": "123.500s",
                "startTime": "122.400s",
                "word": "anything"
              },
              {
                "endTime": "123.600s",
                "startTime": "123.500s",
                "word": "else"
              },
              {
                "endTime": "123.900s",
                "startTime": "123.600s",
                "word": "going"
              },
              {
                "endTime": "124s",
                "startTime": "123.900s",
                "word": "on"
              },
              {
                "endTime": "124.400s",
                "startTime": "124s",
                "word": "over"
              },
              {
                "endTime": "124.400s",
                "startTime": "124.400s",
                "word": "here"
              }
            ]
          }
        ]
      },
      {
        "alternatives": [
          {
            "confidence": 0.7539918,
            "transcript": " the Cubs when she's sitting on this on the sink",
            "words": [
              {
                "endTime": "130.900s",
                "startTime": "129.600s",
                "word": "the"
              },
              {
                "endTime": "131.400s",
                "startTime": "130.900s",
                "word": "Cubs"
              },
              {
                "endTime": "131.600s",
                "startTime": "131.400s",
                "word": "when"
              },
              {
                "endTime": "131.900s",
                "startTime": "131.600s",
                "word": "she's"
              },
              {
                "endTime": "135.100s",
                "startTime": "131.900s",
                "word": "sitting"
              },
              {
                "endTime": "135.200s",
                "startTime": "135.100s",
                "word": "on"
              },
              {
                "endTime": "135.400s",
                "startTime": "135.200s",
                "word": "this"
              },
              {
                "endTime": "135.700s",
                "startTime": "135.400s",
                "word": "on"
              },
              {
                "endTime": "135.800s",
                "startTime": "135.700s",
                "word": "the"
              },
              {
                "endTime": "136.100s",
                "startTime": "135.800s",
                "word": "sink"
              }
            ]
          }
        ]
      },
      {
        "alternatives": [
          {
            "confidence": 0.7018809,
            "transcript": " and I got a crazy cool",
            "words": [
              {
                "endTime": "141.700s",
                "startTime": "141.300s",
                "word": "and"
              },
              {
                "endTime": "141.800s",
                "startTime": "141.700s",
                "word": "I"
              },
              {
                "endTime": "141.900s",
                "startTime": "141.800s",
                "word": "got"
              },
              {
                "endTime": "142s",
                "startTime": "141.900s",
                "word": "a"
              },
              {
                "endTime": "142.300s",
                "startTime": "142s",
                "word": "crazy"
              },
              {
                "endTime": "142.600s",
                "startTime": "142.300s",
                "word": "cool"
              }
            ]
          }
        ]
      },
      {
        "alternatives": [
          {
            "confidence": 0.38914585,
            "transcript": " beaches condition stacked up",
            "words": [
              {
                "endTime": "151.600s",
                "startTime": "149.800s",
                "word": "beaches"
              },
              {
                "endTime": "152.100s",
                "startTime": "151.600s",
                "word": "condition"
              },
              {
                "endTime": "152.400s",
                "startTime": "152.100s",
                "word": "stacked"
              },
              {
                "endTime": "152.600s",
                "startTime": "152.400s",
                "word": "up"
              }
            ]
          }
        ]
      },
      {
        "alternatives": [
          {
            "confidence": 0.53147155,
            "transcript": " my Beyonce",
            "words": [
              {
                "endTime": "154.600s",
                "startTime": "154.100s",
                "word": "my"
              },
              {
                "endTime": "155s",
                "startTime": "154.600s",
                "word": "Beyonce"
              }
            ]
          }
        ]
      },
      {
        "alternatives": [
          {
            "confidence": 0.968838,
            "transcript": " anything else",
            "words": [
              {
                "endTime": "157.800s",
                "startTime": "157.100s",
                "word": "anything"
              },
              {
                "endTime": "158.100s",
                "startTime": "157.800s",
                "word": "else"
              }
            ]
          }
        ]
      }
    ]
  }
}
