{
  "done": true,
  "metadata": {
    "@type": "type.googleapis.com/google.cloud.speech.v1.LongRunningRecognizeMetadata",
    "lastUpdateTime": "2021-03-10T10:05:07.245178Z",
    "progressPercent": 100,
    "startTime": "2021-03-10T10:04:53.620209Z",
    "uri": "gs://adresso/ADReSSo21-diagnosis-train/diagnosis/train/audio/ad/adrso228.wav"
  },
  "name": "3887918845672791391",
  "response": {
    "@type": "type.googleapis.com/google.cloud.speech.v1.LongRunningRecognizeResponse",
    "results": [
      {
        "alternatives": [
          {
            "confidence": 0.79047984,
            "transcript": "tell me the start out anywhere",
            "words": [
              {
                "endTime": "0.600s",
                "startTime": "0.200s",
                "word": "tell"
              },
              {
                "endTime": "0.800s",
                "startTime": "0.600s",
                "word": "me"
              },
              {
                "endTime": "1.600s",
                "startTime": "0.800s",
                "word": "the"
              },
              {
                "endTime": "1.900s",
                "startTime": "1.600s",
                "word": "start"
              },
              {
                "endTime": "2s",
                "startTime": "1.900s",
                "word": "out"
              },
              {
                "endTime": "2.500s",
                "startTime": "2s",
                "word": "anywhere"
              }
            ]
          }
        ]
      },
      {
        "alternatives": [
          {
            "confidence": 0.91775405,
            "transcript": " little girl",
            "words": [
              {
                "endTime": "6.600s",
                "startTime": "6.200s",
                "word": "little"
              },
              {
                "endTime": "7s",
                "startTime": "6.600s",
                "word": "girl"
              }
            ]
          }
        ]
      },
      {
        "alternatives": [
          {
            "confidence": 0.9675881,
            "transcript": " falling stool",
            "words": [
              {
                "endTime": "12.800s",
                "startTime": "12.200s",
                "word": "falling"
              },
              {
                "endTime": "13.300s",
                "startTime": "12.800s",
                "word": "stool"
              }
            ]
          }
        ]
      },
      {
        "alternatives": [
          {
            "confidence": 0.87066334,
            "transcript": " young lad is going to fall from the extolling his hands are touching the cookie jar",
            "words": [
              {
                "endTime": "15.100s",
                "startTime": "14.500s",
                "word": "young"
              },
              {
                "endTime": "15.500s",
                "startTime": "15.100s",
                "word": "lad"
              },
              {
                "endTime": "15.700s",
                "startTime": "15.500s",
                "word": "is"
              },
              {
                "endTime": "15.900s",
                "startTime": "15.700s",
                "word": "going"
              },
              {
                "endTime": "16s",
                "startTime": "15.900s",
                "word": "to"
              },
              {
                "endTime": "16.300s",
                "startTime": "16s",
                "word": "fall"
              },
              {
                "endTime": "16.600s",
                "startTime": "16.300s",
                "word": "from"
              },
              {
                "endTime": "16.700s",
                "startTime": "16.600s",
                "word": "the"
              },
              {
                "endTime": "17.300s",
                "startTime": "16.700s",
                "word": "extolling"
              },
              {
                "endTime": "18.400s",
                "startTime": "17.300s",
                "word": "his"
              },
              {
                "endTime": "18.700s",
                "startTime": "18.400s",
                "word": "hands"
              },
              {
                "endTime": "18.900s",
                "startTime": "18.700s",
                "word": "are"
              },
              {
                "endTime": "19.100s",
                "startTime": "18.900s",
                "word": "touching"
              },
              {
                "endTime": "19.500s",
                "startTime": "19.100s",
                "word": "the"
              },
              {
                "endTime": "20s",
                "startTime": "19.500s",
                "word": "cookie"
              },
              {
                "endTime": "20.300s",
                "startTime": "20s",
                "word": "jar"
              }
            ]
          }
        ]
      },
      {
        "alternatives": [
          {
            "confidence": 0.7855362,
            "transcript": " at least covered",
            "words": [
              {
                "endTime": "23.100s",
                "startTime": "22.700s",
                "word": "at"
              },
              {
                "endTime": "23.300s",
                "startTime": "23.100s",
                "word": "least"
              },
              {
                "endTime": "23.700s",
                "startTime": "23.300s",
                "word": "covered"
              }
            ]
          }
        ]
      },
      {
        "alternatives": [
          {
            "confidence": 0.8516267,
            "transcript": " just a mother",
            "words": [
              {
                "endTime": "26s",
                "startTime": "25.500s",
                "word": "just"
              },
              {
                "endTime": "26.100s",
                "startTime": "26s",
                "word": "a"
              },
              {
                "endTime": "26.400s",
                "startTime": "26.100s",
                "word": "mother"
              }
            ]
          }
        ]
      },
      {
        "alternatives": [
          {
            "confidence": 0.9229642,
            "transcript": " and then kitchen wiping dishes",
            "words": [
              {
                "endTime": "28s",
                "startTime": "27.600s",
                "word": "and"
              },
              {
                "endTime": "28.300s",
                "startTime": "28s",
                "word": "then"
              },
              {
                "endTime": "28.800s",
                "startTime": "28.300s",
                "word": "kitchen"
              },
              {
                "endTime": "30.400s",
                "startTime": "28.800s",
                "word": "wiping"
              },
              {
                "endTime": "30.900s",
                "startTime": "30.400s",
                "word": "dishes"
              }
            ]
          }
        ]
      },
      {
        "alternatives": [
          {
            "confidence": 0.9531258,
            "transcript": " the water in the sink is overflowing",
            "words": [
              {
                "endTime": "32.600s",
                "startTime": "32.300s",
                "word": "the"
              },
              {
                "endTime": "33s",
                "startTime": "32.600s",
                "word": "water"
              },
              {
                "endTime": "33.100s",
                "startTime": "33s",
                "word": "in"
              },
              {
                "endTime": "33.200s",
                "startTime": "33.100s",
                "word": "the"
              },
              {
                "endTime": "33.500s",
                "startTime": "33.200s",
                "word": "sink"
              },
              {
                "endTime": "33.700s",
                "startTime": "33.500s",
                "word": "is"
              },
              {
                "endTime": "33.700s",
                "startTime": "33.700s",
                "word": "overflowing"
              }
            ]
          }
        ]
      },
      {
        "alternatives": [
          {
            "confidence": 0.662024,
            "transcript": " the cups and dishes on the fan",
            "words": [
              {
                "endTime": "36.500s",
                "startTime": "36.100s",
                "word": "the"
              },
              {
                "endTime": "37s",
                "startTime": "36.500s",
                "word": "cups"
              },
              {
                "endTime": "37.500s",
                "startTime": "37s",
                "word": "and"
              },
              {
                "endTime": "37.700s",
                "startTime": "37.500s",
                "word": "dishes"
              },
              {
                "endTime": "38.200s",
                "startTime": "37.700s",
                "word": "on"
              },
              {
                "endTime": "38.300s",
                "startTime": "38.200s",
                "word": "the"
              },
              {
                "endTime": "39.100s",
                "startTime": "38.300s",
                "word": "fan"
              }
            ]
          }
        ]
      },
      {
        "alternatives": [
          {
            "confidence": 0.8652837,
            "transcript": " ADM sites are the window or green grass bushes window from the house with drapes",
            "words": [
              {
                "endTime": "44s",
                "startTime": "43.100s",
                "word": "ADM"
              },
              {
                "endTime": "44.900s",
                "startTime": "44s",
                "word": "sites"
              },
              {
                "endTime": "45s",
                "startTime": "44.900s",
                "word": "are"
              },
              {
                "endTime": "45.100s",
                "startTime": "45s",
                "word": "the"
              },
              {
                "endTime": "45.600s",
                "startTime": "45.100s",
                "word": "window"
              },
              {
                "endTime": "45.800s",
                "startTime": "45.600s",
                "word": "or"
              },
              {
                "endTime": "46.100s",
                "startTime": "45.800s",
                "word": "green"
              },
              {
                "endTime": "46.600s",
                "startTime": "46.100s",
                "word": "grass"
              },
              {
                "endTime": "48s",
                "startTime": "46.600s",
                "word": "bushes"
              },
              {
                "endTime": "49.500s",
                "startTime": "48s",
                "word": "window"
              },
              {
                "endTime": "49.800s",
                "startTime": "49.500s",
                "word": "from"
              },
              {
                "endTime": "49.800s",
                "startTime": "49.800s",
                "word": "the"
              },
              {
                "endTime": "50.200s",
                "startTime": "49.800s",
                "word": "house"
              },
              {
                "endTime": "50.400s",
                "startTime": "50.200s",
                "word": "with"
              },
              {
                "endTime": "50.900s",
                "startTime": "50.400s",
                "word": "drapes"
              }
            ]
          }
        ]
      },
      {
        "alternatives": [
          {
            "confidence": 0.9301324,
            "transcript": " the shows the roof of the house and the tree and shapes",
            "words": [
              {
                "endTime": "55s",
                "startTime": "54.700s",
                "word": "the"
              },
              {
                "endTime": "55.400s",
                "startTime": "55s",
                "word": "shows"
              },
              {
                "endTime": "55.500s",
                "startTime": "55.400s",
                "word": "the"
              },
              {
                "endTime": "56.400s",
                "startTime": "55.500s",
                "word": "roof"
              },
              {
                "endTime": "56.600s",
                "startTime": "56.400s",
                "word": "of"
              },
              {
                "endTime": "56.700s",
                "startTime": "56.600s",
                "word": "the"
              },
              {
                "endTime": "57.100s",
                "startTime": "56.700s",
                "word": "house"
              },
              {
                "endTime": "58.200s",
                "startTime": "57.100s",
                "word": "and"
              },
              {
                "endTime": "58.400s",
                "startTime": "58.200s",
                "word": "the"
              },
              {
                "endTime": "58.700s",
                "startTime": "58.400s",
                "word": "tree"
              },
              {
                "endTime": "59.700s",
                "startTime": "58.700s",
                "word": "and"
              },
              {
                "endTime": "60.100s",
                "startTime": "59.700s",
                "word": "shapes"
              }
            ]
          }
        ]
      }
    ]
  }
}
