{
  "done": true,
  "metadata": {
    "@type": "type.googleapis.com/google.cloud.speech.v1.LongRunningRecognizeMetadata",
    "lastUpdateTime": "2021-03-10T10:04:00.630026Z",
    "progressPercent": 100,
    "startTime": "2021-03-10T10:03:20.242476Z",
    "uri": "gs://adresso/ADReSSo21-diagnosis-train/diagnosis/train/audio/ad/adrso045.wav"
  },
  "name": "6664536023121934436",
  "response": {
    "@type": "type.googleapis.com/google.cloud.speech.v1.LongRunningRecognizeResponse",
    "results": [
      {
        "alternatives": [
          {
            "confidence": 0.84927845,
            "transcript": "picture only everything that you see going on in that picture what's happening",
            "words": [
              {
                "endTime": "1.200s",
                "startTime": "0.200s",
                "word": "picture"
              },
              {
                "endTime": "2.500s",
                "startTime": "1.200s",
                "word": "only"
              },
              {
                "endTime": "3.200s",
                "startTime": "2.500s",
                "word": "everything"
              },
              {
                "endTime": "3.300s",
                "startTime": "3.200s",
                "word": "that"
              },
              {
                "endTime": "3.400s",
                "startTime": "3.300s",
                "word": "you"
              },
              {
                "endTime": "3.700s",
                "startTime": "3.400s",
                "word": "see"
              },
              {
                "endTime": "4s",
                "startTime": "3.700s",
                "word": "going"
              },
              {
                "endTime": "4.300s",
                "startTime": "4s",
                "word": "on"
              },
              {
                "endTime": "4.400s",
                "startTime": "4.300s",
                "word": "in"
              },
              {
                "endTime": "4.600s",
                "startTime": "4.400s",
                "word": "that"
              },
              {
                "endTime": "5s",
                "startTime": "4.600s",
                "word": "picture"
              },
              {
                "endTime": "5.900s",
                "startTime": "5s",
                "word": "what's"
              },
              {
                "endTime": "6.300s",
                "startTime": "5.900s",
                "word": "happening"
              }
            ]
          }
        ]
      },
      {
        "alternatives": [
          {
            "confidence": 0.9551784,
            "transcript": " the water",
            "words": [
              {
                "endTime": "11.900s",
                "startTime": "11.400s",
                "word": "the"
              },
              {
                "endTime": "12.300s",
                "startTime": "11.900s",
                "word": "water"
              }
            ]
          }
        ]
      },
      {
        "alternatives": [
          {
            "confidence": 0.97329617,
            "transcript": " well let's see",
            "words": [
              {
                "endTime": "16s",
                "startTime": "15.400s",
                "word": "well"
              },
              {
                "endTime": "16.500s",
                "startTime": "16s",
                "word": "let's"
              },
              {
                "endTime": "16.700s",
                "startTime": "16.500s",
                "word": "see"
              }
            ]
          }
        ]
      },
      {
        "alternatives": [
          {
            "confidence": 0.9447804,
            "transcript": " there's something has to be where the water goes down over and probably something that or they don't have it open or I don't know what when the water goes down what what do you call it",
            "words": [
              {
                "endTime": "18.500s",
                "startTime": "18s",
                "word": "there's"
              },
              {
                "endTime": "18.900s",
                "startTime": "18.500s",
                "word": "something"
              },
              {
                "endTime": "19.200s",
                "startTime": "18.900s",
                "word": "has"
              },
              {
                "endTime": "19.400s",
                "startTime": "19.200s",
                "word": "to"
              },
              {
                "endTime": "19.400s",
                "startTime": "19.400s",
                "word": "be"
              },
              {
                "endTime": "19.900s",
                "startTime": "19.400s",
                "word": "where"
              },
              {
                "endTime": "20s",
                "startTime": "19.900s",
                "word": "the"
              },
              {
                "endTime": "20.300s",
                "startTime": "20s",
                "word": "water"
              },
              {
                "endTime": "20.400s",
                "startTime": "20.300s",
                "word": "goes"
              },
              {
                "endTime": "20.800s",
                "startTime": "20.400s",
                "word": "down"
              },
              {
                "endTime": "21.900s",
                "startTime": "20.800s",
                "word": "over"
              },
              {
                "endTime": "22.500s",
                "startTime": "21.900s",
                "word": "and"
              },
              {
                "endTime": "22.900s",
                "startTime": "22.500s",
                "word": "probably"
              },
              {
                "endTime": "23.600s",
                "startTime": "22.900s",
                "word": "something"
              },
              {
                "endTime": "23.800s",
                "startTime": "23.600s",
                "word": "that"
              },
              {
                "endTime": "26s",
                "startTime": "23.800s",
                "word": "or"
              },
              {
                "endTime": "26.100s",
                "startTime": "26s",
                "word": "they"
              },
              {
                "endTime": "26.300s",
                "startTime": "26.100s",
                "word": "don't"
              },
              {
                "endTime": "26.600s",
                "startTime": "26.300s",
                "word": "have"
              },
              {
                "endTime": "26.700s",
                "startTime": "26.600s",
                "word": "it"
              },
              {
                "endTime": "27.200s",
                "startTime": "26.700s",
                "word": "open"
              },
              {
                "endTime": "27.500s",
                "startTime": "27.200s",
                "word": "or"
              },
              {
                "endTime": "29.200s",
                "startTime": "27.500s",
                "word": "I"
              },
              {
                "endTime": "29.400s",
                "startTime": "29.200s",
                "word": "don't"
              },
              {
                "endTime": "29.500s",
                "startTime": "29.400s",
                "word": "know"
              },
              {
                "endTime": "29.800s",
                "startTime": "29.500s",
                "word": "what"
              },
              {
                "endTime": "30.900s",
                "startTime": "29.800s",
                "word": "when"
              },
              {
                "endTime": "31s",
                "startTime": "30.900s",
                "word": "the"
              },
              {
                "endTime": "31.300s",
                "startTime": "31s",
                "word": "water"
              },
              {
                "endTime": "31.400s",
                "startTime": "31.300s",
                "word": "goes"
              },
              {
                "endTime": "31.600s",
                "startTime": "31.400s",
                "word": "down"
              },
              {
                "endTime": "32.100s",
                "startTime": "31.600s",
                "word": "what"
              },
              {
                "endTime": "32.300s",
                "startTime": "32.100s",
                "word": "what"
              },
              {
                "endTime": "32.400s",
                "startTime": "32.300s",
                "word": "do"
              },
              {
                "endTime": "32.500s",
                "startTime": "32.400s",
                "word": "you"
              },
              {
                "endTime": "32.800s",
                "startTime": "32.500s",
                "word": "call"
              },
              {
                "endTime": "33s",
                "startTime": "32.800s",
                "word": "it"
              }
            ]
          }
        ]
      },
      {
        "alternatives": [
          {
            "confidence": 0.80562776,
            "transcript": " this year right here what do you call a what is that what is that I don't know that's what I'm saying",
            "words": [
              {
                "endTime": "34.700s",
                "startTime": "34.200s",
                "word": "this"
              },
              {
                "endTime": "34.900s",
                "startTime": "34.700s",
                "word": "year"
              },
              {
                "endTime": "35.800s",
                "startTime": "34.900s",
                "word": "right"
              },
              {
                "endTime": "36.200s",
                "startTime": "35.800s",
                "word": "here"
              },
              {
                "endTime": "37.800s",
                "startTime": "36.200s",
                "word": "what"
              },
              {
                "endTime": "38s",
                "startTime": "37.800s",
                "word": "do"
              },
              {
                "endTime": "38.400s",
                "startTime": "38s",
                "word": "you"
              },
              {
                "endTime": "38.800s",
                "startTime": "38.400s",
                "word": "call"
              },
              {
                "endTime": "38.900s",
                "startTime": "38.800s",
                "word": "a"
              },
              {
                "endTime": "39.900s",
                "startTime": "38.900s",
                "word": "what"
              },
              {
                "endTime": "40s",
                "startTime": "39.900s",
                "word": "is"
              },
              {
                "endTime": "40.100s",
                "startTime": "40s",
                "word": "that"
              },
              {
                "endTime": "41.200s",
                "startTime": "40.100s",
                "word": "what"
              },
              {
                "endTime": "41.300s",
                "startTime": "41.200s",
                "word": "is"
              },
              {
                "endTime": "41.400s",
                "startTime": "41.300s",
                "word": "that"
              },
              {
                "endTime": "42.900s",
                "startTime": "41.400s",
                "word": "I"
              },
              {
                "endTime": "43.200s",
                "startTime": "42.900s",
                "word": "don't"
              },
              {
                "endTime": "43.200s",
                "startTime": "43.200s",
                "word": "know"
              },
              {
                "endTime": "43.600s",
                "startTime": "43.200s",
                "word": "that's"
              },
              {
                "endTime": "43.900s",
                "startTime": "43.600s",
                "word": "what"
              },
              {
                "endTime": "44.100s",
                "startTime": "43.900s",
                "word": "I'm"
              },
              {
                "endTime": "44.400s",
                "startTime": "44.100s",
                "word": "saying"
              }
            ]
          }
        ]
      },
      {
        "alternatives": [
          {
            "confidence": 0.959463,
            "transcript": " I was cold out the you type what are you type that you've been not just a pipe pipe or water pipe yeah oh yeah oh okay well then maybe the water pipe is broken or not broke but there must be things in there that the water will not go down I don't know what's happening to the water what's happening to the water what's happening to the water will the water is Google down",
            "words": [
              {
                "endTime": "47.900s",
                "startTime": "47.600s",
                "word": "I"
              },
              {
                "endTime": "49s",
                "startTime": "47.900s",
                "word": "was"
              },
              {
                "endTime": "49.200s",
                "startTime": "49s",
                "word": "cold"
              },
              {
                "endTime": "49.500s",
                "startTime": "49.200s",
                "word": "out"
              },
              {
                "endTime": "49.700s",
                "startTime": "49.500s",
                "word": "the"
              },
              {
                "endTime": "49.900s",
                "startTime": "49.700s",
                "word": "you"
              },
              {
                "endTime": "50.400s",
                "startTime": "49.900s",
                "word": "type"
              },
              {
                "endTime": "51.200s",
                "startTime": "50.400s",
                "word": "what"
              },
              {
                "endTime": "51.900s",
                "startTime": "51.200s",
                "word": "are"
              },
              {
                "endTime": "52.200s",
                "startTime": "51.900s",
                "word": "you"
              },
              {
                "endTime": "52.700s",
                "startTime": "52.200s",
                "word": "type"
              },
              {
                "endTime": "53.500s",
                "startTime": "52.700s",
                "word": "that"
              },
              {
                "endTime": "53.800s",
                "startTime": "53.500s",
                "word": "you've"
              },
              {
                "endTime": "53.900s",
                "startTime": "53.800s",
                "word": "been"
              },
              {
                "endTime": "54.400s",
                "startTime": "53.900s",
                "word": "not"
              },
              {
                "endTime": "54.700s",
                "startTime": "54.400s",
                "word": "just"
              },
              {
                "endTime": "54.800s",
                "startTime": "54.700s",
                "word": "a"
              },
              {
                "endTime": "55.300s",
                "startTime": "54.800s",
                "word": "pipe"
              },
              {
                "endTime": "56.200s",
                "startTime": "55.300s",
                "word": "pipe"
              },
              {
                "endTime": "56.600s",
                "startTime": "56.200s",
                "word": "or"
              },
              {
                "endTime": "57.600s",
                "startTime": "56.600s",
                "word": "water"
              },
              {
                "endTime": "58s",
                "startTime": "57.600s",
                "word": "pipe"
              },
              {
                "endTime": "58.400s",
                "startTime": "58s",
                "word": "yeah"
              },
              {
                "endTime": "58.700s",
                "startTime": "58.400s",
                "word": "oh"
              },
              {
                "endTime": "59s",
                "startTime": "58.700s",
                "word": "yeah"
              },
              {
                "endTime": "59.400s",
                "startTime": "59s",
                "word": "oh"
              },
              {
                "endTime": "59.900s",
                "startTime": "59.400s",
                "word": "okay"
              },
              {
                "endTime": "60.100s",
                "startTime": "59.900s",
                "word": "well"
              },
              {
                "endTime": "60.300s",
                "startTime": "60.100s",
                "word": "then"
              },
              {
                "endTime": "60.600s",
                "startTime": "60.300s",
                "word": "maybe"
              },
              {
                "endTime": "60.800s",
                "startTime": "60.600s",
                "word": "the"
              },
              {
                "endTime": "61.200s",
                "startTime": "60.800s",
                "word": "water"
              },
              {
                "endTime": "61.600s",
                "startTime": "61.200s",
                "word": "pipe"
              },
              {
                "endTime": "62.100s",
                "startTime": "61.600s",
                "word": "is"
              },
              {
                "endTime": "62.900s",
                "startTime": "62.100s",
                "word": "broken"
              },
              {
                "endTime": "64.100s",
                "startTime": "62.900s",
                "word": "or"
              },
              {
                "endTime": "64.300s",
                "startTime": "64.100s",
                "word": "not"
              },
              {
                "endTime": "64.900s",
                "startTime": "64.300s",
                "word": "broke"
              },
              {
                "endTime": "65.200s",
                "startTime": "64.900s",
                "word": "but"
              },
              {
                "endTime": "66.400s",
                "startTime": "65.200s",
                "word": "there"
              },
              {
                "endTime": "66.500s",
                "startTime": "66.400s",
                "word": "must"
              },
              {
                "endTime": "66.700s",
                "startTime": "66.500s",
                "word": "be"
              },
              {
                "endTime": "67s",
                "startTime": "66.700s",
                "word": "things"
              },
              {
                "endTime": "67.500s",
                "startTime": "67s",
                "word": "in"
              },
              {
                "endTime": "67.800s",
                "startTime": "67.500s",
                "word": "there"
              },
              {
                "endTime": "68.300s",
                "startTime": "67.800s",
                "word": "that"
              },
              {
                "endTime": "68.500s",
                "startTime": "68.300s",
                "word": "the"
              },
              {
                "endTime": "68.900s",
                "startTime": "68.500s",
                "word": "water"
              },
              {
                "endTime": "69s",
                "startTime": "68.900s",
                "word": "will"
              },
              {
                "endTime": "69.300s",
                "startTime": "69s",
                "word": "not"
              },
              {
                "endTime": "69.700s",
                "startTime": "69.300s",
                "word": "go"
              },
              {
                "endTime": "70s",
                "startTime": "69.700s",
                "word": "down"
              },
              {
                "endTime": "71.300s",
                "startTime": "70s",
                "word": "I"
              },
              {
                "endTime": "71.500s",
                "startTime": "71.300s",
                "word": "don't"
              },
              {
                "endTime": "71.600s",
                "startTime": "71.500s",
                "word": "know"
              },
              {
                "endTime": "71.900s",
                "startTime": "71.600s",
                "word": "what's"
              },
              {
                "endTime": "72s",
                "startTime": "71.900s",
                "word": "happening"
              },
              {
                "endTime": "72.400s",
                "startTime": "72s",
                "word": "to"
              },
              {
                "endTime": "72.600s",
                "startTime": "72.400s",
                "word": "the"
              },
              {
                "endTime": "72.700s",
                "startTime": "72.600s",
                "word": "water"
              },
              {
                "endTime": "74.800s",
                "startTime": "72.700s",
                "word": "what's"
              },
              {
                "endTime": "75.300s",
                "startTime": "74.800s",
                "word": "happening"
              },
              {
                "endTime": "75.500s",
                "startTime": "75.300s",
                "word": "to"
              },
              {
                "endTime": "75.600s",
                "startTime": "75.500s",
                "word": "the"
              },
              {
                "endTime": "75.700s",
                "startTime": "75.600s",
                "word": "water"
              },
              {
                "endTime": "76.900s",
                "startTime": "75.700s",
                "word": "what's"
              },
              {
                "endTime": "77.300s",
                "startTime": "76.900s",
                "word": "happening"
              },
              {
                "endTime": "77.500s",
                "startTime": "77.300s",
                "word": "to"
              },
              {
                "endTime": "77.600s",
                "startTime": "77.500s",
                "word": "the"
              },
              {
                "endTime": "77.600s",
                "startTime": "77.600s",
                "word": "water"
              },
              {
                "endTime": "78.600s",
                "startTime": "77.600s",
                "word": "will"
              },
              {
                "endTime": "78.800s",
                "startTime": "78.600s",
                "word": "the"
              },
              {
                "endTime": "79.100s",
                "startTime": "78.800s",
                "word": "water"
              },
              {
                "endTime": "79.300s",
                "startTime": "79.100s",
                "word": "is"
              },
              {
                "endTime": "79.500s",
                "startTime": "79.300s",
                "word": "Google"
              },
              {
                "endTime": "79.900s",
                "startTime": "79.500s",
                "word": "down"
              }
            ]
          }
        ]
      },
      {
        "alternatives": [
          {
            "confidence": 0.8782821,
            "transcript": " what would what would you call a board for floor what's happening over here",
            "words": [
              {
                "endTime": "87.100s",
                "startTime": "84.700s",
                "word": "what"
              },
              {
                "endTime": "87.300s",
                "startTime": "87.100s",
                "word": "would"
              },
              {
                "endTime": "88s",
                "startTime": "87.300s",
                "word": "what"
              },
              {
                "endTime": "88.300s",
                "startTime": "88s",
                "word": "would"
              },
              {
                "endTime": "88.500s",
                "startTime": "88.300s",
                "word": "you"
              },
              {
                "endTime": "88.700s",
                "startTime": "88.500s",
                "word": "call"
              },
              {
                "endTime": "89s",
                "startTime": "88.700s",
                "word": "a"
              },
              {
                "endTime": "90.500s",
                "startTime": "89s",
                "word": "board"
              },
              {
                "endTime": "90.800s",
                "startTime": "90.500s",
                "word": "for"
              },
              {
                "endTime": "91.500s",
                "startTime": "90.800s",
                "word": "floor"
              },
              {
                "endTime": "97.400s",
                "startTime": "91.500s",
                "word": "what's"
              },
              {
                "endTime": "97.900s",
                "startTime": "97.400s",
                "word": "happening"
              },
              {
                "endTime": "98s",
                "startTime": "97.900s",
                "word": "over"
              },
              {
                "endTime": "98.200s",
                "startTime": "98s",
                "word": "here"
              }
            ]
          }
        ]
      },
      {
        "alternatives": [
          {
            "confidence": 0.8749509,
            "transcript": " auditioning here is",
            "words": [
              {
                "endTime": "103.800s",
                "startTime": "103s",
                "word": "auditioning"
              },
              {
                "endTime": "104.200s",
                "startTime": "103.800s",
                "word": "here"
              },
              {
                "endTime": "104.500s",
                "startTime": "104.200s",
                "word": "is"
              }
            ]
          }
        ]
      },
      {
        "alternatives": [
          {
            "confidence": 0.5373981,
            "transcript": " turn over",
            "words": [
              {
                "endTime": "106.800s",
                "startTime": "106.300s",
                "word": "turn"
              },
              {
                "endTime": "107.300s",
                "startTime": "106.800s",
                "word": "over"
              }
            ]
          }
        ]
      },
      {
        "alternatives": [
          {
            "confidence": 0.80858904,
            "transcript": " yeah",
            "words": [
              {
                "endTime": "109s",
                "startTime": "108.600s",
                "word": "yeah"
              }
            ]
          }
        ]
      },
      {
        "alternatives": [
          {
            "confidence": 0.9210477,
            "transcript": " can you tell me what's going on there I don't know what's going on well he's probably in Coco",
            "words": [
              {
                "endTime": "113.300s",
                "startTime": "113s",
                "word": "can"
              },
              {
                "endTime": "113.400s",
                "startTime": "113.300s",
                "word": "you"
              },
              {
                "endTime": "113.600s",
                "startTime": "113.400s",
                "word": "tell"
              },
              {
                "endTime": "113.700s",
                "startTime": "113.600s",
                "word": "me"
              },
              {
                "endTime": "114s",
                "startTime": "113.700s",
                "word": "what's"
              },
              {
                "endTime": "114s",
                "startTime": "114s",
                "word": "going"
              },
              {
                "endTime": "114.300s",
                "startTime": "114s",
                "word": "on"
              },
              {
                "endTime": "114.700s",
                "startTime": "114.300s",
                "word": "there"
              },
              {
                "endTime": "116.600s",
                "startTime": "114.700s",
                "word": "I"
              },
              {
                "endTime": "116.800s",
                "startTime": "116.600s",
                "word": "don't"
              },
              {
                "endTime": "116.900s",
                "startTime": "116.800s",
                "word": "know"
              },
              {
                "endTime": "117.200s",
                "startTime": "116.900s",
                "word": "what's"
              },
              {
                "endTime": "117.400s",
                "startTime": "117.200s",
                "word": "going"
              },
              {
                "endTime": "117.500s",
                "startTime": "117.400s",
                "word": "on"
              },
              {
                "endTime": "117.900s",
                "startTime": "117.500s",
                "word": "well"
              },
              {
                "endTime": "118.200s",
                "startTime": "117.900s",
                "word": "he's"
              },
              {
                "endTime": "118.500s",
                "startTime": "118.200s",
                "word": "probably"
              },
              {
                "endTime": "118.700s",
                "startTime": "118.500s",
                "word": "in"
              },
              {
                "endTime": "121.300s",
                "startTime": "118.700s",
                "word": "Coco"
              }
            ]
          }
        ]
      },
      {
        "alternatives": [
          {
            "confidence": 0.797635,
            "transcript": " jar",
            "words": [
              {
                "endTime": "123.200s",
                "startTime": "122.500s",
                "word": "jar"
              }
            ]
          }
        ]
      },
      {
        "alternatives": [
          {
            "confidence": 0.7270525,
            "transcript": " what's what's is Coco",
            "words": [
              {
                "endTime": "126.200s",
                "startTime": "125.700s",
                "word": "what's"
              },
              {
                "endTime": "126.600s",
                "startTime": "126.200s",
                "word": "what's"
              },
              {
                "endTime": "126.700s",
                "startTime": "126.600s",
                "word": "is"
              },
              {
                "endTime": "127.200s",
                "startTime": "126.700s",
                "word": "Coco"
              }
            ]
          }
        ]
      },
      {
        "alternatives": [
          {
            "confidence": 0.9173874,
            "transcript": " cookie cookie cookie cookie all okay well he's getting it out",
            "words": [
              {
                "endTime": "141.100s",
                "startTime": "140.500s",
                "word": "cookie"
              },
              {
                "endTime": "141.600s",
                "startTime": "141.100s",
                "word": "cookie"
              },
              {
                "endTime": "141.700s",
                "startTime": "141.600s",
                "word": "cookie"
              },
              {
                "endTime": "142.400s",
                "startTime": "141.700s",
                "word": "cookie"
              },
              {
                "endTime": "144s",
                "startTime": "142.400s",
                "word": "all"
              },
              {
                "endTime": "145.500s",
                "startTime": "144s",
                "word": "okay"
              },
              {
                "endTime": "149.200s",
                "startTime": "145.500s",
                "word": "well"
              },
              {
                "endTime": "149.600s",
                "startTime": "149.200s",
                "word": "he's"
              },
              {
                "endTime": "151s",
                "startTime": "149.600s",
                "word": "getting"
              },
              {
                "endTime": "151.200s",
                "startTime": "151s",
                "word": "it"
              },
              {
                "endTime": "152s",
                "startTime": "151.200s",
                "word": "out"
              }
            ]
          }
        ]
      },
      {
        "alternatives": [
          {
            "confidence": 0.9853385,
            "transcript": " and he's going to give it to the girl",
            "words": [
              {
                "endTime": "153.900s",
                "startTime": "153.400s",
                "word": "and"
              },
              {
                "endTime": "154.100s",
                "startTime": "153.900s",
                "word": "he's"
              },
              {
                "endTime": "154.300s",
                "startTime": "154.100s",
                "word": "going"
              },
              {
                "endTime": "154.400s",
                "startTime": "154.300s",
                "word": "to"
              },
              {
                "endTime": "154.500s",
                "startTime": "154.400s",
                "word": "give"
              },
              {
                "endTime": "154.700s",
                "startTime": "154.500s",
                "word": "it"
              },
              {
                "endTime": "154.800s",
                "startTime": "154.700s",
                "word": "to"
              },
              {
                "endTime": "155s",
                "startTime": "154.800s",
                "word": "the"
              },
              {
                "endTime": "155.300s",
                "startTime": "155s",
                "word": "girl"
              }
            ]
          }
        ]
      },
      {
        "alternatives": [
          {
            "confidence": 0.86185193,
            "transcript": " going on in the picture that",
            "words": [
              {
                "endTime": "159.300s",
                "startTime": "159s",
                "word": "going"
              },
              {
                "endTime": "159.400s",
                "startTime": "159.300s",
                "word": "on"
              },
              {
                "endTime": "159.500s",
                "startTime": "159.400s",
                "word": "in"
              },
              {
                "endTime": "159.600s",
                "startTime": "159.500s",
                "word": "the"
              },
              {
                "endTime": "159.900s",
                "startTime": "159.600s",
                "word": "picture"
              },
              {
                "endTime": "160s",
                "startTime": "159.900s",
                "word": "that"
              }
            ]
          }
        ]
      },
      {
        "alternatives": [
          {
            "confidence": 0.9902414,
            "transcript": " going on in the picture",
            "words": [
              {
                "endTime": "162.700s",
                "startTime": "162.200s",
                "word": "going"
              },
              {
                "endTime": "162.900s",
                "startTime": "162.700s",
                "word": "on"
              },
              {
                "endTime": "163s",
                "startTime": "162.900s",
                "word": "in"
              },
              {
                "endTime": "163.100s",
                "startTime": "163s",
                "word": "the"
              },
              {
                "endTime": "163.500s",
                "startTime": "163.100s",
                "word": "picture"
              }
            ]
          }
        ]
      },
      {
        "alternatives": [
          {
            "confidence": 0.9140596,
            "transcript": " well the boy is giving him the girl the Coco Coco",
            "words": [
              {
                "endTime": "167.700s",
                "startTime": "167.100s",
                "word": "well"
              },
              {
                "endTime": "167.900s",
                "startTime": "167.700s",
                "word": "the"
              },
              {
                "endTime": "168.100s",
                "startTime": "167.900s",
                "word": "boy"
              },
              {
                "endTime": "169.400s",
                "startTime": "168.100s",
                "word": "is"
              },
              {
                "endTime": "169.700s",
                "startTime": "169.400s",
                "word": "giving"
              },
              {
                "endTime": "170.200s",
                "startTime": "169.700s",
                "word": "him"
              },
              {
                "endTime": "170.600s",
                "startTime": "170.200s",
                "word": "the"
              },
              {
                "endTime": "171.100s",
                "startTime": "170.600s",
                "word": "girl"
              },
              {
                "endTime": "172.200s",
                "startTime": "171.100s",
                "word": "the"
              },
              {
                "endTime": "173s",
                "startTime": "172.200s",
                "word": "Coco"
              },
              {
                "endTime": "173.100s",
                "startTime": "173s",
                "word": "Coco"
              }
            ]
          }
        ]
      },
      {
        "alternatives": [
          {
            "confidence": 0.9421488,
            "transcript": " this probably is broke so the water will not go down in and it's coming up and going in here",
            "words": [
              {
                "endTime": "177.500s",
                "startTime": "177s",
                "word": "this"
              },
              {
                "endTime": "178.100s",
                "startTime": "177.500s",
                "word": "probably"
              },
              {
                "endTime": "178.600s",
                "startTime": "178.100s",
                "word": "is"
              },
              {
                "endTime": "179.400s",
                "startTime": "178.600s",
                "word": "broke"
              },
              {
                "endTime": "180.300s",
                "startTime": "179.400s",
                "word": "so"
              },
              {
                "endTime": "180.500s",
                "startTime": "180.300s",
                "word": "the"
              },
              {
                "endTime": "180.800s",
                "startTime": "180.500s",
                "word": "water"
              },
              {
                "endTime": "181.100s",
                "startTime": "180.800s",
                "word": "will"
              },
              {
                "endTime": "181.200s",
                "startTime": "181.100s",
                "word": "not"
              },
              {
                "endTime": "181.500s",
                "startTime": "181.200s",
                "word": "go"
              },
              {
                "endTime": "181.800s",
                "startTime": "181.500s",
                "word": "down"
              },
              {
                "endTime": "182s",
                "startTime": "181.800s",
                "word": "in"
              },
              {
                "endTime": "182.400s",
                "startTime": "182s",
                "word": "and"
              },
              {
                "endTime": "182.600s",
                "startTime": "182.400s",
                "word": "it's"
              },
              {
                "endTime": "182.900s",
                "startTime": "182.600s",
                "word": "coming"
              },
              {
                "endTime": "183s",
                "startTime": "182.900s",
                "word": "up"
              },
              {
                "endTime": "183.800s",
                "startTime": "183s",
                "word": "and"
              },
              {
                "endTime": "184s",
                "startTime": "183.800s",
                "word": "going"
              },
              {
                "endTime": "184.200s",
                "startTime": "184s",
                "word": "in"
              },
              {
                "endTime": "184.400s",
                "startTime": "184.200s",
                "word": "here"
              }
            ]
          }
        ]
      },
      {
        "alternatives": [
          {
            "confidence": 0.89460945,
            "transcript": " it looks like she's what she was going to wash",
            "words": [
              {
                "endTime": "188.700s",
                "startTime": "188.300s",
                "word": "it"
              },
              {
                "endTime": "189s",
                "startTime": "188.700s",
                "word": "looks"
              },
              {
                "endTime": "189.200s",
                "startTime": "189s",
                "word": "like"
              },
              {
                "endTime": "189.600s",
                "startTime": "189.200s",
                "word": "she's"
              },
              {
                "endTime": "190s",
                "startTime": "189.600s",
                "word": "what"
              },
              {
                "endTime": "190.600s",
                "startTime": "190s",
                "word": "she"
              },
              {
                "endTime": "191s",
                "startTime": "190.600s",
                "word": "was"
              },
              {
                "endTime": "191.200s",
                "startTime": "191s",
                "word": "going"
              },
              {
                "endTime": "191.300s",
                "startTime": "191.200s",
                "word": "to"
              },
              {
                "endTime": "191.500s",
                "startTime": "191.300s",
                "word": "wash"
              }
            ]
          }
        ]
      },
      {
        "alternatives": [
          {
            "confidence": 0.8822664,
            "transcript": " what should what they eat with what what do you call it what it what do you call this",
            "words": [
              {
                "endTime": "195s",
                "startTime": "194.600s",
                "word": "what"
              },
              {
                "endTime": "195.300s",
                "startTime": "195s",
                "word": "should"
              },
              {
                "endTime": "195.500s",
                "startTime": "195.300s",
                "word": "what"
              },
              {
                "endTime": "195.600s",
                "startTime": "195.500s",
                "word": "they"
              },
              {
                "endTime": "196s",
                "startTime": "195.600s",
                "word": "eat"
              },
              {
                "endTime": "196.200s",
                "startTime": "196s",
                "word": "with"
              },
              {
                "endTime": "197.400s",
                "startTime": "196.200s",
                "word": "what"
              },
              {
                "endTime": "197.500s",
                "startTime": "197.400s",
                "word": "what"
              },
              {
                "endTime": "197.600s",
                "startTime": "197.500s",
                "word": "do"
              },
              {
                "endTime": "197.600s",
                "startTime": "197.600s",
                "word": "you"
              },
              {
                "endTime": "197.900s",
                "startTime": "197.600s",
                "word": "call"
              },
              {
                "endTime": "198s",
                "startTime": "197.900s",
                "word": "it"
              },
              {
                "endTime": "198.400s",
                "startTime": "198s",
                "word": "what"
              },
              {
                "endTime": "198.400s",
                "startTime": "198.400s",
                "word": "it"
              },
              {
                "endTime": "198.600s",
                "startTime": "198.400s",
                "word": "what"
              },
              {
                "endTime": "198.700s",
                "startTime": "198.600s",
                "word": "do"
              },
              {
                "endTime": "198.700s",
                "startTime": "198.700s",
                "word": "you"
              },
              {
                "endTime": "199.100s",
                "startTime": "198.700s",
                "word": "call"
              },
              {
                "endTime": "199.200s",
                "startTime": "199.100s",
                "word": "this"
              }
            ]
          }
        ]
      },
      {
        "alternatives": [
          {
            "confidence": 0.7652092,
            "transcript": " a plate",
            "words": [
              {
                "endTime": "201s",
                "startTime": "200.700s",
                "word": "a"
              },
              {
                "endTime": "201.500s",
                "startTime": "201s",
                "word": "plate"
              }
            ]
          }
        ]
      },
      {
        "alternatives": [
          {
            "confidence": 0.8680996,
            "transcript": " vicious break a plate or are ya ya ya ya what you mean is that is that what you call me maybe",
            "words": [
              {
                "endTime": "203.600s",
                "startTime": "202.800s",
                "word": "vicious"
              },
              {
                "endTime": "204.700s",
                "startTime": "203.600s",
                "word": "break"
              },
              {
                "endTime": "204.800s",
                "startTime": "204.700s",
                "word": "a"
              },
              {
                "endTime": "205s",
                "startTime": "204.800s",
                "word": "plate"
              },
              {
                "endTime": "206.200s",
                "startTime": "205s",
                "word": "or"
              },
              {
                "endTime": "206.400s",
                "startTime": "206.200s",
                "word": "are"
              },
              {
                "endTime": "206.700s",
                "startTime": "206.400s",
                "word": "ya"
              },
              {
                "endTime": "206.700s",
                "startTime": "206.700s",
                "word": "ya"
              },
              {
                "endTime": "206.900s",
                "startTime": "206.700s",
                "word": "ya"
              },
              {
                "endTime": "206.900s",
                "startTime": "206.900s",
                "word": "ya"
              },
              {
                "endTime": "207.900s",
                "startTime": "206.900s",
                "word": "what"
              },
              {
                "endTime": "208s",
                "startTime": "207.900s",
                "word": "you"
              },
              {
                "endTime": "208.300s",
                "startTime": "208s",
                "word": "mean"
              },
              {
                "endTime": "209.100s",
                "startTime": "208.300s",
                "word": "is"
              },
              {
                "endTime": "209.300s",
                "startTime": "209.100s",
                "word": "that"
              },
              {
                "endTime": "209.500s",
                "startTime": "209.300s",
                "word": "is"
              },
              {
                "endTime": "209.500s",
                "startTime": "209.500s",
                "word": "that"
              },
              {
                "endTime": "209.800s",
                "startTime": "209.500s",
                "word": "what"
              },
              {
                "endTime": "210s",
                "startTime": "209.800s",
                "word": "you"
              },
              {
                "endTime": "210s",
                "startTime": "210s",
                "word": "call"
              },
              {
                "endTime": "210.300s",
                "startTime": "210s",
                "word": "me"
              },
              {
                "endTime": "215.100s",
                "startTime": "210.300s",
                "word": "maybe"
              }
            ]
          }
        ]
      }
    ]
  }
}
