{
  "done": true,
  "metadata": {
    "@type": "type.googleapis.com/google.cloud.speech.v1.LongRunningRecognizeMetadata",
    "lastUpdateTime": "2021-03-10T10:04:35.859271Z",
    "progressPercent": 100,
    "startTime": "2021-03-10T10:04:21.306409Z",
    "uri": "gs://adresso/ADReSSo21-diagnosis-train/diagnosis/train/audio/ad/adrso144.wav"
  },
  "name": "8540126014908584682",
  "response": {
    "@type": "type.googleapis.com/google.cloud.speech.v1.LongRunningRecognizeResponse",
    "results": [
      {
        "alternatives": [
          {
            "confidence": 0.88093054,
            "transcript": "can you tell me now",
            "words": [
              {
                "endTime": "1.100s",
                "startTime": "0.200s",
                "word": "can"
              },
              {
                "endTime": "1.200s",
                "startTime": "1.100s",
                "word": "you"
              },
              {
                "endTime": "3.700s",
                "startTime": "1.200s",
                "word": "tell"
              },
              {
                "endTime": "3.800s",
                "startTime": "3.700s",
                "word": "me"
              },
              {
                "endTime": "3.900s",
                "startTime": "3.800s",
                "word": "now"
              }
            ]
          }
        ]
      },
      {
        "alternatives": [
          {
            "confidence": 0.9644156,
            "transcript": " this one has in the cookie jar and this is she tried to climb the",
            "words": [
              {
                "endTime": "6.900s",
                "startTime": "6.400s",
                "word": "this"
              },
              {
                "endTime": "7.200s",
                "startTime": "6.900s",
                "word": "one"
              },
              {
                "endTime": "7.500s",
                "startTime": "7.200s",
                "word": "has"
              },
              {
                "endTime": "8.200s",
                "startTime": "7.500s",
                "word": "in"
              },
              {
                "endTime": "8.300s",
                "startTime": "8.200s",
                "word": "the"
              },
              {
                "endTime": "8.600s",
                "startTime": "8.300s",
                "word": "cookie"
              },
              {
                "endTime": "8.700s",
                "startTime": "8.600s",
                "word": "jar"
              },
              {
                "endTime": "11.100s",
                "startTime": "8.700s",
                "word": "and"
              },
              {
                "endTime": "11.500s",
                "startTime": "11.100s",
                "word": "this"
              },
              {
                "endTime": "11.700s",
                "startTime": "11.500s",
                "word": "is"
              },
              {
                "endTime": "12.600s",
                "startTime": "11.700s",
                "word": "she"
              },
              {
                "endTime": "12.900s",
                "startTime": "12.600s",
                "word": "tried"
              },
              {
                "endTime": "13s",
                "startTime": "12.900s",
                "word": "to"
              },
              {
                "endTime": "13.200s",
                "startTime": "13s",
                "word": "climb"
              },
              {
                "endTime": "13.400s",
                "startTime": "13.200s",
                "word": "the"
              }
            ]
          }
        ]
      },
      {
        "alternatives": [
          {
            "confidence": 0.855204,
            "transcript": " oh no no this boy",
            "words": [
              {
                "endTime": "15.500s",
                "startTime": "15.200s",
                "word": "oh"
              },
              {
                "endTime": "15.700s",
                "startTime": "15.500s",
                "word": "no"
              },
              {
                "endTime": "15.800s",
                "startTime": "15.700s",
                "word": "no"
              },
              {
                "endTime": "17.100s",
                "startTime": "15.800s",
                "word": "this"
              },
              {
                "endTime": "17.500s",
                "startTime": "17.100s",
                "word": "boy"
              }
            ]
          }
        ]
      },
      {
        "alternatives": [
          {
            "confidence": 0.9844472,
            "transcript": " I think this is the same one",
            "words": [
              {
                "endTime": "21.300s",
                "startTime": "20.900s",
                "word": "I"
              },
              {
                "endTime": "21.500s",
                "startTime": "21.300s",
                "word": "think"
              },
              {
                "endTime": "21.700s",
                "startTime": "21.500s",
                "word": "this"
              },
              {
                "endTime": "21.800s",
                "startTime": "21.700s",
                "word": "is"
              },
              {
                "endTime": "21.900s",
                "startTime": "21.800s",
                "word": "the"
              },
              {
                "endTime": "22.200s",
                "startTime": "21.900s",
                "word": "same"
              },
              {
                "endTime": "22.400s",
                "startTime": "22.200s",
                "word": "one"
              }
            ]
          }
        ]
      },
      {
        "alternatives": [
          {
            "confidence": 0.9667271,
            "transcript": " how to get in the cookie jar and she's watching",
            "words": [
              {
                "endTime": "24.300s",
                "startTime": "23.900s",
                "word": "how"
              },
              {
                "endTime": "24.500s",
                "startTime": "24.300s",
                "word": "to"
              },
              {
                "endTime": "24.700s",
                "startTime": "24.500s",
                "word": "get"
              },
              {
                "endTime": "24.800s",
                "startTime": "24.700s",
                "word": "in"
              },
              {
                "endTime": "24.900s",
                "startTime": "24.800s",
                "word": "the"
              },
              {
                "endTime": "25.300s",
                "startTime": "24.900s",
                "word": "cookie"
              },
              {
                "endTime": "25.400s",
                "startTime": "25.300s",
                "word": "jar"
              },
              {
                "endTime": "26.700s",
                "startTime": "25.400s",
                "word": "and"
              },
              {
                "endTime": "27s",
                "startTime": "26.700s",
                "word": "she's"
              },
              {
                "endTime": "27.500s",
                "startTime": "27s",
                "word": "watching"
              }
            ]
          }
        ]
      },
      {
        "alternatives": [
          {
            "confidence": 0.9375143,
            "transcript": " you know they're here",
            "words": [
              {
                "endTime": "32.300s",
                "startTime": "31.900s",
                "word": "you"
              },
              {
                "endTime": "32.500s",
                "startTime": "32.300s",
                "word": "know"
              },
              {
                "endTime": "32.700s",
                "startTime": "32.500s",
                "word": "they're"
              },
              {
                "endTime": "32.900s",
                "startTime": "32.700s",
                "word": "here"
              }
            ]
          }
        ]
      },
      {
        "alternatives": [
          {
            "confidence": 0.96515656,
            "transcript": " must be the mother",
            "words": [
              {
                "endTime": "35.500s",
                "startTime": "33.700s",
                "word": "must"
              },
              {
                "endTime": "35.600s",
                "startTime": "35.500s",
                "word": "be"
              },
              {
                "endTime": "35.700s",
                "startTime": "35.600s",
                "word": "the"
              },
              {
                "endTime": "36.100s",
                "startTime": "35.700s",
                "word": "mother"
              }
            ]
          }
        ]
      },
      {
        "alternatives": [
          {
            "confidence": 0.8082831,
            "transcript": " and what they've been doing here so what's going on in the stool tipped over",
            "words": [
              {
                "endTime": "41.100s",
                "startTime": "40.700s",
                "word": "and"
              },
              {
                "endTime": "41.400s",
                "startTime": "41.100s",
                "word": "what"
              },
              {
                "endTime": "41.600s",
                "startTime": "41.400s",
                "word": "they've"
              },
              {
                "endTime": "41.700s",
                "startTime": "41.600s",
                "word": "been"
              },
              {
                "endTime": "41.900s",
                "startTime": "41.700s",
                "word": "doing"
              },
              {
                "endTime": "42.200s",
                "startTime": "41.900s",
                "word": "here"
              },
              {
                "endTime": "42.600s",
                "startTime": "42.200s",
                "word": "so"
              },
              {
                "endTime": "45.800s",
                "startTime": "42.600s",
                "word": "what's"
              },
              {
                "endTime": "46s",
                "startTime": "45.800s",
                "word": "going"
              },
              {
                "endTime": "46.100s",
                "startTime": "46s",
                "word": "on"
              },
              {
                "endTime": "49.200s",
                "startTime": "46.100s",
                "word": "in"
              },
              {
                "endTime": "49.900s",
                "startTime": "49.200s",
                "word": "the"
              },
              {
                "endTime": "50.300s",
                "startTime": "49.900s",
                "word": "stool"
              },
              {
                "endTime": "50.600s",
                "startTime": "50.300s",
                "word": "tipped"
              },
              {
                "endTime": "50.800s",
                "startTime": "50.600s",
                "word": "over"
              }
            ]
          }
        ]
      },
      {
        "alternatives": [
          {
            "confidence": 0.7622412,
            "transcript": " how about every",
            "words": [
              {
                "endTime": "56.200s",
                "startTime": "56s",
                "word": "how"
              },
              {
                "endTime": "56.400s",
                "startTime": "56.200s",
                "word": "about"
              },
              {
                "endTime": "56.700s",
                "startTime": "56.400s",
                "word": "every"
              }
            ]
          }
        ]
      },
      {
        "alternatives": [
          {
            "confidence": 0.8272765,
            "transcript": " you should have done the dishes",
            "words": [
              {
                "endTime": "62.200s",
                "startTime": "61.900s",
                "word": "you"
              },
              {
                "endTime": "62.500s",
                "startTime": "62.200s",
                "word": "should"
              },
              {
                "endTime": "62.600s",
                "startTime": "62.500s",
                "word": "have"
              },
              {
                "endTime": "62.700s",
                "startTime": "62.600s",
                "word": "done"
              },
              {
                "endTime": "62.900s",
                "startTime": "62.700s",
                "word": "the"
              },
              {
                "endTime": "63.200s",
                "startTime": "62.900s",
                "word": "dishes"
              }
            ]
          }
        ]
      },
      {
        "alternatives": [
          {
            "confidence": 0.77621865,
            "transcript": " just build something",
            "words": [
              {
                "endTime": "66.800s",
                "startTime": "66.300s",
                "word": "just"
              },
              {
                "endTime": "67.100s",
                "startTime": "66.800s",
                "word": "build"
              },
              {
                "endTime": "67.500s",
                "startTime": "67.100s",
                "word": "something"
              }
            ]
          }
        ]
      }
    ]
  }
}
