{
  "done": true,
  "metadata": {
    "@type": "type.googleapis.com/google.cloud.speech.v1.LongRunningRecognizeMetadata",
    "lastUpdateTime": "2021-03-10T10:04:03.224156Z",
    "progressPercent": 100,
    "startTime": "2021-03-10T10:03:47.502984Z",
    "uri": "gs://adresso/ADReSSo21-diagnosis-train/diagnosis/train/audio/ad/adrso077.wav"
  },
  "name": "295178715750651783",
  "response": {
    "@type": "type.googleapis.com/google.cloud.speech.v1.LongRunningRecognizeResponse",
    "results": [
      {
        "alternatives": [
          {
            "confidence": 0.8812875,
            "transcript": "you mean like the woman doing the dishes in the water",
            "words": [
              {
                "endTime": "5.300s",
                "startTime": "4.600s",
                "word": "you"
              },
              {
                "endTime": "5.600s",
                "startTime": "5.300s",
                "word": "mean"
              },
              {
                "endTime": "5.600s",
                "startTime": "5.600s",
                "word": "like"
              },
              {
                "endTime": "5.900s",
                "startTime": "5.600s",
                "word": "the"
              },
              {
                "endTime": "6.400s",
                "startTime": "5.900s",
                "word": "woman"
              },
              {
                "endTime": "6.700s",
                "startTime": "6.400s",
                "word": "doing"
              },
              {
                "endTime": "6.800s",
                "startTime": "6.700s",
                "word": "the"
              },
              {
                "endTime": "7.200s",
                "startTime": "6.800s",
                "word": "dishes"
              },
              {
                "endTime": "7.600s",
                "startTime": "7.200s",
                "word": "in"
              },
              {
                "endTime": "7.700s",
                "startTime": "7.600s",
                "word": "the"
              },
              {
                "endTime": "8.100s",
                "startTime": "7.700s",
                "word": "water"
              }
            ]
          }
        ]
      },
      {
        "alternatives": [
          {
            "confidence": 0.8825901,
            "transcript": " running over in the sink little boys getting in a cookie jar",
            "words": [
              {
                "endTime": "9.700s",
                "startTime": "9.100s",
                "word": "running"
              },
              {
                "endTime": "10.100s",
                "startTime": "9.700s",
                "word": "over"
              },
              {
                "endTime": "10.500s",
                "startTime": "10.100s",
                "word": "in"
              },
              {
                "endTime": "10.600s",
                "startTime": "10.500s",
                "word": "the"
              },
              {
                "endTime": "11.200s",
                "startTime": "10.600s",
                "word": "sink"
              },
              {
                "endTime": "11.600s",
                "startTime": "11.200s",
                "word": "little"
              },
              {
                "endTime": "12s",
                "startTime": "11.600s",
                "word": "boys"
              },
              {
                "endTime": "12.300s",
                "startTime": "12s",
                "word": "getting"
              },
              {
                "endTime": "12.400s",
                "startTime": "12.300s",
                "word": "in"
              },
              {
                "endTime": "12.500s",
                "startTime": "12.400s",
                "word": "a"
              },
              {
                "endTime": "12.900s",
                "startTime": "12.500s",
                "word": "cookie"
              },
              {
                "endTime": "13s",
                "startTime": "12.900s",
                "word": "jar"
              }
            ]
          }
        ]
      },
      {
        "alternatives": [
          {
            "confidence": 0.7273383,
            "transcript": " boy falling over little girl wants one",
            "words": [
              {
                "endTime": "15.100s",
                "startTime": "14.700s",
                "word": "boy"
              },
              {
                "endTime": "16.500s",
                "startTime": "15.100s",
                "word": "falling"
              },
              {
                "endTime": "16.900s",
                "startTime": "16.500s",
                "word": "over"
              },
              {
                "endTime": "18.100s",
                "startTime": "16.900s",
                "word": "little"
              },
              {
                "endTime": "18.300s",
                "startTime": "18.100s",
                "word": "girl"
              },
              {
                "endTime": "18.800s",
                "startTime": "18.300s",
                "word": "wants"
              },
              {
                "endTime": "19.100s",
                "startTime": "18.800s",
                "word": "one"
              }
            ]
          }
        ]
      },
      {
        "alternatives": [
          {
            "confidence": 0.60421115,
            "transcript": " this is that rhyme with think",
            "words": [
              {
                "endTime": "23.500s",
                "startTime": "23s",
                "word": "this"
              },
              {
                "endTime": "23.600s",
                "startTime": "23.500s",
                "word": "is"
              },
              {
                "endTime": "23.900s",
                "startTime": "23.600s",
                "word": "that"
              },
              {
                "endTime": "24.200s",
                "startTime": "23.900s",
                "word": "rhyme"
              },
              {
                "endTime": "24.300s",
                "startTime": "24.200s",
                "word": "with"
              },
              {
                "endTime": "24.800s",
                "startTime": "24.300s",
                "word": "think"
              }
            ]
          }
        ]
      },
      {
        "alternatives": [
          {
            "confidence": 0.5066476,
            "transcript": " and window",
            "words": [
              {
                "endTime": "27.300s",
                "startTime": "26.900s",
                "word": "and"
              },
              {
                "endTime": "27.800s",
                "startTime": "27.300s",
                "word": "window"
              }
            ]
          }
        ]
      },
      {
        "alternatives": [
          {
            "confidence": 0.38853988,
            "transcript": " outside",
            "words": [
              {
                "endTime": "31.800s",
                "startTime": "30s",
                "word": "outside"
              }
            ]
          }
        ]
      },
      {
        "alternatives": [
          {
            "confidence": 0.81803876,
            "transcript": " you have a nice Leon",
            "words": [
              {
                "endTime": "35.500s",
                "startTime": "34.900s",
                "word": "you"
              },
              {
                "endTime": "35.700s",
                "startTime": "35.500s",
                "word": "have"
              },
              {
                "endTime": "35.800s",
                "startTime": "35.700s",
                "word": "a"
              },
              {
                "endTime": "36.100s",
                "startTime": "35.800s",
                "word": "nice"
              },
              {
                "endTime": "36.600s",
                "startTime": "36.100s",
                "word": "Leon"
              }
            ]
          }
        ]
      },
      {
        "alternatives": [
          {
            "confidence": 0.55637175,
            "transcript": " turn on fan",
            "words": [
              {
                "endTime": "49s",
                "startTime": "47.600s",
                "word": "turn"
              },
              {
                "endTime": "49.100s",
                "startTime": "49s",
                "word": "on"
              },
              {
                "endTime": "49.400s",
                "startTime": "49.100s",
                "word": "fan"
              }
            ]
          }
        ]
      }
    ]
  }
}
