{
  "done": true,
  "metadata": {
    "@type": "type.googleapis.com/google.cloud.speech.v1.LongRunningRecognizeMetadata",
    "lastUpdateTime": "2021-03-10T10:05:19.905822Z",
    "progressPercent": 100,
    "startTime": "2021-03-10T10:05:05.238027Z",
    "uri": "gs://adresso/ADReSSo21-diagnosis-train/diagnosis/train/audio/ad/adrso245.wav"
  },
  "name": "5573814177558845751",
  "response": {
    "@type": "type.googleapis.com/google.cloud.speech.v1.LongRunningRecognizeResponse",
    "results": [
      {
        "alternatives": [
          {
            "confidence": 0.60199803,
            "transcript": "non in Arabic",
            "words": [
              {
                "endTime": "0.400s",
                "startTime": "0s",
                "word": "non"
              },
              {
                "endTime": "0.700s",
                "startTime": "0.400s",
                "word": "in"
              },
              {
                "endTime": "1.100s",
                "startTime": "0.700s",
                "word": "Arabic"
              }
            ]
          }
        ]
      },
      {
        "alternatives": [
          {
            "confidence": 0.7898588,
            "transcript": " I like lendup on the Singapore",
            "words": [
              {
                "endTime": "3.500s",
                "startTime": "3.200s",
                "word": "I"
              },
              {
                "endTime": "3.900s",
                "startTime": "3.500s",
                "word": "like"
              },
              {
                "endTime": "4.200s",
                "startTime": "3.900s",
                "word": "lendup"
              },
              {
                "endTime": "4.500s",
                "startTime": "4.200s",
                "word": "on"
              },
              {
                "endTime": "4.600s",
                "startTime": "4.500s",
                "word": "the"
              },
              {
                "endTime": "5.300s",
                "startTime": "4.600s",
                "word": "Singapore"
              }
            ]
          }
        ]
      },
      {
        "alternatives": [
          {
            "confidence": 0.83871686,
            "transcript": " watchify I mean washing dishes",
            "words": [
              {
                "endTime": "11.600s",
                "startTime": "10.400s",
                "word": "watchify"
              },
              {
                "endTime": "12s",
                "startTime": "11.600s",
                "word": "I"
              },
              {
                "endTime": "12.300s",
                "startTime": "12s",
                "word": "mean"
              },
              {
                "endTime": "12.800s",
                "startTime": "12.300s",
                "word": "washing"
              },
              {
                "endTime": "13.200s",
                "startTime": "12.800s",
                "word": "dishes"
              }
            ]
          }
        ]
      },
      {
        "alternatives": [
          {
            "confidence": 0.68089503,
            "transcript": " anything out here right here",
            "words": [
              {
                "endTime": "17s",
                "startTime": "16.400s",
                "word": "anything"
              },
              {
                "endTime": "17.400s",
                "startTime": "17s",
                "word": "out"
              },
              {
                "endTime": "19.900s",
                "startTime": "17.400s",
                "word": "here"
              },
              {
                "endTime": "22s",
                "startTime": "19.900s",
                "word": "right"
              },
              {
                "endTime": "22.100s",
                "startTime": "22s",
                "word": "here"
              }
            ]
          }
        ]
      },
      {
        "alternatives": [
          {
            "confidence": 0.8125428,
            "transcript": " Bryan health",
            "words": [
              {
                "endTime": "30.100s",
                "startTime": "29.500s",
                "word": "Bryan"
              },
              {
                "endTime": "30.400s",
                "startTime": "30.100s",
                "word": "health"
              }
            ]
          }
        ]
      },
      {
        "alternatives": [
          {
            "confidence": 0.77086914,
            "transcript": " never here when you think I don't know washing dishes",
            "words": [
              {
                "endTime": "34.600s",
                "startTime": "34.100s",
                "word": "never"
              },
              {
                "endTime": "34.900s",
                "startTime": "34.600s",
                "word": "here"
              },
              {
                "endTime": "34.900s",
                "startTime": "34.900s",
                "word": "when"
              },
              {
                "endTime": "35.100s",
                "startTime": "34.900s",
                "word": "you"
              },
              {
                "endTime": "35.300s",
                "startTime": "35.100s",
                "word": "think"
              },
              {
                "endTime": "35.400s",
                "startTime": "35.300s",
                "word": "I"
              },
              {
                "endTime": "35.500s",
                "startTime": "35.400s",
                "word": "don't"
              },
              {
                "endTime": "35.600s",
                "startTime": "35.500s",
                "word": "know"
              },
              {
                "endTime": "36.500s",
                "startTime": "35.600s",
                "word": "washing"
              },
              {
                "endTime": "36.900s",
                "startTime": "36.500s",
                "word": "dishes"
              }
            ]
          }
        ]
      },
      {
        "alternatives": [
          {
            "confidence": 0.70833594,
            "transcript": " Ryan Mitchell Watertown",
            "words": [
              {
                "endTime": "38.700s",
                "startTime": "38s",
                "word": "Ryan"
              },
              {
                "endTime": "39.100s",
                "startTime": "38.700s",
                "word": "Mitchell"
              },
              {
                "endTime": "40.200s",
                "startTime": "39.100s",
                "word": "Watertown"
              }
            ]
          }
        ]
      },
      {
        "alternatives": [
          {
            "confidence": 0.8959146,
            "transcript": " I'll pay let me go cuz I can't stand this anymore",
            "words": [
              {
                "endTime": "43.600s",
                "startTime": "43.200s",
                "word": "I'll"
              },
              {
                "endTime": "43.900s",
                "startTime": "43.600s",
                "word": "pay"
              },
              {
                "endTime": "44.200s",
                "startTime": "43.900s",
                "word": "let"
              },
              {
                "endTime": "44.200s",
                "startTime": "44.200s",
                "word": "me"
              },
              {
                "endTime": "44.500s",
                "startTime": "44.200s",
                "word": "go"
              },
              {
                "endTime": "44.700s",
                "startTime": "44.500s",
                "word": "cuz"
              },
              {
                "endTime": "44.800s",
                "startTime": "44.700s",
                "word": "I"
              },
              {
                "endTime": "45.100s",
                "startTime": "44.800s",
                "word": "can't"
              },
              {
                "endTime": "45.400s",
                "startTime": "45.100s",
                "word": "stand"
              },
              {
                "endTime": "45.600s",
                "startTime": "45.400s",
                "word": "this"
              },
              {
                "endTime": "45.900s",
                "startTime": "45.600s",
                "word": "anymore"
              }
            ]
          }
        ]
      }
    ]
  }
}
