{
  "done": true,
  "metadata": {
    "@type": "type.googleapis.com/google.cloud.speech.v1.LongRunningRecognizeMetadata",
    "lastUpdateTime": "2021-03-10T10:04:24.110028Z",
    "progressPercent": 100,
    "startTime": "2021-03-10T10:04:15.460729Z",
    "uri": "gs://adresso/ADReSSo21-diagnosis-train/diagnosis/train/audio/ad/adrso134.wav"
  },
  "name": "5056874732804391258",
  "response": {
    "@type": "type.googleapis.com/google.cloud.speech.v1.LongRunningRecognizeResponse",
    "results": [
      {
        "alternatives": [
          {
            "confidence": 0.7240768,
            "transcript": "what do you take a look at this picture",
            "words": [
              {
                "endTime": "0.600s",
                "startTime": "0.200s",
                "word": "what"
              },
              {
                "endTime": "0.700s",
                "startTime": "0.600s",
                "word": "do"
              },
              {
                "endTime": "0.700s",
                "startTime": "0.700s",
                "word": "you"
              },
              {
                "endTime": "0.800s",
                "startTime": "0.700s",
                "word": "take"
              },
              {
                "endTime": "1.100s",
                "startTime": "0.800s",
                "word": "a"
              },
              {
                "endTime": "1.200s",
                "startTime": "1.100s",
                "word": "look"
              },
              {
                "endTime": "1.300s",
                "startTime": "1.200s",
                "word": "at"
              },
              {
                "endTime": "1.500s",
                "startTime": "1.300s",
                "word": "this"
              },
              {
                "endTime": "1.900s",
                "startTime": "1.500s",
                "word": "picture"
              }
            ]
          }
        ]
      },
      {
        "alternatives": [
          {
            "confidence": 0.9478489,
            "transcript": " tell me everything you see happening everything was going on",
            "words": [
              {
                "endTime": "3.600s",
                "startTime": "3.200s",
                "word": "tell"
              },
              {
                "endTime": "3.700s",
                "startTime": "3.600s",
                "word": "me"
              },
              {
                "endTime": "4.200s",
                "startTime": "3.700s",
                "word": "everything"
              },
              {
                "endTime": "4.200s",
                "startTime": "4.200s",
                "word": "you"
              },
              {
                "endTime": "4.500s",
                "startTime": "4.200s",
                "word": "see"
              },
              {
                "endTime": "4.900s",
                "startTime": "4.500s",
                "word": "happening"
              },
              {
                "endTime": "6.400s",
                "startTime": "4.900s",
                "word": "everything"
              },
              {
                "endTime": "6.600s",
                "startTime": "6.400s",
                "word": "was"
              },
              {
                "endTime": "7s",
                "startTime": "6.600s",
                "word": "going"
              },
              {
                "endTime": "7.100s",
                "startTime": "7s",
                "word": "on"
              }
            ]
          }
        ]
      },
      {
        "alternatives": [
          {
            "confidence": 0.93215406,
            "transcript": " voice text Tatiana K girls reaching his hand out her hand up drying the dishes dishes the waters falling blowing over the sink",
            "words": [
              {
                "endTime": "14.500s",
                "startTime": "13.900s",
                "word": "voice"
              },
              {
                "endTime": "15s",
                "startTime": "14.500s",
                "word": "text"
              },
              {
                "endTime": "16.200s",
                "startTime": "15s",
                "word": "Tatiana"
              },
              {
                "endTime": "16.500s",
                "startTime": "16.200s",
                "word": "K"
              },
              {
                "endTime": "18.600s",
                "startTime": "16.500s",
                "word": "girls"
              },
              {
                "endTime": "19.100s",
                "startTime": "18.600s",
                "word": "reaching"
              },
              {
                "endTime": "19.500s",
                "startTime": "19.100s",
                "word": "his"
              },
              {
                "endTime": "19.900s",
                "startTime": "19.500s",
                "word": "hand"
              },
              {
                "endTime": "20s",
                "startTime": "19.900s",
                "word": "out"
              },
              {
                "endTime": "20.200s",
                "startTime": "20s",
                "word": "her"
              },
              {
                "endTime": "20.700s",
                "startTime": "20.200s",
                "word": "hand"
              },
              {
                "endTime": "20.900s",
                "startTime": "20.700s",
                "word": "up"
              },
              {
                "endTime": "22.200s",
                "startTime": "20.900s",
                "word": "drying"
              },
              {
                "endTime": "22.300s",
                "startTime": "22.200s",
                "word": "the"
              },
              {
                "endTime": "22.400s",
                "startTime": "22.300s",
                "word": "dishes"
              },
              {
                "endTime": "23.900s",
                "startTime": "22.400s",
                "word": "dishes"
              },
              {
                "endTime": "25.300s",
                "startTime": "23.900s",
                "word": "the"
              },
              {
                "endTime": "26.600s",
                "startTime": "25.300s",
                "word": "waters"
              },
              {
                "endTime": "27.100s",
                "startTime": "26.600s",
                "word": "falling"
              },
              {
                "endTime": "28.200s",
                "startTime": "27.100s",
                "word": "blowing"
              },
              {
                "endTime": "28.500s",
                "startTime": "28.200s",
                "word": "over"
              },
              {
                "endTime": "28.800s",
                "startTime": "28.500s",
                "word": "the"
              },
              {
                "endTime": "29.400s",
                "startTime": "28.800s",
                "word": "sink"
              }
            ]
          }
        ]
      },
      {
        "alternatives": [
          {
            "confidence": 0.73134696,
            "transcript": " cups per fight on them",
            "words": [
              {
                "endTime": "35.200s",
                "startTime": "34.200s",
                "word": "cups"
              },
              {
                "endTime": "35.500s",
                "startTime": "35.200s",
                "word": "per"
              },
              {
                "endTime": "36.100s",
                "startTime": "35.500s",
                "word": "fight"
              },
              {
                "endTime": "36.400s",
                "startTime": "36.100s",
                "word": "on"
              },
              {
                "endTime": "36.600s",
                "startTime": "36.400s",
                "word": "them"
              }
            ]
          }
        ]
      }
    ]
  }
}
