{
  "done": true,
  "metadata": {
    "@type": "type.googleapis.com/google.cloud.speech.v1.LongRunningRecognizeMetadata",
    "lastUpdateTime": "2021-03-10T10:04:22.548373Z",
    "progressPercent": 100,
    "startTime": "2021-03-10T10:03:57.335719Z",
    "uri": "gs://adresso/ADReSSo21-diagnosis-train/diagnosis/train/audio/ad/adrso098.wav"
  },
  "name": "697955041232769613",
  "response": {
    "@type": "type.googleapis.com/google.cloud.speech.v1.LongRunningRecognizeResponse",
    "results": [
      {
        "alternatives": [
          {
            "confidence": 0.977464,
            "transcript": "I want you to tell me everything that's happening in that picture",
            "words": [
              {
                "endTime": "0.600s",
                "startTime": "0.200s",
                "word": "I"
              },
              {
                "endTime": "0.800s",
                "startTime": "0.600s",
                "word": "want"
              },
              {
                "endTime": "1s",
                "startTime": "0.800s",
                "word": "you"
              },
              {
                "endTime": "1s",
                "startTime": "1s",
                "word": "to"
              },
              {
                "endTime": "1.300s",
                "startTime": "1s",
                "word": "tell"
              },
              {
                "endTime": "1.400s",
                "startTime": "1.300s",
                "word": "me"
              },
              {
                "endTime": "1.600s",
                "startTime": "1.400s",
                "word": "everything"
              },
              {
                "endTime": "2.300s",
                "startTime": "1.600s",
                "word": "that's"
              },
              {
                "endTime": "3.100s",
                "startTime": "2.300s",
                "word": "happening"
              },
              {
                "endTime": "3.400s",
                "startTime": "3.100s",
                "word": "in"
              },
              {
                "endTime": "3.600s",
                "startTime": "3.400s",
                "word": "that"
              },
              {
                "endTime": "3.900s",
                "startTime": "3.600s",
                "word": "picture"
              }
            ]
          }
        ]
      },
      {
        "alternatives": [
          {
            "confidence": 0.8743134,
            "transcript": " I want you to tell me everything is going on going on the phone out of the chair when he's putting up a picture",
            "words": [
              {
                "endTime": "7.500s",
                "startTime": "7.200s",
                "word": "I"
              },
              {
                "endTime": "7.700s",
                "startTime": "7.500s",
                "word": "want"
              },
              {
                "endTime": "7.800s",
                "startTime": "7.700s",
                "word": "you"
              },
              {
                "endTime": "7.900s",
                "startTime": "7.800s",
                "word": "to"
              },
              {
                "endTime": "8.100s",
                "startTime": "7.900s",
                "word": "tell"
              },
              {
                "endTime": "8.200s",
                "startTime": "8.100s",
                "word": "me"
              },
              {
                "endTime": "8.300s",
                "startTime": "8.200s",
                "word": "everything"
              },
              {
                "endTime": "8.800s",
                "startTime": "8.300s",
                "word": "is"
              },
              {
                "endTime": "8.900s",
                "startTime": "8.800s",
                "word": "going"
              },
              {
                "endTime": "9.400s",
                "startTime": "8.900s",
                "word": "on"
              },
              {
                "endTime": "10.300s",
                "startTime": "9.400s",
                "word": "going"
              },
              {
                "endTime": "10.500s",
                "startTime": "10.300s",
                "word": "on"
              },
              {
                "endTime": "10.800s",
                "startTime": "10.500s",
                "word": "the"
              },
              {
                "endTime": "11.200s",
                "startTime": "10.800s",
                "word": "phone"
              },
              {
                "endTime": "11.500s",
                "startTime": "11.200s",
                "word": "out"
              },
              {
                "endTime": "11.500s",
                "startTime": "11.500s",
                "word": "of"
              },
              {
                "endTime": "11.600s",
                "startTime": "11.500s",
                "word": "the"
              },
              {
                "endTime": "13.100s",
                "startTime": "11.600s",
                "word": "chair"
              },
              {
                "endTime": "13.200s",
                "startTime": "13.100s",
                "word": "when"
              },
              {
                "endTime": "13.500s",
                "startTime": "13.200s",
                "word": "he's"
              },
              {
                "endTime": "13.800s",
                "startTime": "13.500s",
                "word": "putting"
              },
              {
                "endTime": "14s",
                "startTime": "13.800s",
                "word": "up"
              },
              {
                "endTime": "14.100s",
                "startTime": "14s",
                "word": "a"
              },
              {
                "endTime": "14.600s",
                "startTime": "14.100s",
                "word": "picture"
              }
            ]
          }
        ]
      },
      {
        "alternatives": [
          {
            "confidence": 0.7663212,
            "transcript": " she's washing dishes",
            "words": [
              {
                "endTime": "18.300s",
                "startTime": "17.700s",
                "word": "she's"
              },
              {
                "endTime": "18.700s",
                "startTime": "18.300s",
                "word": "washing"
              },
              {
                "endTime": "19.100s",
                "startTime": "18.700s",
                "word": "dishes"
              }
            ]
          }
        ]
      },
      {
        "alternatives": [
          {
            "confidence": 0.80624646,
            "transcript": " that's why I think it's running over to it and it's not a choice I guess in a cup and saucer",
            "words": [
              {
                "endTime": "21.300s",
                "startTime": "20.700s",
                "word": "that's"
              },
              {
                "endTime": "22.200s",
                "startTime": "21.300s",
                "word": "why"
              },
              {
                "endTime": "22.400s",
                "startTime": "22.200s",
                "word": "I"
              },
              {
                "endTime": "23.300s",
                "startTime": "22.400s",
                "word": "think"
              },
              {
                "endTime": "23.500s",
                "startTime": "23.300s",
                "word": "it's"
              },
              {
                "endTime": "23.700s",
                "startTime": "23.500s",
                "word": "running"
              },
              {
                "endTime": "24s",
                "startTime": "23.700s",
                "word": "over"
              },
              {
                "endTime": "24.500s",
                "startTime": "24s",
                "word": "to"
              },
              {
                "endTime": "24.800s",
                "startTime": "24.500s",
                "word": "it"
              },
              {
                "endTime": "24.800s",
                "startTime": "24.800s",
                "word": "and"
              },
              {
                "endTime": "25.100s",
                "startTime": "24.800s",
                "word": "it's"
              },
              {
                "endTime": "25.100s",
                "startTime": "25.100s",
                "word": "not"
              },
              {
                "endTime": "27.800s",
                "startTime": "25.100s",
                "word": "a"
              },
              {
                "endTime": "28.500s",
                "startTime": "27.800s",
                "word": "choice"
              },
              {
                "endTime": "30.700s",
                "startTime": "28.500s",
                "word": "I"
              },
              {
                "endTime": "32.600s",
                "startTime": "30.700s",
                "word": "guess"
              },
              {
                "endTime": "33.400s",
                "startTime": "32.600s",
                "word": "in"
              },
              {
                "endTime": "33.500s",
                "startTime": "33.400s",
                "word": "a"
              },
              {
                "endTime": "33.700s",
                "startTime": "33.500s",
                "word": "cup"
              },
              {
                "endTime": "33.800s",
                "startTime": "33.700s",
                "word": "and"
              },
              {
                "endTime": "34.400s",
                "startTime": "33.800s",
                "word": "saucer"
              }
            ]
          }
        ]
      },
      {
        "alternatives": [
          {
            "confidence": 0.77841437,
            "transcript": " how old is a lady here is it or isn't that right there",
            "words": [
              {
                "endTime": "46.400s",
                "startTime": "46s",
                "word": "how"
              },
              {
                "endTime": "46.500s",
                "startTime": "46.400s",
                "word": "old"
              },
              {
                "endTime": "46.600s",
                "startTime": "46.500s",
                "word": "is"
              },
              {
                "endTime": "46.900s",
                "startTime": "46.600s",
                "word": "a"
              },
              {
                "endTime": "47.200s",
                "startTime": "46.900s",
                "word": "lady"
              },
              {
                "endTime": "47.700s",
                "startTime": "47.200s",
                "word": "here"
              },
              {
                "endTime": "47.900s",
                "startTime": "47.700s",
                "word": "is"
              },
              {
                "endTime": "48.100s",
                "startTime": "47.900s",
                "word": "it"
              },
              {
                "endTime": "48.200s",
                "startTime": "48.100s",
                "word": "or"
              },
              {
                "endTime": "48.500s",
                "startTime": "48.200s",
                "word": "isn't"
              },
              {
                "endTime": "48.700s",
                "startTime": "48.500s",
                "word": "that"
              },
              {
                "endTime": "49.700s",
                "startTime": "48.700s",
                "word": "right"
              },
              {
                "endTime": "50s",
                "startTime": "49.700s",
                "word": "there"
              }
            ]
          }
        ]
      },
      {
        "alternatives": [
          {
            "confidence": 0.7732309,
            "transcript": " I got messed up when I had it this way it's almost like",
            "words": [
              {
                "endTime": "52.800s",
                "startTime": "52.500s",
                "word": "I"
              },
              {
                "endTime": "53.100s",
                "startTime": "52.800s",
                "word": "got"
              },
              {
                "endTime": "53.300s",
                "startTime": "53.100s",
                "word": "messed"
              },
              {
                "endTime": "53.400s",
                "startTime": "53.300s",
                "word": "up"
              },
              {
                "endTime": "53.600s",
                "startTime": "53.400s",
                "word": "when"
              },
              {
                "endTime": "53.600s",
                "startTime": "53.600s",
                "word": "I"
              },
              {
                "endTime": "53.800s",
                "startTime": "53.600s",
                "word": "had"
              },
              {
                "endTime": "53.900s",
                "startTime": "53.800s",
                "word": "it"
              },
              {
                "endTime": "54s",
                "startTime": "53.900s",
                "word": "this"
              },
              {
                "endTime": "54.300s",
                "startTime": "54s",
                "word": "way"
              },
              {
                "endTime": "54.500s",
                "startTime": "54.300s",
                "word": "it's"
              },
              {
                "endTime": "54.900s",
                "startTime": "54.500s",
                "word": "almost"
              },
              {
                "endTime": "55.100s",
                "startTime": "54.900s",
                "word": "like"
              }
            ]
          }
        ]
      },
      {
        "alternatives": [
          {
            "confidence": 0.8065951,
            "transcript": " vegetarian stir fry",
            "words": [
              {
                "endTime": "59.800s",
                "startTime": "59s",
                "word": "vegetarian"
              },
              {
                "endTime": "60s",
                "startTime": "59.800s",
                "word": "stir"
              },
              {
                "endTime": "60.300s",
                "startTime": "60s",
                "word": "fry"
              }
            ]
          }
        ]
      },
      {
        "alternatives": [
          {
            "confidence": 0.6805419,
            "transcript": " she washing dishes and she must have dropped 100 over",
            "words": [
              {
                "endTime": "62.100s",
                "startTime": "61.600s",
                "word": "she"
              },
              {
                "endTime": "62.500s",
                "startTime": "62.100s",
                "word": "washing"
              },
              {
                "endTime": "63s",
                "startTime": "62.500s",
                "word": "dishes"
              },
              {
                "endTime": "64.500s",
                "startTime": "63s",
                "word": "and"
              },
              {
                "endTime": "64.700s",
                "startTime": "64.500s",
                "word": "she"
              },
              {
                "endTime": "65s",
                "startTime": "64.700s",
                "word": "must"
              },
              {
                "endTime": "65.100s",
                "startTime": "65s",
                "word": "have"
              },
              {
                "endTime": "65.300s",
                "startTime": "65.100s",
                "word": "dropped"
              },
              {
                "endTime": "66s",
                "startTime": "65.300s",
                "word": "100"
              },
              {
                "endTime": "68.400s",
                "startTime": "66s",
                "word": "over"
              }
            ]
          }
        ]
      },
      {
        "alternatives": [
          {
            "confidence": 0.63910526,
            "transcript": " he's almost going over the chair",
            "words": [
              {
                "endTime": "70s",
                "startTime": "69.400s",
                "word": "he's"
              },
              {
                "endTime": "70.300s",
                "startTime": "70s",
                "word": "almost"
              },
              {
                "endTime": "70.700s",
                "startTime": "70.300s",
                "word": "going"
              },
              {
                "endTime": "71s",
                "startTime": "70.700s",
                "word": "over"
              },
              {
                "endTime": "71.100s",
                "startTime": "71s",
                "word": "the"
              },
              {
                "endTime": "71.600s",
                "startTime": "71.100s",
                "word": "chair"
              }
            ]
          }
        ]
      },
      {
        "alternatives": [
          {
            "confidence": 0.98606753,
            "transcript": " okay good",
            "words": [
              {
                "endTime": "80.400s",
                "startTime": "79.800s",
                "word": "okay"
              },
              {
                "endTime": "80.900s",
                "startTime": "80.400s",
                "word": "good"
              }
            ]
          }
        ]
      }
    ]
  }
}
