{
  "done": true,
  "metadata": {
    "@type": "type.googleapis.com/google.cloud.speech.v1.LongRunningRecognizeMetadata",
    "lastUpdateTime": "2021-03-10T10:03:28.658848Z",
    "progressPercent": 100,
    "startTime": "2021-03-10T10:03:15.011423Z",
    "uri": "gs://adresso/ADReSSo21-diagnosis-train/diagnosis/train/audio/ad/adrso036.wav"
  },
  "name": "7220518981210533915",
  "response": {
    "@type": "type.googleapis.com/google.cloud.speech.v1.LongRunningRecognizeResponse",
    "results": [
      {
        "alternatives": [
          {
            "confidence": 0.9818177,
            "transcript": "tell me what's going on all the action what's going on in this picture",
            "words": [
              {
                "endTime": "0.600s",
                "startTime": "0.100s",
                "word": "tell"
              },
              {
                "endTime": "0.700s",
                "startTime": "0.600s",
                "word": "me"
              },
              {
                "endTime": "1.200s",
                "startTime": "0.700s",
                "word": "what's"
              },
              {
                "endTime": "1.400s",
                "startTime": "1.200s",
                "word": "going"
              },
              {
                "endTime": "1.700s",
                "startTime": "1.400s",
                "word": "on"
              },
              {
                "endTime": "2.600s",
                "startTime": "1.700s",
                "word": "all"
              },
              {
                "endTime": "2.800s",
                "startTime": "2.600s",
                "word": "the"
              },
              {
                "endTime": "3.200s",
                "startTime": "2.800s",
                "word": "action"
              },
              {
                "endTime": "3.800s",
                "startTime": "3.200s",
                "word": "what's"
              },
              {
                "endTime": "4.200s",
                "startTime": "3.800s",
                "word": "going"
              },
              {
                "endTime": "4.400s",
                "startTime": "4.200s",
                "word": "on"
              },
              {
                "endTime": "4.500s",
                "startTime": "4.400s",
                "word": "in"
              },
              {
                "endTime": "4.700s",
                "startTime": "4.500s",
                "word": "this"
              },
              {
                "endTime": "5.100s",
                "startTime": "4.700s",
                "word": "picture"
              }
            ]
          }
        ]
      },
      {
        "alternatives": [
          {
            "confidence": 0.8875422,
            "transcript": " and then music",
            "words": [
              {
                "endTime": "16.800s",
                "startTime": "16.300s",
                "word": "and"
              },
              {
                "endTime": "17s",
                "startTime": "16.800s",
                "word": "then"
              },
              {
                "endTime": "17.100s",
                "startTime": "17s",
                "word": "music"
              }
            ]
          }
        ]
      },
      {
        "alternatives": [
          {
            "confidence": 0.767577,
            "transcript": " and do something on anything else going on in the picture",
            "words": [
              {
                "endTime": "19.800s",
                "startTime": "19.200s",
                "word": "and"
              },
              {
                "endTime": "21.400s",
                "startTime": "19.800s",
                "word": "do"
              },
              {
                "endTime": "22.500s",
                "startTime": "21.400s",
                "word": "something"
              },
              {
                "endTime": "23.600s",
                "startTime": "22.500s",
                "word": "on"
              },
              {
                "endTime": "25.600s",
                "startTime": "23.600s",
                "word": "anything"
              },
              {
                "endTime": "26s",
                "startTime": "25.600s",
                "word": "else"
              },
              {
                "endTime": "26.300s",
                "startTime": "26s",
                "word": "going"
              },
              {
                "endTime": "26.500s",
                "startTime": "26.300s",
                "word": "on"
              },
              {
                "endTime": "26.600s",
                "startTime": "26.500s",
                "word": "in"
              },
              {
                "endTime": "26.800s",
                "startTime": "26.600s",
                "word": "the"
              },
              {
                "endTime": "27.100s",
                "startTime": "26.800s",
                "word": "picture"
              }
            ]
          }
        ]
      },
      {
        "alternatives": [
          {
            "confidence": 0.83729255,
            "transcript": " anything else going on any more action in the picture",
            "words": [
              {
                "endTime": "29s",
                "startTime": "28.200s",
                "word": "anything"
              },
              {
                "endTime": "29.200s",
                "startTime": "29s",
                "word": "else"
              },
              {
                "endTime": "31.200s",
                "startTime": "29.200s",
                "word": "going"
              },
              {
                "endTime": "31.400s",
                "startTime": "31.200s",
                "word": "on"
              },
              {
                "endTime": "31.800s",
                "startTime": "31.400s",
                "word": "any"
              },
              {
                "endTime": "31.800s",
                "startTime": "31.800s",
                "word": "more"
              },
              {
                "endTime": "32.500s",
                "startTime": "31.800s",
                "word": "action"
              },
              {
                "endTime": "32.600s",
                "startTime": "32.500s",
                "word": "in"
              },
              {
                "endTime": "32.700s",
                "startTime": "32.600s",
                "word": "the"
              },
              {
                "endTime": "33.200s",
                "startTime": "32.700s",
                "word": "picture"
              }
            ]
          }
        ]
      },
      {
        "alternatives": [
          {
            "confidence": 0.9240582,
            "transcript": " okay",
            "words": [
              {
                "endTime": "41s",
                "startTime": "40s",
                "word": "okay"
              }
            ]
          }
        ]
      }
    ]
  }
}
