{
  "done": true,
  "metadata": {
    "@type": "type.googleapis.com/google.cloud.speech.v1.LongRunningRecognizeMetadata",
    "lastUpdateTime": "2021-03-10T10:03:36.602364Z",
    "progressPercent": 100,
    "startTime": "2021-03-10T10:03:02.123915Z",
    "uri": "gs://adresso/ADReSSo21-diagnosis-train/diagnosis/train/audio/ad/adrso025.wav"
  },
  "name": "3496684256113110866",
  "response": {
    "@type": "type.googleapis.com/google.cloud.speech.v1.LongRunningRecognizeResponse",
    "results": [
      {
        "alternatives": [
          {
            "confidence": 0.9660323,
            "transcript": "tell me everything that's going on",
            "words": [
              {
                "endTime": "1s",
                "startTime": "0.600s",
                "word": "tell"
              },
              {
                "endTime": "1.100s",
                "startTime": "1s",
                "word": "me"
              },
              {
                "endTime": "1.500s",
                "startTime": "1.100s",
                "word": "everything"
              },
              {
                "endTime": "1.600s",
                "startTime": "1.500s",
                "word": "that's"
              },
              {
                "endTime": "2s",
                "startTime": "1.600s",
                "word": "going"
              },
              {
                "endTime": "2.100s",
                "startTime": "2s",
                "word": "on"
              }
            ]
          }
        ]
      },
      {
        "alternatives": [
          {
            "confidence": 0.7224949,
            "transcript": " you're grading and I are going to",
            "words": [
              {
                "endTime": "16.300s",
                "startTime": "12.100s",
                "word": "you're"
              },
              {
                "endTime": "16.800s",
                "startTime": "16.300s",
                "word": "grading"
              },
              {
                "endTime": "17.100s",
                "startTime": "16.800s",
                "word": "and"
              },
              {
                "endTime": "17.200s",
                "startTime": "17.100s",
                "word": "I"
              },
              {
                "endTime": "17.700s",
                "startTime": "17.200s",
                "word": "are"
              },
              {
                "endTime": "17.900s",
                "startTime": "17.700s",
                "word": "going"
              },
              {
                "endTime": "18.300s",
                "startTime": "17.900s",
                "word": "to"
              }
            ]
          }
        ]
      },
      {
        "alternatives": [
          {
            "confidence": 0.88773984,
            "transcript": " yep",
            "words": [
              {
                "endTime": "21.200s",
                "startTime": "20.700s",
                "word": "yep"
              }
            ]
          }
        ]
      },
      {
        "alternatives": [
          {
            "confidence": 0.8870391,
            "transcript": " cookies cookie jar",
            "words": [
              {
                "endTime": "27.500s",
                "startTime": "25.300s",
                "word": "cookies"
              },
              {
                "endTime": "28.800s",
                "startTime": "27.500s",
                "word": "cookie"
              },
              {
                "endTime": "29.100s",
                "startTime": "28.800s",
                "word": "jar"
              }
            ]
          }
        ]
      },
      {
        "alternatives": [
          {
            "confidence": 0.59735835,
            "transcript": " and that",
            "words": [
              {
                "endTime": "31.100s",
                "startTime": "30.500s",
                "word": "and"
              },
              {
                "endTime": "31.400s",
                "startTime": "31.100s",
                "word": "that"
              }
            ]
          }
        ]
      },
      {
        "alternatives": [
          {
            "confidence": 0.8919019,
            "transcript": " mother does not see it because she's inside",
            "words": [
              {
                "endTime": "33.200s",
                "startTime": "32.300s",
                "word": "mother"
              },
              {
                "endTime": "33.700s",
                "startTime": "33.200s",
                "word": "does"
              },
              {
                "endTime": "33.900s",
                "startTime": "33.700s",
                "word": "not"
              },
              {
                "endTime": "35.500s",
                "startTime": "33.900s",
                "word": "see"
              },
              {
                "endTime": "35.700s",
                "startTime": "35.500s",
                "word": "it"
              },
              {
                "endTime": "36.100s",
                "startTime": "35.700s",
                "word": "because"
              },
              {
                "endTime": "36.400s",
                "startTime": "36.100s",
                "word": "she's"
              },
              {
                "endTime": "37.100s",
                "startTime": "36.400s",
                "word": "inside"
              }
            ]
          }
        ]
      },
      {
        "alternatives": [
          {
            "confidence": 0.72103304,
            "transcript": " drying the clothes",
            "words": [
              {
                "endTime": "41.300s",
                "startTime": "40.600s",
                "word": "drying"
              },
              {
                "endTime": "41.500s",
                "startTime": "41.300s",
                "word": "the"
              },
              {
                "endTime": "42s",
                "startTime": "41.500s",
                "word": "clothes"
              }
            ]
          }
        ]
      },
      {
        "alternatives": [
          {
            "confidence": 0.8153856,
            "transcript": " and",
            "words": [
              {
                "endTime": "43.900s",
                "startTime": "43.200s",
                "word": "and"
              }
            ]
          }
        ]
      },
      {
        "alternatives": [
          {
            "confidence": 0.9952031,
            "transcript": " the kids then",
            "words": [
              {
                "endTime": "46.600s",
                "startTime": "46.300s",
                "word": "the"
              },
              {
                "endTime": "47.100s",
                "startTime": "46.600s",
                "word": "kids"
              },
              {
                "endTime": "47.400s",
                "startTime": "47.100s",
                "word": "then"
              }
            ]
          }
        ]
      },
      {
        "alternatives": [
          {
            "confidence": 0.8361294,
            "transcript": " did the mother of is working hard and the kids were playing and all of a sudden",
            "words": [
              {
                "endTime": "52.700s",
                "startTime": "52.200s",
                "word": "did"
              },
              {
                "endTime": "52.800s",
                "startTime": "52.700s",
                "word": "the"
              },
              {
                "endTime": "56.200s",
                "startTime": "52.800s",
                "word": "mother"
              },
              {
                "endTime": "56.300s",
                "startTime": "56.200s",
                "word": "of"
              },
              {
                "endTime": "56.600s",
                "startTime": "56.300s",
                "word": "is"
              },
              {
                "endTime": "57.100s",
                "startTime": "56.600s",
                "word": "working"
              },
              {
                "endTime": "57.700s",
                "startTime": "57.100s",
                "word": "hard"
              },
              {
                "endTime": "57.900s",
                "startTime": "57.700s",
                "word": "and"
              },
              {
                "endTime": "58.500s",
                "startTime": "57.900s",
                "word": "the"
              },
              {
                "endTime": "58.800s",
                "startTime": "58.500s",
                "word": "kids"
              },
              {
                "endTime": "59.200s",
                "startTime": "58.800s",
                "word": "were"
              },
              {
                "endTime": "59.900s",
                "startTime": "59.200s",
                "word": "playing"
              },
              {
                "endTime": "61.400s",
                "startTime": "59.900s",
                "word": "and"
              },
              {
                "endTime": "62.100s",
                "startTime": "61.400s",
                "word": "all"
              },
              {
                "endTime": "62.200s",
                "startTime": "62.100s",
                "word": "of"
              },
              {
                "endTime": "62.300s",
                "startTime": "62.200s",
                "word": "a"
              },
              {
                "endTime": "62.300s",
                "startTime": "62.300s",
                "word": "sudden"
              }
            ]
          }
        ]
      },
      {
        "alternatives": [
          {
            "confidence": 0.927173,
            "transcript": " turn over a dish",
            "words": [
              {
                "endTime": "68.500s",
                "startTime": "66.900s",
                "word": "turn"
              },
              {
                "endTime": "68.900s",
                "startTime": "68.500s",
                "word": "over"
              },
              {
                "endTime": "69s",
                "startTime": "68.900s",
                "word": "a"
              },
              {
                "endTime": "69.400s",
                "startTime": "69s",
                "word": "dish"
              }
            ]
          }
        ]
      },
      {
        "alternatives": [
          {
            "confidence": 0.9220879,
            "transcript": " all over the floor",
            "words": [
              {
                "endTime": "73.200s",
                "startTime": "72.700s",
                "word": "all"
              },
              {
                "endTime": "73.400s",
                "startTime": "73.200s",
                "word": "over"
              },
              {
                "endTime": "73.500s",
                "startTime": "73.400s",
                "word": "the"
              },
              {
                "endTime": "73.800s",
                "startTime": "73.500s",
                "word": "floor"
              }
            ]
          }
        ]
      },
      {
        "alternatives": [
          {
            "confidence": 0.6269688,
            "transcript": " accepted",
            "words": [
              {
                "endTime": "76s",
                "startTime": "75.100s",
                "word": "accepted"
              }
            ]
          }
        ]
      },
      {
        "alternatives": [
          {
            "confidence": 0.8162338,
            "transcript": " splash",
            "words": [
              {
                "endTime": "82.700s",
                "startTime": "81.300s",
                "word": "splash"
              }
            ]
          }
        ]
      },
      {
        "alternatives": [
          {
            "confidence": 0.6405604,
            "transcript": " splash drum the sink",
            "words": [
              {
                "endTime": "87.100s",
                "startTime": "85s",
                "word": "splash"
              },
              {
                "endTime": "87.600s",
                "startTime": "87.100s",
                "word": "drum"
              },
              {
                "endTime": "87.700s",
                "startTime": "87.600s",
                "word": "the"
              },
              {
                "endTime": "88.300s",
                "startTime": "87.700s",
                "word": "sink"
              }
            ]
          }
        ]
      },
      {
        "alternatives": [
          {
            "confidence": 0.8309789,
            "transcript": " that's okay there anything else",
            "words": [
              {
                "endTime": "100.300s",
                "startTime": "97s",
                "word": "that's"
              },
              {
                "endTime": "100.600s",
                "startTime": "100.300s",
                "word": "okay"
              },
              {
                "endTime": "100.900s",
                "startTime": "100.600s",
                "word": "there"
              },
              {
                "endTime": "101s",
                "startTime": "100.900s",
                "word": "anything"
              },
              {
                "endTime": "101.400s",
                "startTime": "101s",
                "word": "else"
              }
            ]
          }
        ]
      },
      {
        "alternatives": [
          {
            "confidence": 0.9142832,
            "transcript": " crack on the head",
            "words": [
              {
                "endTime": "108.300s",
                "startTime": "107.800s",
                "word": "crack"
              },
              {
                "endTime": "108.400s",
                "startTime": "108.300s",
                "word": "on"
              },
              {
                "endTime": "108.500s",
                "startTime": "108.400s",
                "word": "the"
              },
              {
                "endTime": "108.700s",
                "startTime": "108.500s",
                "word": "head"
              }
            ]
          }
        ]
      },
      {
        "alternatives": [
          {
            "confidence": 0.7431524,
            "transcript": " sometimes I see it",
            "words": [
              {
                "endTime": "125.300s",
                "startTime": "123.900s",
                "word": "sometimes"
              },
              {
                "endTime": "125.400s",
                "startTime": "125.300s",
                "word": "I"
              },
              {
                "endTime": "126.800s",
                "startTime": "125.400s",
                "word": "see"
              },
              {
                "endTime": "127.100s",
                "startTime": "126.800s",
                "word": "it"
              }
            ]
          }
        ]
      },
      {
        "alternatives": [
          {
            "confidence": 0.61182815,
            "transcript": " at times I see the week",
            "words": [
              {
                "endTime": "132.400s",
                "startTime": "130.900s",
                "word": "at"
              },
              {
                "endTime": "132.800s",
                "startTime": "132.400s",
                "word": "times"
              },
              {
                "endTime": "132.900s",
                "startTime": "132.800s",
                "word": "I"
              },
              {
                "endTime": "133.600s",
                "startTime": "132.900s",
                "word": "see"
              },
              {
                "endTime": "135.300s",
                "startTime": "133.600s",
                "word": "the"
              },
              {
                "endTime": "135.600s",
                "startTime": "135.300s",
                "word": "week"
              }
            ]
          }
        ]
      },
      {
        "alternatives": [
          {
            "confidence": 0.9150661,
            "transcript": " was there anything else you can think of",
            "words": [
              {
                "endTime": "144.900s",
                "startTime": "144.400s",
                "word": "was"
              },
              {
                "endTime": "145s",
                "startTime": "144.900s",
                "word": "there"
              },
              {
                "endTime": "145.300s",
                "startTime": "145s",
                "word": "anything"
              },
              {
                "endTime": "145.400s",
                "startTime": "145.300s",
                "word": "else"
              },
              {
                "endTime": "145.700s",
                "startTime": "145.400s",
                "word": "you"
              },
              {
                "endTime": "145.800s",
                "startTime": "145.700s",
                "word": "can"
              },
              {
                "endTime": "146s",
                "startTime": "145.800s",
                "word": "think"
              },
              {
                "endTime": "146.300s",
                "startTime": "146s",
                "word": "of"
              }
            ]
          }
        ]
      },
      {
        "alternatives": [
          {
            "confidence": 0.8727565,
            "transcript": " not in so much trouble",
            "words": [
              {
                "endTime": "153.300s",
                "startTime": "152.500s",
                "word": "not"
              },
              {
                "endTime": "153.600s",
                "startTime": "153.300s",
                "word": "in"
              },
              {
                "endTime": "153.800s",
                "startTime": "153.600s",
                "word": "so"
              },
              {
                "endTime": "154s",
                "startTime": "153.800s",
                "word": "much"
              },
              {
                "endTime": "154.500s",
                "startTime": "154s",
                "word": "trouble"
              }
            ]
          }
        ]
      },
      {
        "alternatives": [
          {
            "confidence": 0.7206401,
            "transcript": " looking at that thing it it outside",
            "words": [
              {
                "endTime": "159.600s",
                "startTime": "158.200s",
                "word": "looking"
              },
              {
                "endTime": "159.700s",
                "startTime": "159.600s",
                "word": "at"
              },
              {
                "endTime": "160.100s",
                "startTime": "159.700s",
                "word": "that"
              },
              {
                "endTime": "160.300s",
                "startTime": "160.100s",
                "word": "thing"
              },
              {
                "endTime": "160.700s",
                "startTime": "160.300s",
                "word": "it"
              },
              {
                "endTime": "160.800s",
                "startTime": "160.700s",
                "word": "it"
              },
              {
                "endTime": "161.300s",
                "startTime": "160.800s",
                "word": "outside"
              }
            ]
          }
        ]
      },
      {
        "alternatives": [
          {
            "confidence": 0.6767782,
            "transcript": " Hampton Inn in marriage",
            "words": [
              {
                "endTime": "166.800s",
                "startTime": "163.100s",
                "word": "Hampton"
              },
              {
                "endTime": "166.900s",
                "startTime": "166.800s",
                "word": "Inn"
              },
              {
                "endTime": "167s",
                "startTime": "166.900s",
                "word": "in"
              },
              {
                "endTime": "167.700s",
                "startTime": "167s",
                "word": "marriage"
              }
            ]
          }
        ]
      },
      {
        "alternatives": [
          {
            "confidence": 0.836846,
            "transcript": " but not",
            "words": [
              {
                "endTime": "169.500s",
                "startTime": "169s",
                "word": "but"
              },
              {
                "endTime": "169.800s",
                "startTime": "169.500s",
                "word": "not"
              }
            ]
          }
        ]
      },
      {
        "alternatives": [
          {
            "confidence": 0.69855285,
            "transcript": " not getting anything with yours",
            "words": [
              {
                "endTime": "175.600s",
                "startTime": "174.800s",
                "word": "not"
              },
              {
                "endTime": "176.100s",
                "startTime": "175.600s",
                "word": "getting"
              },
              {
                "endTime": "176.500s",
                "startTime": "176.100s",
                "word": "anything"
              },
              {
                "endTime": "176.800s",
                "startTime": "176.500s",
                "word": "with"
              },
              {
                "endTime": "177.400s",
                "startTime": "176.800s",
                "word": "yours"
              }
            ]
          }
        ]
      },
      {
        "alternatives": [
          {
            "confidence": 0.87771434,
            "transcript": " you told me everything okay thank you",
            "words": [
              {
                "endTime": "186s",
                "startTime": "185.800s",
                "word": "you"
              },
              {
                "endTime": "186.300s",
                "startTime": "186s",
                "word": "told"
              },
              {
                "endTime": "186.300s",
                "startTime": "186.300s",
                "word": "me"
              },
              {
                "endTime": "186.500s",
                "startTime": "186.300s",
                "word": "everything"
              },
              {
                "endTime": "187.900s",
                "startTime": "186.500s",
                "word": "okay"
              },
              {
                "endTime": "188.900s",
                "startTime": "187.900s",
                "word": "thank"
              },
              {
                "endTime": "189.200s",
                "startTime": "188.900s",
                "word": "you"
              }
            ]
          }
        ]
      }
    ]
  }
}
