{
  "done": true,
  "metadata": {
    "@type": "type.googleapis.com/google.cloud.speech.v1.LongRunningRecognizeMetadata",
    "lastUpdateTime": "2021-03-10T10:03:26.436193Z",
    "progressPercent": 100,
    "startTime": "2021-03-10T10:03:13.301306Z",
    "uri": "gs://adresso/ADReSSo21-diagnosis-train/diagnosis/train/audio/ad/adrso035.wav"
  },
  "name": "4682465414870895867",
  "response": {
    "@type": "type.googleapis.com/google.cloud.speech.v1.LongRunningRecognizeResponse",
    "results": [
      {
        "alternatives": [
          {
            "confidence": 0.8575912,
            "transcript": "okay here's the picture",
            "words": [
              {
                "endTime": "1.400s",
                "startTime": "0.800s",
                "word": "okay"
              },
              {
                "endTime": "1.800s",
                "startTime": "1.400s",
                "word": "here's"
              },
              {
                "endTime": "1.900s",
                "startTime": "1.800s",
                "word": "the"
              },
              {
                "endTime": "2.500s",
                "startTime": "1.900s",
                "word": "picture"
              }
            ]
          }
        ]
      },
      {
        "alternatives": [
          {
            "confidence": 0.8248692,
            "transcript": " well a little boys reason for cookies",
            "words": [
              {
                "endTime": "10.900s",
                "startTime": "10.300s",
                "word": "well"
              },
              {
                "endTime": "11.200s",
                "startTime": "10.900s",
                "word": "a"
              },
              {
                "endTime": "11.300s",
                "startTime": "11.200s",
                "word": "little"
              },
              {
                "endTime": "11.800s",
                "startTime": "11.300s",
                "word": "boys"
              },
              {
                "endTime": "12.300s",
                "startTime": "11.800s",
                "word": "reason"
              },
              {
                "endTime": "12.700s",
                "startTime": "12.300s",
                "word": "for"
              },
              {
                "endTime": "13.200s",
                "startTime": "12.700s",
                "word": "cookies"
              }
            ]
          }
        ]
      },
      {
        "alternatives": [
          {
            "confidence": 0.7622328,
            "transcript": " little girls begging and beginner one",
            "words": [
              {
                "endTime": "18.600s",
                "startTime": "18.100s",
                "word": "little"
              },
              {
                "endTime": "19.100s",
                "startTime": "18.600s",
                "word": "girls"
              },
              {
                "endTime": "19.300s",
                "startTime": "19.100s",
                "word": "begging"
              },
              {
                "endTime": "19.600s",
                "startTime": "19.300s",
                "word": "and"
              },
              {
                "endTime": "20s",
                "startTime": "19.600s",
                "word": "beginner"
              },
              {
                "endTime": "20.400s",
                "startTime": "20s",
                "word": "one"
              }
            ]
          }
        ]
      },
      {
        "alternatives": [
          {
            "confidence": 0.7196394,
            "transcript": " mom is doing the dishes",
            "words": [
              {
                "endTime": "29.600s",
                "startTime": "29.100s",
                "word": "mom"
              },
              {
                "endTime": "29.800s",
                "startTime": "29.600s",
                "word": "is"
              },
              {
                "endTime": "30s",
                "startTime": "29.800s",
                "word": "doing"
              },
              {
                "endTime": "30.300s",
                "startTime": "30s",
                "word": "the"
              },
              {
                "endTime": "30.500s",
                "startTime": "30.300s",
                "word": "dishes"
              }
            ]
          }
        ]
      },
      {
        "alternatives": [
          {
            "confidence": 0.6956778,
            "transcript": " snow that looks pretty good",
            "words": [
              {
                "endTime": "71.500s",
                "startTime": "69.600s",
                "word": "snow"
              },
              {
                "endTime": "71.700s",
                "startTime": "71.500s",
                "word": "that"
              },
              {
                "endTime": "71.800s",
                "startTime": "71.700s",
                "word": "looks"
              },
              {
                "endTime": "72.100s",
                "startTime": "71.800s",
                "word": "pretty"
              },
              {
                "endTime": "72.400s",
                "startTime": "72.100s",
                "word": "good"
              }
            ]
          }
        ]
      },
      {
        "alternatives": [
          {
            "confidence": 0.87705016,
            "transcript": " okay okay good",
            "words": [
              {
                "endTime": "74.800s",
                "startTime": "74.200s",
                "word": "okay"
              },
              {
                "endTime": "75.600s",
                "startTime": "74.800s",
                "word": "okay"
              },
              {
                "endTime": "75.900s",
                "startTime": "75.600s",
                "word": "good"
              }
            ]
          }
        ]
      }
    ]
  }
}
