{
  "done": true,
  "metadata": {
    "@type": "type.googleapis.com/google.cloud.speech.v1.LongRunningRecognizeMetadata",
    "lastUpdateTime": "2021-03-10T10:04:24.468978Z",
    "progressPercent": 100,
    "startTime": "2021-03-10T10:04:09.389610Z",
    "uri": "gs://adresso/ADReSSo21-diagnosis-train/diagnosis/train/audio/ad/adrso125.wav"
  },
  "name": "7951565811255179098",
  "response": {
    "@type": "type.googleapis.com/google.cloud.speech.v1.LongRunningRecognizeResponse",
    "results": [
      {
        "alternatives": [
          {
            "confidence": 0.8457749,
            "transcript": "take a look at this picture just tell me what you see going on in that picture tell me everything that you see happening there right now making some cookies and the",
            "words": [
              {
                "endTime": "0.500s",
                "startTime": "0s",
                "word": "take"
              },
              {
                "endTime": "0.500s",
                "startTime": "0.500s",
                "word": "a"
              },
              {
                "endTime": "0.700s",
                "startTime": "0.500s",
                "word": "look"
              },
              {
                "endTime": "0.800s",
                "startTime": "0.700s",
                "word": "at"
              },
              {
                "endTime": "1s",
                "startTime": "0.800s",
                "word": "this"
              },
              {
                "endTime": "1.400s",
                "startTime": "1s",
                "word": "picture"
              },
              {
                "endTime": "2.500s",
                "startTime": "1.400s",
                "word": "just"
              },
              {
                "endTime": "2.900s",
                "startTime": "2.500s",
                "word": "tell"
              },
              {
                "endTime": "3.100s",
                "startTime": "2.900s",
                "word": "me"
              },
              {
                "endTime": "3.300s",
                "startTime": "3.100s",
                "word": "what"
              },
              {
                "endTime": "3.500s",
                "startTime": "3.300s",
                "word": "you"
              },
              {
                "endTime": "3.700s",
                "startTime": "3.500s",
                "word": "see"
              },
              {
                "endTime": "4s",
                "startTime": "3.700s",
                "word": "going"
              },
              {
                "endTime": "4.400s",
                "startTime": "4s",
                "word": "on"
              },
              {
                "endTime": "4.500s",
                "startTime": "4.400s",
                "word": "in"
              },
              {
                "endTime": "4.600s",
                "startTime": "4.500s",
                "word": "that"
              },
              {
                "endTime": "5s",
                "startTime": "4.600s",
                "word": "picture"
              },
              {
                "endTime": "5.600s",
                "startTime": "5s",
                "word": "tell"
              },
              {
                "endTime": "5.800s",
                "startTime": "5.600s",
                "word": "me"
              },
              {
                "endTime": "6.200s",
                "startTime": "5.800s",
                "word": "everything"
              },
              {
                "endTime": "6.200s",
                "startTime": "6.200s",
                "word": "that"
              },
              {
                "endTime": "6.400s",
                "startTime": "6.200s",
                "word": "you"
              },
              {
                "endTime": "6.600s",
                "startTime": "6.400s",
                "word": "see"
              },
              {
                "endTime": "7s",
                "startTime": "6.600s",
                "word": "happening"
              },
              {
                "endTime": "7.500s",
                "startTime": "7s",
                "word": "there"
              },
              {
                "endTime": "8.600s",
                "startTime": "7.500s",
                "word": "right"
              },
              {
                "endTime": "8.800s",
                "startTime": "8.600s",
                "word": "now"
              },
              {
                "endTime": "12.100s",
                "startTime": "8.800s",
                "word": "making"
              },
              {
                "endTime": "12.400s",
                "startTime": "12.100s",
                "word": "some"
              },
              {
                "endTime": "12.700s",
                "startTime": "12.400s",
                "word": "cookies"
              },
              {
                "endTime": "14.800s",
                "startTime": "12.700s",
                "word": "and"
              },
              {
                "endTime": "15.500s",
                "startTime": "14.800s",
                "word": "the"
              }
            ]
          }
        ]
      },
      {
        "alternatives": [
          {
            "confidence": 0.73261166,
            "transcript": " yeah. They're",
            "words": [
              {
                "endTime": "19.100s",
                "startTime": "17.200s",
                "word": "yeah."
              },
              {
                "endTime": "19.200s",
                "startTime": "19.100s",
                "word": "They're"
              }
            ]
          }
        ]
      },
      {
        "alternatives": [
          {
            "confidence": 0.5707798,
            "transcript": " I don't want to come",
            "words": [
              {
                "endTime": "22.900s",
                "startTime": "21.400s",
                "word": "I"
              },
              {
                "endTime": "23.300s",
                "startTime": "22.900s",
                "word": "don't"
              },
              {
                "endTime": "23.500s",
                "startTime": "23.300s",
                "word": "want"
              },
              {
                "endTime": "23.600s",
                "startTime": "23.500s",
                "word": "to"
              },
              {
                "endTime": "23.800s",
                "startTime": "23.600s",
                "word": "come"
              }
            ]
          }
        ]
      },
      {
        "alternatives": [
          {
            "confidence": 0.7950418,
            "transcript": " and what's he doing he's asking for some cookies mothers during the dishes",
            "words": [
              {
                "endTime": "25.300s",
                "startTime": "24.800s",
                "word": "and"
              },
              {
                "endTime": "25.500s",
                "startTime": "25.300s",
                "word": "what's"
              },
              {
                "endTime": "25.700s",
                "startTime": "25.500s",
                "word": "he"
              },
              {
                "endTime": "26.100s",
                "startTime": "25.700s",
                "word": "doing"
              },
              {
                "endTime": "27.600s",
                "startTime": "26.100s",
                "word": "he's"
              },
              {
                "endTime": "28s",
                "startTime": "27.600s",
                "word": "asking"
              },
              {
                "endTime": "28.200s",
                "startTime": "28s",
                "word": "for"
              },
              {
                "endTime": "28.400s",
                "startTime": "28.200s",
                "word": "some"
              },
              {
                "endTime": "28.900s",
                "startTime": "28.400s",
                "word": "cookies"
              },
              {
                "endTime": "30s",
                "startTime": "28.900s",
                "word": "mothers"
              },
              {
                "endTime": "30.200s",
                "startTime": "30s",
                "word": "during"
              },
              {
                "endTime": "30.500s",
                "startTime": "30.200s",
                "word": "the"
              },
              {
                "endTime": "31.100s",
                "startTime": "30.500s",
                "word": "dishes"
              }
            ]
          }
        ]
      },
      {
        "alternatives": [
          {
            "confidence": 0.85248834,
            "transcript": " and she spilled water all over the place just think",
            "words": [
              {
                "endTime": "32.400s",
                "startTime": "31.900s",
                "word": "and"
              },
              {
                "endTime": "32.500s",
                "startTime": "32.400s",
                "word": "she"
              },
              {
                "endTime": "32.900s",
                "startTime": "32.500s",
                "word": "spilled"
              },
              {
                "endTime": "33.300s",
                "startTime": "32.900s",
                "word": "water"
              },
              {
                "endTime": "33.400s",
                "startTime": "33.300s",
                "word": "all"
              },
              {
                "endTime": "33.600s",
                "startTime": "33.400s",
                "word": "over"
              },
              {
                "endTime": "33.700s",
                "startTime": "33.600s",
                "word": "the"
              },
              {
                "endTime": "34.100s",
                "startTime": "33.700s",
                "word": "place"
              },
              {
                "endTime": "35.100s",
                "startTime": "34.100s",
                "word": "just"
              },
              {
                "endTime": "35.600s",
                "startTime": "35.100s",
                "word": "think"
              }
            ]
          }
        ]
      },
      {
        "alternatives": [
          {
            "confidence": 0.68273246,
            "transcript": " you're well",
            "words": [
              {
                "endTime": "44.500s",
                "startTime": "44s",
                "word": "you're"
              },
              {
                "endTime": "44.800s",
                "startTime": "44.500s",
                "word": "well"
              }
            ]
          }
        ]
      },
      {
        "alternatives": [
          {
            "confidence": 0.57364756,
            "transcript": " much better thank you",
            "words": [
              {
                "endTime": "50.800s",
                "startTime": "50.300s",
                "word": "much"
              },
              {
                "endTime": "51s",
                "startTime": "50.800s",
                "word": "better"
              },
              {
                "endTime": "52.600s",
                "startTime": "51s",
                "word": "thank"
              },
              {
                "endTime": "52.700s",
                "startTime": "52.600s",
                "word": "you"
              }
            ]
          }
        ]
      }
    ]
  }
}
